material Explotion2
{
	receive_shadows off
	technique
	{
		pass
		{
			scene_blend alpha_blend
			depth_write off
			cull_hardware none
			cull_software none 
			texture_unit
			{
				src_texture 1 
				texture Explotion2.png
			}
		}
	}
}
