<?xml version="1.0" encoding="UTF-8" standalone="no"?>
<!-- Created with Inkscape (http://www.inkscape.org/) -->

<svg
   xmlns:dc="http://purl.org/dc/elements/1.1/"
   xmlns:cc="http://creativecommons.org/ns#"
   xmlns:rdf="http://www.w3.org/1999/02/22-rdf-syntax-ns#"
   xmlns:svg="http://www.w3.org/2000/svg"
   xmlns="http://www.w3.org/2000/svg"
   xmlns:sodipodi="http://sodipodi.sourceforge.net/DTD/sodipodi-0.dtd"
   xmlns:inkscape="http://www.inkscape.org/namespaces/inkscape"
   id="svg2"
   version="1.1"
   inkscape:version="0.48.4 r9939"
   width="256"
   height="256"
   xml:space="preserve"
   sodipodi:docname="explotion.svg"
   inkscape:export-filename="/home/fergus/CEDV/TFC/modelos/explotion.png"
   inkscape:export-xdpi="90"
   inkscape:export-ydpi="90"><metadata
     id="metadata8"><rdf:RDF><cc:Work
         rdf:about=""><dc:format>image/svg+xml</dc:format><dc:type
           rdf:resource="http://purl.org/dc/dcmitype/StillImage" /><dc:title></dc:title></cc:Work></rdf:RDF></metadata><defs
     id="defs6"><clipPath
       clipPathUnits="userSpaceOnUse"
       id="clipPath30"><path
         d="m 9597.4,9579.72 c 131.16,-86.91 432.8,-156.36 816.4,-188.65 150.7,-12.69 314.1,-19.63 484.9,-19.63 605,0 1118.5,87.21 1301.2,208.32 14,9.26 34.2,23.67 49.5,42.43 17.1,20.93 28.2,47.31 17.9,78.04 -4.3,12.98 -12.2,25.73 -23.6,38.21 -11.3,12.39 -26,24.51 -43.8,36.31 -182.7,121.09 -696.2,208.32 -1301.2,208.32 -170.8,0 -334.2,-6.95 -484.9,-19.65 -383.6,-32.27 -685.24,-101.72 -816.4,-188.63 -17.81,-11.81 -32.48,-23.94 -43.78,-36.34 -11.39,-12.48 -19.33,-25.23 -23.67,-38.2 -10.26,-30.75 0.83,-57.13 17.94,-78.08 15.35,-18.77 35.53,-33.17 49.51,-42.45 z"
         id="path32"
         inkscape:connector-curvature="0" /></clipPath><clipPath
       clipPathUnits="userSpaceOnUse"
       id="clipPath36"><path
         d="m 9597.4,9579.72 c 131.16,-86.91 432.8,-156.36 816.4,-188.65 150.7,-12.69 314.1,-19.63 484.9,-19.63 605,0 1118.5,87.21 1301.2,208.32 14,9.26 34.2,23.67 49.5,42.43 17.1,20.93 28.2,47.31 17.9,78.04 -4.3,12.98 -12.2,25.73 -23.6,38.21 -11.3,12.39 -26,24.51 -43.8,36.31 -182.7,121.09 -696.2,208.32 -1301.2,208.32 -170.8,0 -334.2,-6.95 -484.9,-19.65 -383.6,-32.27 -685.24,-101.72 -816.4,-188.63 -17.81,-11.81 -32.48,-23.94 -43.78,-36.34 -11.39,-12.48 -19.33,-25.23 -23.67,-38.2 -10.26,-30.75 0.83,-57.13 17.94,-78.08 15.35,-18.77 35.53,-33.17 49.51,-42.45"
         id="path38"
         inkscape:connector-curvature="0" /></clipPath><clipPath
       clipPathUnits="userSpaceOnUse"
       id="clipPath322"><path
         d="m 1532.38,468.633 c 223.2,-149.285 579.17,-266.524 1007.39,-328.828 219.44,-31.922 457.86,-49.4222 707.09,-49.4222 399.8,0 771.73,45.0272 1082.21,122.3902 260.82,65 478.25,152.813 632.36,255.938 50.03,33.469 93.39,68.555 129.4,104.988 78.07,79.035 121.55,164.438 123.46,253.547 1.64,75.488 -28.08,146.824 -72.44,206.734 -42.85,57.9 -103.82,112.92 -180.42,164.17 -154.11,103.11 -371.54,190.92 -632.36,255.91 -310.48,77.39 -682.41,122.42 -1082.21,122.42 -249.23,0 -487.65,-17.52 -707.08,-49.43 -428.23,-62.3 -784.2,-179.53 -1007.4,-328.83 -76.62,-51.26 -137.6,-106.31 -180.47,-164.18 -44.39,-59.938 -74.1,-131.286 -72.48,-206.794 1.91,-89.133 45.41,-174.551 123.52,-253.586 36.01,-36.441 79.39,-71.531 129.43,-105.027 z"
         id="path324"
         inkscape:connector-curvature="0" /></clipPath><clipPath
       clipPathUnits="userSpaceOnUse"
       id="clipPath328"><path
         d="m 1532.38,468.633 c 223.2,-149.285 579.17,-266.524 1007.39,-328.828 219.44,-31.922 457.86,-49.4222 707.09,-49.4222 399.8,0 771.73,45.0272 1082.21,122.3902 260.82,65 478.25,152.813 632.36,255.938 50.03,33.469 93.39,68.555 129.4,104.988 78.07,79.035 121.55,164.438 123.46,253.547 1.64,75.488 -28.08,146.824 -72.44,206.734 -42.85,57.9 -103.82,112.92 -180.42,164.17 -154.11,103.11 -371.54,190.92 -632.36,255.91 -310.48,77.39 -682.41,122.42 -1082.21,122.42 -249.23,0 -487.65,-17.52 -707.08,-49.43 -428.23,-62.3 -784.2,-179.53 -1007.4,-328.83 -76.62,-51.26 -137.6,-106.31 -180.47,-164.18 -44.39,-59.938 -74.1,-131.286 -72.48,-206.794 1.91,-89.133 45.41,-174.551 123.52,-253.586 36.01,-36.441 79.39,-71.531 129.43,-105.027"
         id="path330"
         inkscape:connector-curvature="0" /></clipPath></defs><sodipodi:namedview
     pagecolor="#ffffff"
     bordercolor="#666666"
     borderopacity="1"
     objecttolerance="10"
     gridtolerance="10"
     guidetolerance="10"
     inkscape:pageopacity="0"
     inkscape:pageshadow="2"
     inkscape:window-width="1366"
     inkscape:window-height="713"
     id="namedview4"
     showgrid="false"
     inkscape:zoom="1.2210186"
     inkscape:cx="222.12769"
     inkscape:cy="72.801116"
     inkscape:window-x="-3"
     inkscape:window-y="-3"
     inkscape:window-maximized="1"
     inkscape:current-layer="g10" /><g
     id="g10"
     inkscape:groupmode="layer"
     inkscape:label="ink_ext_XXXXXX"
     transform="matrix(1.25,0,0,-1.25,0,256)"><g
       id="g4028"
       transform="matrix(0.54089316,0,0,0.54416708,-125.20541,-340.98869)"><path
         d="m 530.691,859.565 c -51.416,-17.679 -53.056,-16.959 -8.71,3.866 -45.547,-18.352 -45.239,-16.379 1.6,10.506 -45.571,-6.391 -59.613,9.504 -55.761,63.118 -24.407,-52.341 -26.461,-52.407 -10.933,-0.32 -25.879,-44.681 -38.168,-42.403 -55.74,9.388 1.591,-53.325 -4.544,-51.536 -31.911,8.713 1.306,-60.249 -14.507,-76.062 -62.79,-62.788 48.283,-34.341 48.388,-35.877 0.535,-8.186 38.878,-33.773 32.577,-43.246 -27.506,-44.43 60.083,-13.125 60.681,-16.35 3.002,-17.025 54.921,-9.481 54.067,-18.211 -2.876,-42.873 60.146,16.131 60.27,15.821 0.656,-1.657 58.233,12.202 58.087,6.759 -0.209,-28.042 64.013,14.852 79.054,6.319 60.134,-34.37 44.711,28.335 65.32,20.319 91.952,-32.793 -0.65,60.557 4.786,63.403 28.718,14.666 -11.421,50.182 -2.689,51.233 42.58,6.459 -34.467,51.817 -31.663,54.652 14.876,14.717 -43.567,43.505 -42.734,43.902 4.436,2.125 -31.201,50.206 -24.318,67.714 30.543,73.412 -54,23.647 -59.28,39.612 -22.596,65.514"
         style="fill:#f25a1a;fill-opacity:1;fill-rule:nonzero;stroke:none"
         id="path256"
         inkscape:connector-curvature="0" /><path
         d="M 578.863,871.234 C 441.34,820.455 440.818,820.685 566.82,876.58 440.432,821.475 440.532,822.105 569.033,891.107 440.937,828.652 436.451,833.73 491.925,978.388 429.885,834.136 429.229,834.115 476.809,977.945 425.922,836.48 421.996,837.209 399.73,990.928 c 17.162,-154.209 15.202,-153.639 -44.128,12.052 51.005,-165.691 45.953,-170.741 -86.825,-86.828 132.778,-90.643 132.811,-91.134 0.739,-11.32 129.205,-81.757 127.193,-84.783 -38.037,-61.438 165.23,-27.916 165.421,-28.946 4.153,-23.543 160.387,-8.647 160.114,-11.436 -3.978,-59.284 165.115,45.124 165.155,45.024 0.908,-2.291 163.806,45.63 163.759,43.89 -0.289,-38.778 165.874,76.296 170.679,73.57 83.154,-47.527 95.764,117.151 102.348,114.591 127.152,-45.346 -16.505,162.314 -14.768,163.223 39.71,20.279 -50.482,143.406 -47.692,143.742 58.882,8.934 -103.124,137.058 -102.228,137.964 20.57,20.35 -121.848,118.753 -121.582,118.881 6.135,2.937 -122.616,118.636 -120.418,124.23 42.236,101.514 -162.378,32.088 -164.065,37.189 -31.249,90.595"
         style="fill:#fad80f;fill-opacity:1;fill-rule:nonzero;stroke:none"
         id="path258"
         inkscape:connector-curvature="0" /><path
         d="m 485.741,837.962 c -25.729,-8.681 -26.733,-8.24 -4.891,2.171 -22.577,-8.899 -22.387,-7.692 0.898,5.899 -22.51,-1.051 -31.102,8.675 -31.312,35.444 -12.366,-25.99 -13.624,-26.031 -6.138,-0.18 -13.818,-21.32 -21.337,-19.925 -31.301,5.272 0.185,-26.137 -3.568,-25.042 -17.92,4.893 -1.593,-29.935 -11.269,-39.609 -35.258,-35.259 23.989,-17.241 24.053,-18.181 0.3,-4.596 18.262,-17.306 14.406,-23.101 -15.446,-24.95 29.852,-6.908 30.219,-8.881 1.686,-9.559 26.845,-5.535 26.322,-10.876 -1.615,-24.074 29.897,7.977 29.973,7.788 0.369,-0.931 28.759,5.49 28.669,2.16 -0.118,-15.747 32.285,5.701 41.489,0.48 33.768,-19.3 23.501,12.222 36.11,7.317 51.634,-18.415 0.374,30.288 3.7,32.028 16.126,8.236 -4.771,24.677 0.571,25.321 23.911,3.627 -16.73,26.002 -15.015,27.737 8.353,8.264 -21.549,21.657 -21.039,21.9 2.491,1.193 -13.759,25.864 -9.548,36.577 17.152,41.224 -26.173,13.307 -29.403,23.076 -12.689,36.788"
         style="fill:#faf9b1;fill-opacity:1;fill-rule:nonzero;stroke:none"
         id="path260"
         inkscape:connector-curvature="0" /></g></g></svg>