<?xml version="1.0" encoding="UTF-8" standalone="no"?>
<!-- Created with Inkscape (http://www.inkscape.org/) -->

<svg
   xmlns:dc="http://purl.org/dc/elements/1.1/"
   xmlns:cc="http://creativecommons.org/ns#"
   xmlns:rdf="http://www.w3.org/1999/02/22-rdf-syntax-ns#"
   xmlns:svg="http://www.w3.org/2000/svg"
   xmlns="http://www.w3.org/2000/svg"
   xmlns:sodipodi="http://sodipodi.sourceforge.net/DTD/sodipodi-0.dtd"
   xmlns:inkscape="http://www.inkscape.org/namespaces/inkscape"
   id="svg2"
   version="1.1"
   inkscape:version="0.48.4 r9939"
   width="256"
   height="256"
   xml:space="preserve"
   sodipodi:docname="05.eps"><metadata
     id="metadata8"><rdf:RDF><cc:Work
         rdf:about=""><dc:format>image/svg+xml</dc:format><dc:type
           rdf:resource="http://purl.org/dc/dcmitype/StillImage" /><dc:title></dc:title></cc:Work></rdf:RDF></metadata><defs
     id="defs6"><clipPath
       clipPathUnits="userSpaceOnUse"
       id="clipPath18"><path
         d="m 0,0 14666,0 0,14174.9 -14666,0 L 0,0 z"
         id="path20"
         inkscape:connector-curvature="0" /></clipPath><clipPath
       clipPathUnits="userSpaceOnUse"
       id="clipPath260"><path
         d="m 10740,5910.26 c 0,116.29 -118.5,210.52 -264.7,210.52 -16.9,0 -33.4,-1.24 -49.5,-3.69 -31.4,88.39 -133.5,153.23 -254.7,153.23 -8.7,0 -17.3,-0.34 -25.8,-1.02 -14.9,105 -126.9,186.63 -262.91,186.63 -99.33,0 -185.78,-43.51 -231.11,-107.89 -48.39,41.98 -117.88,68.35 -195.08,68.35 -146.2,0 -264.7,-94.28 -264.7,-210.51 0,-5.22 0.23,-10.33 0.68,-15.38 -83.22,-35.51 -139.89,-105.34 -139.89,-185.73 0,-12.88 1.47,-25.52 4.25,-37.78 -115.84,-22.41 -201.9,-105.46 -201.9,-204.56 0,-98.14 84.47,-180.63 198.78,-203.88 22.97,-97.69 130.65,-171.61 260.1,-171.61 63.99,0 122.65,18.04 168.37,48.11 39.09,-77.55 134.39,-132.29 245.81,-132.29 99.78,0 186.63,43.9 231.73,108.74 48.47,-42.54 118.37,-69.26 196.17,-69.26 109.4,0 203.1,52.76 243.5,127.98 87.9,34.26 148.4,106.08 148.4,189.13 0,16.11 -2.3,31.83 -6.7,46.92 114.5,23.2 199.2,105.74 199.2,203.99 z"
         id="path262"
         inkscape:connector-curvature="0" /></clipPath><radialGradient
       fx="0"
       fy="0"
       cx="0"
       cy="0"
       r="1"
       gradientUnits="userSpaceOnUse"
       gradientTransform="matrix(274.355,0,0,-274.355,1726.67,1049.3)"
       spreadMethod="pad"
       id="radialGradient264"><stop
         style="stop-opacity:1;stop-color:#211c1c"
         offset="0"
         id="stop266" /><stop
         style="stop-opacity:1;stop-color:#ffffff"
         offset="0.653846"
         id="stop268" /><stop
         style="stop-opacity:1;stop-color:#ffffff"
         offset="1"
         id="stop270" /></radialGradient><clipPath
       clipPathUnits="userSpaceOnUse"
       id="clipPath278"><path
         d="m 0,0 0,14175 14666,0 L 14666,0 0,0 z"
         id="path280"
         inkscape:connector-curvature="0" /></clipPath><clipPath
       clipPathUnits="userSpaceOnUse"
       id="clipPath496"><path
         d="m 13390.8,11026.4 c -9.4,18.1 -29.3,26.4 -44.3,18.6 -10.4,-5.5 -15.7,-17.4 -14.8,-30.2 l -177.5,-92.9 -5.3,-17 14.6,-4.6 176.4,92.3 c 10.3,-14.2 27.5,-20.1 40.9,-13.1 15,7.8 19.5,28.9 10,46.9 z"
         id="path498"
         inkscape:connector-curvature="0" /></clipPath><radialGradient
       fx="0"
       fy="0"
       cx="0"
       cy="0"
       r="1"
       gradientUnits="userSpaceOnUse"
       gradientTransform="matrix(43.3791,4.42163,4.42163,-43.3791,2342.77,1935.07)"
       spreadMethod="pad"
       id="radialGradient500"><stop
         style="stop-opacity:1;stop-color:#ffffff"
         offset="0"
         id="stop502" /><stop
         style="stop-opacity:1;stop-color:#a950af"
         offset="0.549451"
         id="stop504" /><stop
         style="stop-opacity:1;stop-color:#211c1c"
         offset="1"
         id="stop506" /></radialGradient><clipPath
       clipPathUnits="userSpaceOnUse"
       id="clipPath514"><path
         d="m 0,0 0,14175 14666,0 L 14666,0 0,0 z"
         id="path516"
         inkscape:connector-curvature="0" /></clipPath><clipPath
       clipPathUnits="userSpaceOnUse"
       id="clipPath524"><path
         d="m 13380.3,10981.3 c -13,-6.2 -30.1,2.4 -38.2,19.3 -8.2,16.9 -4.3,35.7 8.7,41.9 13,6.3 30.2,-2.3 38.3,-19.2 8.1,-16.9 4.2,-35.7 -8.8,-42 z"
         id="path526"
         inkscape:connector-curvature="0" /></clipPath><radialGradient
       fx="0"
       fy="0"
       cx="0"
       cy="0"
       r="1"
       gradientUnits="userSpaceOnUse"
       gradientTransform="matrix(26.207,2.67129,2.67129,-26.207,2357.21,1940.28)"
       spreadMethod="pad"
       id="radialGradient528"><stop
         style="stop-opacity:1;stop-color:#ffffff"
         offset="0"
         id="stop530" /><stop
         style="stop-opacity:1;stop-color:#a950af"
         offset="0.549451"
         id="stop532" /><stop
         style="stop-opacity:1;stop-color:#211c1c"
         offset="1"
         id="stop534" /></radialGradient><clipPath
       clipPathUnits="userSpaceOnUse"
       id="clipPath542"><path
         d="m 11019.1,11307.2 c -17.9,-10.3 -25.5,-30.7 -16.9,-45.5 6,-10.3 18.2,-15.2 31,-13.8 l 101.2,-175.5 17.5,-4.7 4,15 -100.5,174.4 c 13.9,11 19.2,28.7 11.5,41.9 -8.5,14.8 -29.9,18.5 -47.8,8.2 z"
         id="path544"
         inkscape:connector-curvature="0" /></clipPath><radialGradient
       fx="0"
       fy="0"
       cx="0"
       cy="0"
       r="1"
       gradientUnits="userSpaceOnUse"
       gradientTransform="matrix(-6.25313,43.6529,43.6529,6.25313,1951.9,1975.64)"
       spreadMethod="pad"
       id="radialGradient546"><stop
         style="stop-opacity:1;stop-color:#ffffff"
         offset="0"
         id="stop548" /><stop
         style="stop-opacity:1;stop-color:#a950af"
         offset="0.549451"
         id="stop550" /><stop
         style="stop-opacity:1;stop-color:#211c1c"
         offset="1"
         id="stop552" /></radialGradient><clipPath
       clipPathUnits="userSpaceOnUse"
       id="clipPath560"><path
         d="m 0,0 0,14175 14666,0 L 14666,0 0,0 z"
         id="path562"
         inkscape:connector-curvature="0" /></clipPath><clipPath
       clipPathUnits="userSpaceOnUse"
       id="clipPath570"><path
         d="m 11065.1,11298.5 c 6.8,-12.9 -1.2,-30.6 -17.9,-39.5 -16.7,-8.9 -35.9,-5.7 -42.7,7.2 -6.9,12.8 1.1,30.5 17.9,39.4 16.7,8.9 35.9,5.7 42.7,-7.1 z"
         id="path572"
         inkscape:connector-curvature="0" /></clipPath><radialGradient
       fx="0"
       fy="0"
       cx="0"
       cy="0"
       r="1"
       gradientUnits="userSpaceOnUse"
       gradientTransform="matrix(-3.7773,26.3692,26.3692,3.7773,1946.03,1990.03)"
       spreadMethod="pad"
       id="radialGradient574"><stop
         style="stop-opacity:1;stop-color:#ffffff"
         offset="0"
         id="stop576" /><stop
         style="stop-opacity:1;stop-color:#a950af"
         offset="0.549451"
         id="stop578" /><stop
         style="stop-opacity:1;stop-color:#211c1c"
         offset="1"
         id="stop580" /></radialGradient><clipPath
       clipPathUnits="userSpaceOnUse"
       id="clipPath588"><path
         d="m 0,0 0,14175 14666,0 L 14666,0 0,0 z"
         id="path590"
         inkscape:connector-curvature="0" /></clipPath><clipPath
       clipPathUnits="userSpaceOnUse"
       id="clipPath622"><path
         d="m 13085.4,10779.3 c -4.9,0 -9.7,-0.1 -14.5,-0.2 2.8,13.3 4.3,27.1 4.3,41.1 0,135.3 -137.1,245 -306.3,245 -22,0 -43.4,-1.9 -64.1,-5.4 26.2,36.1 41.1,78 41.1,122.8 0,135.3 -137.1,245 -306.2,245 -121.9,0 -227.1,-56.9 -276.4,-139.4 -55.8,46.6 -134.3,75.6 -221.3,75.6 -165.8,0 -300.9,-105.5 -306.1,-237.2 -30.5,8.2 -63.2,12.6 -97.1,12.6 -148.6,0 -272.4,-84.6 -300.4,-196.8 -37.7,13.3 -79.4,20.7 -123.3,20.7 -169.2,0 -306.3,-109.7 -306.3,-245 0,-135.3 137.1,-245 306.3,-245 26.3,0 51.9,2.6 76.2,7.6 5.4,-4 10.9,-7.8 16.6,-11.5 -20.2,-32.7 -31.6,-69.5 -31.6,-108.4 0,-135.3 137.1,-245 306.3,-245 38.8,0 75.9,5.7 110,16.3 47.5,-86.3 155.1,-146.51 280.5,-146.51 92.9,0 176.2,33.11 232.3,85.41 52.3,-75.3 152.7,-126.25 267.9,-126.25 167.8,0 304.1,107.95 306.3,241.85 12.5,-1.3 25.3,-1.9 38.3,-1.9 111.7,0 209.4,47.8 262.9,119.3 32.7,-9.5 67.9,-14.7 104.6,-14.7 169.2,0 306.3,109.7 306.3,245 0,135.3 -137.1,245 -306.3,245 z"
         id="path624"
         inkscape:connector-curvature="0" /></clipPath><radialGradient
       fx="0"
       fy="0"
       cx="0"
       cy="0"
       r="1"
       gradientUnits="userSpaceOnUse"
       gradientTransform="matrix(321.69,0,0,-321.69,2155.05,1914.56)"
       spreadMethod="pad"
       id="radialGradient626"><stop
         style="stop-opacity:1;stop-color:#ffffff"
         offset="0"
         id="stop628" /><stop
         style="stop-opacity:1;stop-color:#a950af"
         offset="0.549451"
         id="stop630" /><stop
         style="stop-opacity:1;stop-color:#211c1c"
         offset="1"
         id="stop632" /></radialGradient><clipPath
       clipPathUnits="userSpaceOnUse"
       id="clipPath640"><path
         d="m 0,0 0,14175 14666,0 L 14666,0 0,0 z"
         id="path642"
         inkscape:connector-curvature="0" /></clipPath><clipPath
       clipPathUnits="userSpaceOnUse"
       id="clipPath698"><path
         d="m 12151,7679.68 c 285.4,19.01 532.2,-196.96 551.2,-482.36 19,-285.4 -196.9,-532.23 -482.4,-551.29 -285.4,-19 -532.2,196.96 -551.2,482.36 -19.1,285.41 196.9,532.23 482.4,551.29 z"
         id="path700"
         inkscape:connector-curvature="0" /></clipPath><radialGradient
       fx="0"
       fy="0"
       cx="0"
       cy="0"
       r="1"
       gradientUnits="userSpaceOnUse"
       gradientTransform="matrix(-13.786,206.852,206.852,13.786,2129.76,1299.17)"
       spreadMethod="pad"
       id="radialGradient702"><stop
         style="stop-opacity:1;stop-color:#ffffff"
         offset="0"
         id="stop704" /><stop
         style="stop-opacity:1;stop-color:#52afe6"
         offset="1"
         id="stop706" /></radialGradient><clipPath
       clipPathUnits="userSpaceOnUse"
       id="clipPath714"><path
         d="m 0,0 0,14175 14666,0 L 14666,0 0,0 z"
         id="path716"
         inkscape:connector-curvature="0" /></clipPath><clipPath
       clipPathUnits="userSpaceOnUse"
       id="clipPath724"><path
         d="m 11088.4,7839.48 c 175.7,11.69 327.6,-121.22 339.3,-296.86 11.7,-175.62 -121.2,-327.49 -296.8,-339.23 -175.7,-11.69 -327.6,121.17 -339.3,296.86 -11.7,175.63 121.2,327.49 296.8,339.23 z"
         id="path726"
         inkscape:connector-curvature="0" /></clipPath><radialGradient
       fx="0"
       fy="0"
       cx="0"
       cy="0"
       r="1"
       gradientUnits="userSpaceOnUse"
       gradientTransform="matrix(-8.48389,127.297,127.297,8.48389,1947.15,1348.34)"
       spreadMethod="pad"
       id="radialGradient728"><stop
         style="stop-opacity:1;stop-color:#ffffff"
         offset="0"
         id="stop730" /><stop
         style="stop-opacity:1;stop-color:#52afe6"
         offset="1"
         id="stop732" /></radialGradient><clipPath
       clipPathUnits="userSpaceOnUse"
       id="clipPath740"><path
         d="m 0,0 0,14175 14666,0 L 14666,0 0,0 z"
         id="path742"
         inkscape:connector-curvature="0" /></clipPath><clipPath
       clipPathUnits="userSpaceOnUse"
       id="clipPath750"><path
         d="m 12065.9,9035.45 c 110,0 199.2,-89.2 199.2,-199.22 0,-110.03 -89.2,-199.23 -199.2,-199.23 -110,0 -199.2,89.2 -199.2,199.23 0,110.02 89.2,199.22 199.2,199.22 z"
         id="path752"
         inkscape:connector-curvature="0" /></clipPath><radialGradient
       fx="0"
       fy="0"
       cx="0"
       cy="0"
       r="1"
       gradientUnits="userSpaceOnUse"
       gradientTransform="matrix(0,79.7409,79.7409,0,2120.88,1572.12)"
       spreadMethod="pad"
       id="radialGradient754"><stop
         style="stop-opacity:1;stop-color:#ffffff"
         offset="0"
         id="stop756" /><stop
         style="stop-opacity:1;stop-color:#52afe6"
         offset="1"
         id="stop758" /></radialGradient><clipPath
       clipPathUnits="userSpaceOnUse"
       id="clipPath766"><path
         d="m 0,0 0,14175 14666,0 L 14666,0 0,0 z"
         id="path768"
         inkscape:connector-curvature="0" /></clipPath><clipPath
       clipPathUnits="userSpaceOnUse"
       id="clipPath776"><path
         d="m 11766.2,9388.41 c 74,-21.57 116.4,-98.99 94.9,-172.92 -21.6,-73.94 -99,-116.39 -173,-94.83 -73.9,21.57 -116.3,98.99 -94.8,172.93 21.6,73.94 99,116.39 172.9,94.82 z"
         id="path778"
         inkscape:connector-curvature="0" /></clipPath><radialGradient
       fx="0"
       fy="0"
       cx="0"
       cy="0"
       r="1"
       gradientUnits="userSpaceOnUse"
       gradientTransform="matrix(15.6295,53.5869,53.5869,-15.6295,2066,1642.3)"
       spreadMethod="pad"
       id="radialGradient780"><stop
         style="stop-opacity:1;stop-color:#ffffff"
         offset="0"
         id="stop782" /><stop
         style="stop-opacity:1;stop-color:#52afe6"
         offset="1"
         id="stop784" /></radialGradient><clipPath
       clipPathUnits="userSpaceOnUse"
       id="clipPath792"><path
         d="m 0,0 0,14175 14666,0 L 14666,0 0,0 z"
         id="path794"
         inkscape:connector-curvature="0" /></clipPath><clipPath
       clipPathUnits="userSpaceOnUse"
       id="clipPath802"><path
         d="m 11371,9470.59 c 42.3,-12.32 66.6,-56.58 54.2,-98.84 -12.3,-42.26 -56.6,-66.52 -98.8,-54.2 -42.3,12.33 -66.5,56.59 -54.2,98.84 12.3,42.26 56.5,66.52 98.8,54.2 z"
         id="path804"
         inkscape:connector-curvature="0" /></clipPath><radialGradient
       fx="0"
       fy="0"
       cx="0"
       cy="0"
       r="1"
       gradientUnits="userSpaceOnUse"
       gradientTransform="matrix(8.93285,30.6269,30.6269,-8.93285,1999.82,1662.21)"
       spreadMethod="pad"
       id="radialGradient806"><stop
         style="stop-opacity:1;stop-color:#ffffff"
         offset="0"
         id="stop808" /><stop
         style="stop-opacity:1;stop-color:#52afe6"
         offset="1"
         id="stop810" /></radialGradient><clipPath
       clipPathUnits="userSpaceOnUse"
       id="clipPath818"><path
         d="m 0,0 0,14175 14666,0 L 14666,0 0,0 z"
         id="path820"
         inkscape:connector-curvature="0" /></clipPath><clipPath
       clipPathUnits="userSpaceOnUse"
       id="clipPath828"><path
         d="m 11399.8,9671.4 c 21.1,-6.16 33.3,-28.3 27.1,-49.44 -6.1,-21.14 -28.3,-33.28 -49.4,-27.12 -21.2,6.17 -33.3,28.3 -27.1,49.45 6.1,21.14 28.3,33.28 49.4,27.11 z"
         id="path830"
         inkscape:connector-curvature="0" /></clipPath><radialGradient
       fx="0"
       fy="0"
       cx="0"
       cy="0"
       r="1"
       gradientUnits="userSpaceOnUse"
       gradientTransform="matrix(4.46896,15.3222,15.3222,-4.46896,2007.21,1701.23)"
       spreadMethod="pad"
       id="radialGradient832"><stop
         style="stop-opacity:1;stop-color:#ffffff"
         offset="0"
         id="stop834" /><stop
         style="stop-opacity:1;stop-color:#52afe6"
         offset="1"
         id="stop836" /></radialGradient><clipPath
       clipPathUnits="userSpaceOnUse"
       id="clipPath844"><path
         d="m 0,0 0,14175 14666,0 L 14666,0 0,0 z"
         id="path846"
         inkscape:connector-curvature="0" /></clipPath><clipPath
       clipPathUnits="userSpaceOnUse"
       id="clipPath880"><path
         d="m 11030,9314.38 c 154.1,0 278.9,-124.88 278.9,-278.91 0,-154.03 -124.9,-278.9 -278.9,-278.9 -154,0 -278.9,124.87 -278.9,278.9 0,154.04 124.9,278.91 278.9,278.91 z"
         id="path882"
         inkscape:connector-curvature="0" /></clipPath><radialGradient
       fx="0"
       fy="0"
       cx="0"
       cy="0"
       r="1"
       gradientUnits="userSpaceOnUse"
       gradientTransform="matrix(0,111.633,111.633,0,1935.85,1613.03)"
       spreadMethod="pad"
       id="radialGradient884"><stop
         style="stop-opacity:1;stop-color:#ffffff"
         offset="0"
         id="stop886" /><stop
         style="stop-opacity:1;stop-color:#52afe6"
         offset="1"
         id="stop888" /></radialGradient><clipPath
       clipPathUnits="userSpaceOnUse"
       id="clipPath896"><path
         d="m 0,0 0,14175 14666,0 L 14666,0 0,0 z"
         id="path898"
         inkscape:connector-curvature="0" /></clipPath><clipPath
       clipPathUnits="userSpaceOnUse"
       id="clipPath1452"><path
         d="m 2998.79,3901.79 c 13.58,30.97 20.82,63.42 20.82,96.95 0,200.99 -260.65,365.67 -591.06,379.91 26.83,50.2 41.77,105.85 41.77,164.46 0,222.09 -214.45,402.14 -478.99,402.14 -235.35,0 -431.04,-142.5 -471.37,-330.33 -301.26,-5.16 -543.64,-180 -547.026,-395.85 -77.606,21.27 -163.34,33.02 -253.473,33.02 -349.414,0 -632.668,-177.11 -632.668,-395.57 0,-218.52 283.254,-395.63 632.668,-395.63 146.875,0 282.059,31.26 389.429,83.79 -5.6,-24.62 -8.53,-49.92 -8.53,-75.62 0,-262.76 303.02,-475.72 676.82,-475.72 191.85,0 365.06,56.1 488.22,146.24 147.64,-109.03 375.69,-178.92 631.61,-178.92 445.12,0 805.95,211.48 805.95,472.44 0,240.7 -307.1,439.36 -704.17,468.69 z"
         id="path1454"
         inkscape:connector-curvature="0" /></clipPath><radialGradient
       fx="0"
       fy="0"
       cx="0"
       cy="0"
       r="1"
       gradientUnits="userSpaceOnUse"
       gradientTransform="matrix(602.241,0,0,-602.241,334.025,691.34)"
       spreadMethod="pad"
       id="radialGradient1456"><stop
         style="stop-opacity:1;stop-color:#ffffff"
         offset="0"
         id="stop1458" /><stop
         style="stop-opacity:1;stop-color:#316dbb"
         offset="0.582418"
         id="stop1460" /><stop
         style="stop-opacity:1;stop-color:#316dbb"
         offset="0.582418"
         id="stop1462" /><stop
         style="stop-opacity:1;stop-color:#211c1c"
         offset="1"
         id="stop1464" /></radialGradient><clipPath
       clipPathUnits="userSpaceOnUse"
       id="clipPath1472"><path
         d="m 0,0 0,14175 14666,0 L 14666,0 0,0 z"
         id="path1474"
         inkscape:connector-curvature="0" /></clipPath></defs><sodipodi:namedview
     pagecolor="#ffffff"
     bordercolor="#666666"
     borderopacity="1"
     objecttolerance="10"
     gridtolerance="10"
     guidetolerance="10"
     inkscape:pageopacity="0"
     inkscape:pageshadow="2"
     inkscape:window-width="1366"
     inkscape:window-height="713"
     id="namedview4"
     showgrid="false"
     inkscape:zoom="1.709691"
     inkscape:cx="184.87699"
     inkscape:cy="120.73317"
     inkscape:window-x="-3"
     inkscape:window-y="-3"
     inkscape:window-maximized="1"
     inkscape:current-layer="g10" /><g
     id="g10"
     inkscape:groupmode="layer"
     inkscape:label="ink_ext_XXXXXX"
     transform="matrix(1.25,0,0,-1.25,0,255.9999)"><g
       id="g6480"
       transform="matrix(0.33286976,0,0,0.33286976,75.445778,75.882623)"><path
         d="m 184.00472,-39.370817 -83.07282,72.3304 66.06192,-252.370103 -97.167945,243.508603 -31.86048,-78.4684 -0.009,83.9789 -144.029705,-171.999803 117.707865,190.799803 -75.69729,-28.7597 60.1407601,57.1105 -43.1369901,9.9086 41.4200401,22.390797 -212.4643351,127.6465 224.9342451,-97.7973 -53.8881901,73.7917 78.06824,-52.3211 -24.0390299,143.4463 55.1468099,-134.5865 47.864775,213.5079 -15.997235,-219.0184 77.017565,74.9781 -50.69573,-93.7781 185.72473,79.7746 -170.16644,-108.1237 92.14754,-9.9103 -90.43235,-22.389097 231.47235,-123.6502 -243.94049,93.8099 58.89099,-93.8099"
         style="fill:#100f0d;fill-opacity:1;fill-rule:nonzero;stroke:none"
         id="path62"
         inkscape:connector-curvature="0" /><path
         d="m 195.00442,-43.372317 -83.06925,72.3322 66.06895,-252.380803 -97.174965,243.519303 -31.86049,-78.4702 -0.009,83.9806 -144.03147,-171.999703 117.7114,190.799803 -75.69906,-28.7598 60.1390001,57.1088 -43.1352301,9.9103 41.4200501,22.390897 -212.4643451,127.6464 224.932485,-97.8061 -53.88819,73.7988 78.07,-52.3193 -24.03903,143.4462 55.14505,-134.5865 47.866535,213.5062 -15.99723,-219.0166 77.01409,74.9781 -50.69226,-93.7782 185.72296,79.7746 -170.1611,-108.1236 92.1405,-9.9103 -90.4289,-22.390897 231.4689,-123.6502 -243.93702,93.8011 58.88742,-93.8011"
         style="fill:#fbc10c;fill-opacity:1;fill-rule:nonzero;stroke:none"
         id="path64"
         inkscape:connector-curvature="0" /><path
         d="m -14.678265,92.888783 13.4746901,-16.2493 3.02493,2.4997 c 5.01511,4.1601 7.87257,7.5993 8.5671099,10.3087 0.6963,2.7112 0.0423,5.2707 -1.9584499,7.6804 -2.26341,2.7306 -5.07328,4.040297 -8.43137999,3.930997 -3.35809001,-0.1216 -7.41249001,-2.150597 -12.16847011,-6.090397 l -2.50843,-2.0801 z m -20.01461,24.150097 11.07908,-13.3707 2.64064,2.1912 c 2.94208,2.4397 4.61672,4.8688 5.0204,7.2891 0.40367,2.4203 -0.275,4.6907 -2.03954,6.8202 -1.64467,1.9796 -3.62604,3.0002 -5.94762,3.0302 -2.31982,0.039 -4.86703,-1.0806 -7.63636,-3.3793 l -3.1166,-2.5807 z m 30.9579501,-61.921097 -52.5749201,63.421297 9.97381,8.2692 c 5.78545,4.8 10.3246,7.9307 13.621,9.4009 4.63435,2.14 9.20348,2.7799 13.71267,1.9091 4.50919,-0.8691 8.30093,-3.1589 11.3734501,-6.8696 2.00252,-2.4097 3.30874,-5.031 3.91866,-7.8391 0.61345,-2.8204 0.48301,-6.041 -0.38604,-9.6706 5.3518,1.3785 10.04432,1.449 14.07932,0.2098 4.0349999,-1.241 7.5887699,-3.7107 10.6630599,-7.4196 2.95441,-3.5608 4.72425,-7.579897 5.31301,-12.030897 0.58877,-4.4599 0.0317,-8.62 -1.67111,-12.4788 -1.70285,-3.8604 -5.11735,-7.9201 -10.23823,-12.1614 l -17.7846799,-14.7403"
         style="fill:#100f0d;fill-opacity:1;fill-rule:nonzero;stroke:none"
         id="path66"
         inkscape:connector-curvature="0" /><path
         d="m 52.369065,135.87778 -15.1458,-26.3183 21.79501,-3.2806 -6.64921,29.5989 z m -4.70486,22.8015 15.72576,-2.3709 19.05389,-86.189397 -16.11533,2.4291 -3.84462,17.7406 -33.24075,5.0099 -9.15764,-15.7804 -16.1170999,2.4308 43.6957899,76.730297"
         style="fill:#100f0d;fill-opacity:1;fill-rule:nonzero;stroke:none"
         id="path68"
         inkscape:connector-curvature="0" /><path
         d="m 82.426235,124.08828 15.27801,0 19.097965,-57.459597 19.27247,57.459597 15.26924,0 13.8202,-82.379997 -15.1599,0 -8.83863,52.0302 -17.50264,-52.0302 -13.8202,0 -17.345755,52.0302 -9.04483,-52.0302 -15.29035,0 14.26442,82.379997"
         style="fill:#100f0d;fill-opacity:1;fill-rule:nonzero;stroke:none"
         id="path70"
         inkscape:connector-curvature="0" /><path
         d="m 162.17442,198.32778 26.3906,5.3006 20.6298,-102.77 -26.3906,-5.300697 -20.6298,102.770097 z m 36.1088,-111.499397 c 4.5215,0.9096 8.7116,0.1005 12.5704,-2.4397 3.8604,-2.549 6.2402,-6.0798 7.1516,-10.5996 0.899,-4.4704 0.049,-8.6305 -2.5208,-12.491 -2.5702,-3.8588 -6.1204,-6.2491 -10.6402,-7.1587 -4.5303,-0.9113 -8.6993,-0.092 -12.5298,2.4591 -3.8305,2.5402 -6.1909,6.0798 -7.1005,10.6102 -0.9096,4.5197 -0.09,8.701 2.4609,12.5192 2.5401,3.8306 6.0798,6.1997 10.6084,7.1005"
         style="fill:#100f0d;fill-opacity:1;fill-rule:nonzero;stroke:none"
         id="path72"
         inkscape:connector-curvature="0" /><path
         d="m -19.064065,93.907683 13.4729301,-16.2581 3.02669,2.5084 c 5.01511,4.1602 7.87081,7.5906 8.56711,10.3 0.69454,2.7111 0.0423,5.2813 -1.96021,7.691 -2.26341,2.728797 -5.07328,4.040297 -8.43138,3.920397 -3.35457,-0.1111 -7.4142501,-2.139997 -12.1684701,-6.079797 l -2.50667,-2.0819 z m -20.01637,24.141297 11.08084,-13.3601 2.64064,2.1894 c 2.94208,2.4397 4.61672,4.86 5.0204,7.2803 0.40368,2.4202 -0.27676,4.6995 -2.03954,6.8307 -1.64467,1.9796 -3.6278,2.9897 -5.94938,3.0302 -2.32158,0.039 -4.86703,-1.0911 -7.6346,-3.381 l -3.11836,-2.5895 z m 30.9579501,-61.921197 -52.5749201,63.430097 9.97381,8.271 c 5.78545,4.7895 10.32637,7.9202 13.62277,9.3903 4.63434,2.1506 9.20347,2.7799 13.71266,1.9091 4.50743,-0.869 8.29917,-3.1501 11.37169,-6.8589 2.00252,-2.4203 3.3087401,-5.031 3.9204301,-7.8515 0.61345,-2.8098 0.483,-6.0393 -0.38781,-9.6688 5.3518,1.3891 10.04608,1.4596 14.08108,0.2203 4.03324,-1.241 7.5870099,-3.7212 10.6612999,-7.4213 2.95442,-3.5696 4.72601,-7.579897 5.31301,-12.039797 0.58877,-4.4598 0.0335,-8.62 -1.66935,-12.4787 -1.70461,-3.8605 -5.11911,-7.9113 -10.2382199,-12.1614 l -17.78645,-14.7404"
         style="fill:#f1471f;fill-opacity:1;fill-rule:nonzero;stroke:none"
         id="path74"
         inkscape:connector-curvature="0" /><path
         d="m 49.222505,137.90848 -15.14228,-26.3201 21.79325,-3.2788 -6.65097,29.5989 z m -4.70309,22.7998 15.72576,-2.3692 19.05388,-86.191097 -16.11709,2.4309 -3.84286,17.7388 -33.24075,5.0116 -9.15764,-15.7804 -16.11532989,2.4291 43.69402989,76.730297"
         style="fill:#f1471f;fill-opacity:1;fill-rule:nonzero;stroke:none"
         id="path76"
         inkscape:connector-curvature="0" /><path
         d="m 78.333055,125.62898 15.27802,0 19.097955,-57.470197 19.27071,57.470197 15.27448,0 13.8202,-82.390597 -15.1705,0 -8.83327,52.0302 -17.50088,-52.0302 -13.82019,0 -17.347525,52.0302 -9.04482,-52.0302 -15.28859,0 14.26441,82.390597"
         style="fill:#f1471f;fill-opacity:1;fill-rule:nonzero;stroke:none"
         id="path78"
         inkscape:connector-curvature="0" /><path
         d="m 154.20492,195.81928 26.3782,5.299 20.6316,-102.770097 -26.3906,-5.2989 -20.6192,102.769997 z m 36.0999,-111.501097 c 4.5198,0.9114 8.7099,0.1005 12.5686,-2.4397 3.8605,-2.5507 6.2403,-6.0798 7.1516,-10.5996 0.8991,-4.4598 0.06,-8.6305 -2.5102,-12.491 -2.5807,-3.8693 -6.1309,-6.2491 -10.6507,-7.1587 -4.5303,-0.9096 -8.6993,-0.092 -12.5298,2.4591 -3.82,2.5402 -6.1909,6.0798 -7.1005,10.6102 -0.9096,4.5197 -0.09,8.7011 2.4609,12.5192 2.5489,3.8306 6.0798,6.2015 10.6101,7.1005"
         style="fill:#f1471f;fill-opacity:1;fill-rule:nonzero;stroke:none"
         id="path80"
         inkscape:connector-curvature="0" /></g><path
       inkscape:connector-curvature="0"
       id="path1050"
       style="fill:#100f0d;fill-opacity:1;fill-rule:nonzero;stroke:none"
       d="m 2128.1338,10.12978 c -6.8925,-4.2898838 -10.9293,-6.9299289 -10.9293,-6.9299289 0,0 4.1073,2.5002567 10.9293,6.9299289" /><path
       inkscape:connector-curvature="0"
       id="path1052"
       style="fill:#ec1d27;fill-opacity:1;fill-rule:nonzero;stroke:none"
       d="M 2118.5266,6.9299289 C 2111.6342,2.6400451 2107.615,0 2107.615,0 c 0,0 4.1073,2.5002566 10.9116,6.9299289" /><path
       inkscape:connector-curvature="0"
       id="path1054"
       style="fill:#ec1d27;fill-opacity:1;fill-rule:nonzero;stroke:none"
       d="m 2585.3637,4.2299845 c -0.8285,0.4400075 -1.6923,0.8999873 -2.5561,1.3599495 0.8638,-0.4799345 1.7099,-0.9502442 2.5384,-1.410224 0,0.01033 0.018,0.030302 0.018,0.050274" /></g></svg>