<?xml version="1.0" encoding="UTF-8" standalone="no"?>
<!-- Created with Inkscape (http://www.inkscape.org/) -->

<svg
   xmlns:dc="http://purl.org/dc/elements/1.1/"
   xmlns:cc="http://creativecommons.org/ns#"
   xmlns:rdf="http://www.w3.org/1999/02/22-rdf-syntax-ns#"
   xmlns:svg="http://www.w3.org/2000/svg"
   xmlns="http://www.w3.org/2000/svg"
   xmlns:sodipodi="http://sodipodi.sourceforge.net/DTD/sodipodi-0.dtd"
   xmlns:inkscape="http://www.inkscape.org/namespaces/inkscape"
   width="512"
   height="512"
   id="svg4112"
   version="1.1"
   inkscape:version="0.48.4 r9939"
   sodipodi:docname="reboot.svg"
   inkscape:export-filename="/home/fergus/CEDV/TFC/modelos/reboot.png"
   inkscape:export-xdpi="90"
   inkscape:export-ydpi="90">
  <defs
     id="defs4114" />
  <sodipodi:namedview
     id="base"
     pagecolor="#ffffff"
     bordercolor="#666666"
     borderopacity="1.0"
     inkscape:pageopacity="0.0"
     inkscape:pageshadow="2"
     inkscape:zoom="0.7"
     inkscape:cx="171.02956"
     inkscape:cy="309.66227"
     inkscape:document-units="px"
     inkscape:current-layer="layer1"
     showgrid="false"
     inkscape:window-width="1366"
     inkscape:window-height="713"
     inkscape:window-x="-3"
     inkscape:window-y="-3"
     inkscape:window-maximized="1" />
  <metadata
     id="metadata4117">
    <rdf:RDF>
      <cc:Work
         rdf:about="">
        <dc:format>image/svg+xml</dc:format>
        <dc:type
           rdf:resource="http://purl.org/dc/dcmitype/StillImage" />
        <dc:title></dc:title>
      </cc:Work>
    </rdf:RDF>
  </metadata>
  <g
     inkscape:label="Layer 1"
     inkscape:groupmode="layer"
     id="layer1"
     transform="translate(0,-540.36218)">
    <path
       inkscape:connector-curvature="0"
       id="path150"
       style="fill:#ff9900;fill-opacity:1;fill-rule:nonzero;stroke:none"
       d="m 243.31526,661.95843 c -31.11859,-6.07485 -62.36025,-10.78706 -93.69794,-14.46379 -24.48248,-2.89035 -48.76387,-2.29007 -72.835152,1.77684 -29.891015,7.18237 -50.360612,23.16786 -61.375777,47.61732 -2.362107,8.9592 -3.592684,18.88786 -3.703736,29.77997 -0.270127,8.79712 0.09893,18.17652 1.104518,28.12919 0.288135,4.52612 0.57627,9.05524 0.87641,13.40428 5.165422,62.0661 20.961829,105.87764 47.236148,131.25454 23.891201,23.07482 56.399439,31.01054 97.695809,23.98425 11.51039,-2.95339 22.8347,-5.7417 34.00595,-8.72209 3.1965,-0.91843 6.37799,-1.67479 9.74557,-2.58121 39.18937,-10.50793 74.35686,-20.6797 105.89865,-30.82446 13.72543,-4.47509 26.93763,-9.00422 39.27041,-13.4373 7.71062,-2.94138 15.22914,-5.72968 22.3815,-8.37392 6.09886,-2.39513 12.02964,-4.81126 17.76833,-7.05931 3.72774,2.75229 6.75016,5.79271 9.06125,8.94419 7.4705,9.31937 10.79005,20.51762 9.77558,33.75083 0.0632,1.21857 0.30314,2.45215 0.36317,3.67372 27.00066,-17.4802 44.17171,-44.84103 51.48314,-82.08249 25.3859,-16.75685 39.30943,-33.15954 41.5995,-49.04599 -1.24858,-3.3976 -3.2055,-6.68414 -5.68466,-9.85362 -0.46822,-0.56127 -0.76536,-1.11052 -1.23658,-1.66578 -0.78337,-0.93944 -1.55473,-2.04096 -2.3291,-2.9804 -0.79537,-0.76536 -1.42266,-1.50971 -2.21503,-2.27807 -27.94911,-27.9401 -79.50128,-51.24903 -154.6265,-70.27495 -13.38028,-3.27453 -26.78756,-6.20391 -40.20986,-8.9682 -16.80487,-3.58368 -33.47469,-6.8072 -50.3516,-9.70355 l 0,0" />
    <path
       inkscape:connector-curvature="0"
       id="path152"
       style="fill:#ff6600;fill-opacity:1;fill-rule:nonzero;stroke:none"
       d="m 396.7472,861.38693 c -2.31109,-3.15148 -5.33351,-6.1919 -9.06125,-8.94419 -5.73869,2.24805 -11.66947,4.66418 -17.76833,7.05931 -7.15236,2.64424 -14.67088,5.43254 -22.3815,8.37392 -12.33278,4.43308 -25.54498,8.96221 -39.27041,13.4373 -31.54179,10.14476 -66.70928,20.31653 -105.89865,30.82446 -3.36758,0.90642 -6.54907,1.66278 -9.74557,2.58121 -11.17125,2.98039 -22.49556,5.7687 -34.00595,8.72209 -41.29637,7.02629 -73.804608,-0.90943 -97.695809,-23.98425 -26.274319,-25.3769 -42.070726,-69.18844 -47.236148,-131.25454 -0.30014,-4.34904 -0.588275,-8.87816 -0.87641,-13.40428 -1.005472,-9.95267 -1.374645,-19.33207 -1.104518,-28.12919 0.110932,-10.89211 1.341629,-20.82077 3.703736,-29.77997 -8.8361427,19.45813 -11.5854318,44.29777 -8.2388627,74.53395 0.2851337,4.52912 0.5702674,9.04924 1.0474911,13.42229 4.9853376,58.24531 19.3740836,100.36706 43.1722416,126.38326 1.572738,1.69579 3.154479,3.39459 4.919307,4.94332 24.230361,23.10483 57.257842,31.08557 99.238532,24.12231 11.85856,-2.92037 23.35395,-5.69067 34.51619,-8.67107 3.37658,-0.90342 6.55507,-1.65978 9.92565,-2.5692 44.11769,-11.44737 83.37609,-22.8107 117.95831,-34.06898 10.16576,-3.4126 19.97436,-6.69013 29.4438,-9.99468 7.32944,-2.62623 14.30471,-5.1174 20.93482,-7.63858 6.98127,-2.66225 13.61138,-5.17743 19.90233,-7.73463 1.61776,1.18556 3.22951,2.54219 4.66719,3.88382 1.59375,1.52772 2.9954,3.21151 4.40006,4.8953 1.75282,1.7108 3.32256,3.57767 4.6912,5.61263 -0.22811,0.66931 -0.29414,1.35363 -0.54025,2.19703 1.83086,4.66719 2.23605,9.71555 1.23658,15.16611 -1.14654,6.98727 -4.60116,14.64386 -10.18078,22.79269 3.07044,-1.45269 6.14689,-2.91137 9.03724,-4.38506 30.95652,-17.11703 50.48967,-45.82249 58.39838,-85.77722 35.09546,-22.80469 48.50574,-44.96408 40.03277,-66.31909 -2.29007,15.88645 -16.2136,32.28914 -41.5995,49.04599 -7.31143,37.24146 -24.48248,64.60229 -51.48314,82.08249 -0.35717,0.13518 -0.72334,0.27313 -0.90342,0.4322 0.29413,-1.35964 0.42019,-2.72828 0.54025,-4.10592 1.01447,-13.23321 -2.30508,-24.43146 -9.77558,-33.75083 l 0,0" />
    <path
       inkscape:connector-curvature="0"
       id="path154"
       style="fill:#000000;fill-opacity:1;fill-rule:nonzero;stroke:none"
       d="m 368.32387,877.35142 c -6.63611,2.52418 -13.60538,5.01235 -20.93482,7.63858 -9.46944,3.30455 -19.27804,6.58208 -29.4438,9.99468 -34.58222,11.25828 -73.84062,22.62161 -117.95831,34.06898 -3.37058,0.90942 -6.54907,1.66578 -9.92565,2.5692 -11.16224,2.9804 -22.65763,5.7507 -34.51619,8.67107 -41.98069,6.96326 -75.008171,-1.01748 -99.238532,-24.12231 -1.764828,-1.54873 -3.346569,-3.24753 -4.919307,-4.94332 2.638237,3.34657 5.657653,6.39 8.686073,9.25934 24.230361,23.10483 57.257846,31.09458 99.235526,24.12531 11.86156,-2.91737 23.35095,-5.69667 34.5222,-8.67406 3.37658,-0.90643 6.55507,-1.65978 9.91965,-2.57221 57.23683,-14.935 106.47792,-29.55786 147.40211,-44.05766 7.33544,-2.62923 14.30771,-5.1174 20.92881,-7.63558 6.98728,-2.66225 13.62339,-5.18043 19.90233,-7.73462 l 0.90943,-0.43821 c -1.43768,-1.34163 -3.04943,-2.69826 -4.66719,-3.88382 -6.29095,2.5572 -12.92106,5.07238 -19.90233,7.73463 l 0,0" />
    <path
       inkscape:connector-curvature="0"
       id="path156"
       style="fill:#000000;fill-opacity:1;fill-rule:nonzero;stroke:none"
       d="m 401.53744,919.77931 c -2.89035,1.47369 -5.9668,2.93237 -9.03724,4.38506 l 3.76977,4.31902 c 36.24199,-16.30665 58.66551,-46.47979 67.42962,-90.16227 35.10446,-22.8077 48.50574,-44.97009 40.04477,-66.3191 -1.00847,-2.33809 -2.19703,-4.52312 -3.54166,-6.89123 -1.67478,-2.57521 -3.51465,-5.15942 -5.72068,-7.61157 l -0.19809,0.33316 c 2.47916,3.16648 4.43608,6.45302 5.68466,9.85062 8.47297,21.35501 -4.93731,43.5144 -40.03277,66.31909 -7.90871,39.95473 -27.44186,68.66319 -58.39838,85.77722 l 0,0" />
    <path
       inkscape:connector-curvature="0"
       id="path158"
       style="fill:#000000;fill-opacity:1;fill-rule:nonzero;stroke:none"
       d="M 52.836941,909.90168 C 29.449976,884.34169 15.097246,842.20494 10.171937,784.67997 9.685709,780.22288 9.4035767,775.68775 9.1274473,771.29669 5.8289007,741.47171 8.5451742,716.74611 17.19523,697.70519 c 10.757044,-23.8882 30.956514,-39.53454 60.040151,-46.52182 23.663099,-3.99787 47.980499,-4.59215 72.150829,-1.73481 33.04549,3.87182 63.64485,8.59903 93.55387,14.43077 16.67582,2.86634 33.12053,6.03883 50.31859,9.70355 15.33119,3.15748 28.08117,6.00281 40.14983,8.9562 74.57296,18.88485 126.29321,42.35585 153.70206,69.7527 0.38118,0.36917 0.70533,0.70533 1.04149,1.0715 0.37518,0.39619 0.76236,0.81338 1.20957,1.23958 -0.054,-0.054 -0.10493,-0.11093 -0.15607,-0.16495 0.35716,0.4292 0.71733,0.90042 1.09551,1.39865 0.39919,0.53125 0.81038,1.07451 1.23958,1.58475 l 0,0 c 0.69633,0.83439 1.93291,0.94244 2.7673,0.24911 0.83139,-0.69632 0.93644,-1.9329 0.24611,-2.7703 l 0,0 c -0.36917,-0.4382 -0.73834,-0.92143 -1.12853,-1.43467 -0.38418,-0.51324 -0.78937,-1.04449 -1.19456,-1.53672 -0.0509,-0.0569 -0.10493,-0.11093 -0.15607,-0.16808 -0.37217,-0.35116 -0.70533,-0.70833 -1.0595,-1.08351 -0.35416,-0.38118 -0.72934,-0.77436 -1.14953,-1.17955 -28.28827,-28.27926 -79.16512,-51.43512 -155.50892,-70.77018 -12.13169,-2.97139 -24.92969,-5.82573 -40.29389,-8.98621 -17.23408,-3.67373 -33.72981,-6.85222 -50.41464,-9.72456 -29.96004,-5.84975 -60.65844,-10.57996 -93.80599,-14.46679 -24.5395,-2.89936 -49.22908,-2.29908 -73.387405,1.78884 -30.461282,7.31443 -51.558174,23.70512 -62.837463,48.74586 -8.9411917,19.68323 -11.7715187,45.10815 -8.4039398,75.55442 0.258121,4.13294 0.5612632,8.92018 1.0474911,13.41629 4.9943417,58.37137 19.6922327,101.28249 43.6794797,127.50278 l 0,0 c 0.732343,0.79538 1.971925,0.8494 2.776302,0.12294 0.798374,-0.73234 0.852399,-1.97793 0.120056,-2.7793 l 0,0" />
    <path
       inkscape:connector-curvature="0"
       id="path160"
       style="fill:#000000;fill-opacity:1;fill-rule:nonzero;stroke:none"
       d="m 398.80016,877.14132 c -1.40166,-1.68979 -2.86034,-3.43962 -4.55314,-5.06038 -1.61175,-1.5007 -3.28654,-2.89635 -4.86528,-4.04589 -0.55226,-0.39919 -1.26659,-0.48623 -1.89389,-0.23411 -5.90376,2.39512 -12.09267,4.75423 -18.64774,7.2514 l -1.21857,0.46822 c -6.22792,2.36811 -12.73497,4.6972 -19.6202,7.16436 l -1.2726,0.45621 c 0.012,-0.002 -26.52643,9.01323 -26.52643,9.01323 l -2.88135,0.96945 c -34.71428,11.3033 -74.36287,22.75367 -117.82625,34.02696 -0.024,0.002 -5.16242,1.33562 -5.16242,1.33562 l -4.77824,1.23958 c -9.28336,2.48217 -18.65976,4.77824 -28.58241,7.21539 l -5.90077,1.44367 c -40.99922,6.80119 -73.822608,-1.14353 -97.410668,-23.63608 -1.776833,-1.55773 -3.32856,-3.23252 -4.829264,-4.85628 l 0,0 c -0.738346,-0.79537 -1.980929,-0.84339 -2.776301,-0.10204 -0.795373,0.73234 -0.846397,1.97792 -0.10493,2.7733 l 0,0 c 1.497703,1.62076 3.190496,3.44861 5.066376,5.08738 24.46447,23.32994 58.416387,31.61983 100.850287,24.57853 0.15007,-0.024 6.04183,-1.4797 6.04183,-1.4797 9.94066,-2.43414 19.33807,-4.74222 28.65744,-7.23339 l 4.73622,-1.22157 5.19844,-1.34763 c 43.52341,-11.2913 83.24403,-22.76568 118.05135,-34.09899 0.0144,-0.01 2.89936,-0.97246 2.89936,-0.97246 l 26.58347,-9.03423 c 0.012,-0.002 1.2876,-0.45922 1.2876,-0.45922 6.90924,-2.47316 13.4343,-4.81126 19.69824,-7.19437 l 1.21857,-0.46822 c 6.57308,-2.50017 12.78299,-4.86528 18.72578,-7.28442 -0.6273,0.25812 -1.34463,0.16808 -1.89389,-0.23099 1.45568,1.0625 3.00141,2.35611 4.4781,3.73075 1.51871,1.44968 2.89936,3.10946 4.23798,4.71521 l 0,0 c 0.68733,0.83139 1.92991,0.94845 2.7613,0.25512 0.83439,-0.69632 0.95145,-1.9329 0.25212,-2.76429 l 0,0" />
    <path
       inkscape:connector-curvature="0"
       id="path162"
       style="fill:#000000;fill-opacity:1;fill-rule:nonzero;stroke:none"
       d="m 398.73413,877.06328 c -1.73782,-1.88188 -3.71875,-3.38859 -5.60663,-4.72722 -0.54626,-0.39018 -1.25459,-0.47722 -1.87588,-0.21922 -5.87976,2.38912 -12.04165,4.73622 -18.56671,7.22739 l -1.29961,0.48923 c -5.9698,2.27507 -12.19772,4.50811 -18.79181,6.86722 l -2.10698,0.75635 c -40.22186,14.25669 -88.38545,28.65144 -147.22803,44.00664 -0.0192,0.01 -5.06038,1.31461 -5.06038,1.31461 l -4.87128,1.26059 c -9.3674,2.50318 -18.81283,4.81726 -28.81652,7.27241 l -5.66966,1.38966 c -40.99922,6.80419 -73.82261,-1.14054 -97.41067,-23.63008 -2.506175,-2.37412 -5.726685,-5.5406 -8.499985,-9.05825 l 0,0 c -0.669314,-0.8524 -1.905894,-0.99647 -2.755292,-0.32715 -0.8524,0.67231 -0.996467,1.90589 -0.327154,2.76129 l 0,0 c 2.926372,3.71574 6.281946,7.00529 8.875162,9.46644 24.5275,23.38696 58.479419,31.67985 100.910309,24.63255 0.14695,-0.0271 5.80773,-1.41967 5.80773,-1.41967 10.0247,-2.45815 19.49714,-4.78424 28.89755,-7.29042 l 4.82927,-1.25458 5.09939,-1.31762 c 58.93863,-15.38521 107.20126,-29.80998 147.54318,-44.10568 0.005,0 2.10698,-0.75636 2.10698,-0.75636 6.61511,-2.36811 12.85803,-4.60716 18.86685,-6.89423 l 1.29661,-0.49523 c 6.54907,-2.49417 12.73197,-4.85328 18.64774,-7.2604 -0.62129,0.25512 -1.33262,0.16807 -1.88188,-0.21923 1.98093,1.41367 3.59268,2.66525 5.00635,4.19297 l 0,0 c 0.73234,0.80137 1.97492,0.8524 2.7733,0.10805 0.79537,-0.73534 0.84639,-1.97493 0.10805,-2.7703 l 0,0" />
    <path
       inkscape:connector-curvature="0"
       id="path164"
       style="fill:#000000;fill-opacity:1;fill-rule:nonzero;stroke:none"
       d="m 394.12397,925.27489 c 5.78071,-8.44897 9.30736,-16.38169 10.49592,-23.58506 1.05649,-5.7597 0.60628,-11.22226 -1.34463,-16.2016 -0.55226,-1.60875 -1.32062,-3.35257 -2.26307,-5.08438 -0.036,-0.0571 -0.0749,-0.12606 -0.11117,-0.18297 l -1.41966,-2.09198 -0.56427,-0.83139 0,0 c -0.60328,-0.90042 -1.82185,-1.13753 -2.72528,-0.52825 -0.89742,0.60629 -1.13753,1.82186 -0.52824,2.72528 l 0,0 0.55526,0.82239 1.44968,2.14 c -0.0329,-0.0511 -0.0749,-0.12318 -0.11093,-0.1772 0.84039,1.54272 1.52171,3.07644 2.02895,4.55913 1.7108,4.37005 2.09198,9.11228 1.16154,14.18165 -1.09551,6.66313 -4.41507,14.0646 -9.86562,22.03934 l 0,0 c -0.61229,0.88841 -0.38418,2.11599 0.51324,2.72828 0.89141,0.60928 2.11299,0.38118 2.72828,-0.51324 l 0,0" />
    <path
       inkscape:connector-curvature="0"
       id="path166"
       style="fill:#000000;fill-opacity:1;fill-rule:nonzero;stroke:none"
       d="m 393.3436,925.9412 0.13494,-0.066 c 2.9894,-1.41667 6.07485,-2.88135 8.9502,-4.34304 31.44874,-17.39315 51.42311,-46.7049 59.43687,-87.15186 -0.10517,0.52224 -0.4172,0.97846 -0.85841,1.2726 35.89083,-23.32694 49.61627,-46.43778 40.78913,-68.69321 -1.24859,-3.39459 -3.26553,-6.89123 -5.9668,-10.34585 -0.21298,-0.24612 -0.36317,-0.46822 -0.53725,-0.71734 -0.2101,-0.30314 -0.44721,-0.6483 -0.75035,-1.00247 l 0,0 c -0.69933,-0.82839 -1.94191,-0.92743 -2.7643,-0.22811 -0.82839,0.69933 -0.93043,1.94191 -0.22498,2.7673 l 0,0 c 0.17408,0.20722 0.33015,0.4352 0.50423,0.69333 0.2041,0.28813 0.4262,0.62129 0.71434,0.96345 2.41913,3.07944 4.23198,6.21891 5.35751,9.27435 8.05878,20.31352 -5.15942,41.82761 -39.26441,63.987 -0.44421,0.29113 -0.75035,0.74735 -0.8554,1.26959 -7.77064,39.25541 -27.0937,67.66673 -57.41992,84.44159 -2.7673,1.40466 -5.83174,2.86035 -8.79413,4.262 l -0.14118,0.0632 c -0.97246,0.46822 -1.39266,1.63877 -0.93044,2.62023 0.46822,0.97846 1.64177,1.39866 2.62023,0.93344 l 0,0" />
    <path
       inkscape:connector-curvature="0"
       id="path168"
       style="fill:#000000;fill-opacity:1;fill-rule:nonzero;stroke:none"
       d="m 491.82577,757.69731 c 0.44121,0.35417 0.81038,0.66031 1.15555,1.06851 1.86987,2.07997 3.62269,4.41807 5.57661,7.41347 1.32362,2.3411 2.44014,4.41207 3.38259,6.59709 8.01375,20.22049 -5.20745,41.73757 -39.31244,63.89696 -0.4412,0.28514 -0.75035,0.74435 -0.8554,1.25459 -8.61704,42.98316 -30.9295,72.84416 -66.31309,88.76662 0.79237,-0.36017 1.71681,-0.15607 2.28707,0.49823 l -3.76976,-4.31602 0,0 c -0.70834,-0.81638 -1.95092,-0.90342 -2.7673,-0.18897 -0.81338,0.71134 -0.90342,1.95392 -0.18609,2.7673 l 0,0 3.76677,4.31903 c 0.56726,0.6513 1.4947,0.84939 2.28407,0.49823 36.59916,-16.46872 59.66797,-47.27517 68.54914,-91.56393 -0.0989,0.51324 -0.41119,0.97245 -0.8524,1.25759 35.89383,-23.32394 49.61926,-46.42877 40.79813,-68.69321 -1.03849,-2.40113 -2.21204,-4.58315 -3.65872,-7.13134 -2.12499,-3.27154 -4.00087,-5.76871 -5.96379,-7.95673 -0.53726,-0.6363 -1.10152,-1.10152 -1.67779,-1.55473 l 0,0 c -0.8464,-0.68132 -2.08298,-0.53726 -2.75829,0.30914 -0.67532,0.8464 -0.53425,2.08298 0.31514,2.75829 l 0,0" />
    <text
       xml:space="preserve"
       style="font-size:40px;font-style:normal;font-weight:normal;line-height:125%;letter-spacing:0px;word-spacing:0px;fill:#ffffff;fill-opacity:1;stroke:none;font-family:Sans"
       x="57.328125"
       y="824.995"
       id="text4217"
       sodipodi:linespacing="125%"><tspan
         sodipodi:role="line"
         id="tspan4219"
         x="57.328125"
         y="824.995"
         style="font-size:80px;font-style:normal;font-variant:normal;font-weight:normal;font-stretch:normal;font-family:BadaBoom BB;-inkscape-font-specification:BadaBoom BB;fill:#ffffff">Reiniciando ...</tspan></text>
  </g>
</svg>
