<?xml version="1.0" encoding="UTF-8" standalone="no"?>
<!-- Created with Inkscape (http://www.inkscape.org/) -->

<svg
   xmlns:dc="http://purl.org/dc/elements/1.1/"
   xmlns:cc="http://creativecommons.org/ns#"
   xmlns:rdf="http://www.w3.org/1999/02/22-rdf-syntax-ns#"
   xmlns:svg="http://www.w3.org/2000/svg"
   xmlns="http://www.w3.org/2000/svg"
   xmlns:sodipodi="http://sodipodi.sourceforge.net/DTD/sodipodi-0.dtd"
   xmlns:inkscape="http://www.inkscape.org/namespaces/inkscape"
   width="512"
   height="512"
   id="svg2991"
   version="1.1"
   inkscape:version="0.48.4 r9939"
   inkscape:export-filename="/home/fergus/CEDV/TFC/build-Blood_Metal-Debug/media/rock.png"
   inkscape:export-xdpi="45"
   inkscape:export-ydpi="45"
   sodipodi:docname="New document 1">
  <defs
     id="defs2993" />
  <sodipodi:namedview
     id="base"
     pagecolor="#ffffff"
     bordercolor="#666666"
     borderopacity="1.0"
     inkscape:pageopacity="0.0"
     inkscape:pageshadow="2"
     inkscape:zoom="0.49497475"
     inkscape:cx="466.41533"
     inkscape:cy="190.04574"
     inkscape:document-units="px"
     inkscape:current-layer="layer1"
     showgrid="false"
     inkscape:window-width="1366"
     inkscape:window-height="713"
     inkscape:window-x="-3"
     inkscape:window-y="-3"
     inkscape:window-maximized="1" />
  <metadata
     id="metadata2996">
    <rdf:RDF>
      <cc:Work
         rdf:about="">
        <dc:format>image/svg+xml</dc:format>
        <dc:type
           rdf:resource="http://purl.org/dc/dcmitype/StillImage" />
        <dc:title></dc:title>
      </cc:Work>
    </rdf:RDF>
  </metadata>
  <g
     inkscape:label="Layer 1"
     inkscape:groupmode="layer"
     id="layer1"
     transform="translate(0,-540.36218)">
    <g
       id="g3036"
       transform="matrix(1.046763,0,0,1.0534978,-11.971317,-42.603646)">
      <path
         style="fill:#e59512"
         d="m 11.5,796.36216 0,-243 244.5,0 244.5,0 0,243 0,243.00004 -244.5,0 -244.5,0 0,-243.00004 z"
         id="path3026"
         inkscape:connector-curvature="0" />
      <path
         style="fill:#db8800"
         d="m 11.47946,998.04161 0,-41.3206 8.73204,2.8266 c 4.80262,1.5546 9.19012,2.6689 9.75,2.4763 1.32974,-0.4574 -8.75712,-5.5789 -13.94676,-7.0813 l -4.03528,-1.1682 -0.25857,-54.77043 c -0.17295,-36.63397 0.0754,-54.56405 0.75,-54.14713 0.55471,0.34284 1.00857,0.17333 1.00857,-0.37667 0,-0.55 -0.45,-1.27811 -1,-1.61803 -0.63931,-0.39512 -1,-14.84102 -1,-40.05092 l 0,-39.43289 3.94052,1.57669 c 6.44334,2.57811 8.34523,1.35066 2.8747,-1.85528 -2.56925,-1.50568 -5.15373,-2.7376 -5.74329,-2.7376 -0.7091,0 -1.07193,-4.52382 -1.07193,-13.36514 0,-11.92819 0.21882,-13.64333 2.03529,-15.95259 1.11941,-1.4231 3.53852,-5.88609 5.37582,-9.91776 3.13817,-6.88626 5.99469,-9.76451 9.69081,-9.76451 0.55429,0 2.89562,-0.84922 5.20294,-1.88716 5.99526,-2.69694 23.40062,-9.11284 24.72175,-9.11284 0.61267,0 5.69482,-1.79142 11.293669,-3.98094 5.59885,-2.18951 12.76722,-4.69644 15.92972,-5.57096 3.1625,-0.87451 5.75,-1.99225 5.75,-2.48387 0,-1.84815 -4.38941,-3.1827 -8.57922,-2.60843 -5.59194,0.76646 -24.487339,6.89656 -34.786849,11.28565 -13.84266,5.89899 -33.47398,17.18476 -35.08903,20.17219 -1.28057,2.36873 -1.45759,-6.54131 -1.49718,-75.35661 l -0.0449,-78.04298 4.24859,-1.14012 c 7.89925,-2.11979 20.76023,-7.44606 20.19354,-8.36299 -0.30965,-0.50101 1.23701,-0.91094 3.43701,-0.91094 2.2,0 4.27811,0.45 4.61803,1 0.33992,0.55 1.06803,1 1.61803,1 0.55,0 0.72189,-0.45 0.38197,-1 -0.39625,-0.64114 2.96184,-1 9.35765,-1 7.04487,0 10.12387,0.36724 10.48007,1.25 0.40351,1 0.52017,1 0.58333,0 0.0624,-0.9882 15.809119,-1.25 75.18594,-1.25 71.13825,0 75.06892,0.0925 74.38655,1.75 -1.67852,4.07721 -1.67279,5.24398 0.0289,5.897 2.50201,0.96011 4.76386,-0.81305 5.71389,-4.47935 l 0.82085,-3.16765 138.97141,0 138.97141,0 0,6.54181 c 0,5.2244 -0.4149,6.98651 -2.06026,8.75 -1.84907,1.98184 -1.99035,2.97699 -1.37825,9.70819 0.3751,4.125 0.94342,7.94209 1.26292,8.48242 1.34982,2.28278 1.46967,10.40764 1.83455,124.37066 l 0.38214,119.35307 -4.77055,-4.20356 c -6.41897,-5.65607 -9.34893,-7.03019 -15.53564,-7.28608 -4.64041,-0.19192 -5.23491,0.0106 -5.23491,1.78349 0,1.50703 0.61621,1.96269 2.5,1.84863 4.74551,-0.28734 11.51104,1.75987 15,4.53891 1.925,1.53331 4.49721,3.31852 5.71601,3.96714 l 2.21601,1.17931 0.0484,47.483 c 0.0266,26.11567 -0.1281,47.48297 -0.34387,47.48297 -0.89994,0 -8.41297,-3.2325 -11.95229,-5.1426 -2.09865,-1.1326 -4.05309,-1.8219 -4.3432,-1.5318 -0.63269,0.6327 8.82802,6.1918 13.40894,7.8791 l 3.25,1.1971 0,9.3665 c 0,9.2785 -0.0211,9.3592 -2.25,8.5844 -2.57662,-0.8957 -30.45991,-0.65 -31.96739,0.2817 -2.24006,1.3844 2.19184,2.3358 10.94883,2.3503 5.07729,0.01 12.38979,0.5569 16.25,1.2189 l 7.01856,1.2035 0,43.2965 0,43.29649 -24.91667,0 c -18.99766,0 -25.03648,-0.297 -25.42105,-1.25 -0.40351,-1 -0.52017,-1 -0.58333,0 -0.0626,0.9908 -20.1644,1.25 -96.96232,1.25 -96.04236,0 -96.88791,-0.017 -97.40638,-2 -0.30682,-1.1733 -1.36401,-2 -2.55761,-2 -2.57169,0 -3.84949,1.9458 -2.03076,3.0924 0.7861,0.4956 -37.39183,0.8755 -88.87188,0.8843 -49.6375,0.01 -90.250001,-0.1628 -90.250001,-0.3806 0,-0.2179 1.4625,-1.933 3.25,-3.8113 1.7875,-1.8784 6.61028,-7.3935 10.71728,-12.2559 14.629961,-17.3206 25.440681,-24.52899 36.787401,-24.52899 4.65026,0 10.24532,-1.7619 10.24532,-3.2263 0,-0.6892 -4.05797,-0.8007 -12.25,-0.3364 -11.38157,0.645 -12.54516,0.9023 -16.41348,3.6285 -2.28991,1.61389 -4.510331,2.93429 -4.934271,2.93429 -1.8485,0 -9.40292,4.2866 -9.40941,5.3392 -0.004,0.6384 -2.75032,3.4108 -6.10306,6.1608 -8.93775,7.3309 -22.889779,22.2958 -22.889779,24.5515 0,1.4486 -0.69036,1.9485 -2.69113,1.9485 -2.33432,0 -2.4803,-0.1657 -1.10097,-1.25 0.87458,-0.6875 1.91403,-2.375 2.30989,-3.75 l 0.71973,-2.5 -3.0832,2.903 c -1.69576,1.5967 -2.84765,3.2842 -2.55975,3.75 0.28791,0.4658 -9.17809,0.847 -21.03555,0.847 l -21.55902,0 0,-41.32059 z m 259.84648,24.69969 c 1.23476,-2.5415 2.0391,-4.8269 1.78743,-5.0785 -0.46526,-0.4653 -5.63391,7.8257 -5.63391,9.0372 0,2.0173 1.88628,0.076 3.84648,-3.9587 z m 23.13752,-13.0462 c 4.66619,-2.454 11.19119,-5.0823 14.5,-5.8407 3.3088,-0.7584 9.166,-2.3146 13.016,-3.4582 8.97914,-2.66719 29.53549,-5.06329 50.5,-5.88629 10.13971,-0.3981 16.4189,-1.0332 16.28961,-1.6478 -0.11571,-0.55 -1.24071,-1.1556 -2.5,-1.3458 -3.26909,-0.4937 -4.66159,-1.9277 -4.06974,-4.1909 0.61465,-2.3505 -0.44559,-2.5215 -2.74298,-0.4424 -1.44223,1.3053 -3.06034,1.3671 -11.40878,0.4362 -15.41699,-1.7191 -40.55099,1.5404 -54.74674,7.0998 -7.57265,2.9657 -21.05583,10.43979 -23.29323,12.91209 -1.0431,1.1526 -3.38866,3.0178 -5.21235,4.1449 -1.82368,1.1271 -3.31579,2.4929 -3.31579,3.0351 0,1.4681 3.51235,0.1653 12.984,-4.816 z m 149.57473,-10.22609 c -2.27168,-16.2872 -2.04312,-20.8678 1.56909,-31.4466 1.7203,-5.0382 4.05573,-10.8523 5.18985,-12.9204 2.28467,-4.1662 1.53323,-6.0366 -2.04882,-5.0999 -1.67519,0.4381 -3.03682,2.7449 -5.73576,9.7172 -3.1247,8.0723 -3.53646,10.1966 -3.51657,18.1428 0.0213,8.5306 2.17298,28.37109 3.54581,32.69649 0.40628,1.28 0.98321,1.658 1.59574,1.0455 0.61253,-0.6125 0.39584,-4.9999 -0.59934,-12.13509 z m -160.05873,4.89319 c 0,-1.2833 -0.56226,-2.5208 -1.24947,-2.7498 -1.53306,-0.5111 -2.68467,2.176 -1.85699,4.3329 0.87971,2.2925 3.10646,1.1577 3.10646,-1.5831 z m 114.5,-17.00009 c 0,-0.55 -0.47656,-1 -1.05902,-1 -0.58246,0 -0.7809,0.45 -0.44098,1 0.33992,0.55 0.81648,1 1.05902,1 0.24254,0 0.44098,-0.45 0.44098,-1 z m -62.53101,-10.9498 c 0.77853,-1.2597 -2.68675,-3.0502 -5.90325,-3.0502 -2.93086,0 -3.5693,2.5911 -0.81574,3.3107 3.149,0.8229 6.12061,0.7077 6.71899,-0.2605 z m 15.91499,-2.2187 c 5.88682,-1.6714 6.67627,-2.8315 1.9268,-2.8315 -2.59925,0 -4.9494,0.7166 -6.45,1.9668 -2.76631,2.3045 -1.44087,2.5579 4.5232,0.8647 z m -62.37235,-4.1943 c 1.78268,-0.7496 2.84627,-1.607 2.36354,-1.9053 -1.34331,-0.8302 -11.40903,1.4043 -10.79577,2.3966 0.79654,1.2888 4.74577,1.0587 8.43223,-0.4913 z m -21.2673,-2.3749 c 1.33363,-2.0119 1.31206,-2.3034 -0.21379,-2.8889 -2.05352,-0.788 -6.10781,2.8836 -5.05866,4.5811 1.04341,1.6883 3.56896,0.8777 5.27245,-1.6922 z m -150.85644,-2.7216 c 1.1327,-1.1327 1.23557,-1.8172 0.39886,-2.6539 -1.35035,-1.3504 -8.41094,1.7599 -9.1165,4.0159 -0.59402,1.8993 6.57659,0.7791 8.71764,-1.362 z m -46.813291,-7.6801 c 2.54139,-4.7486 2.9137,-8.083 1.28562,-11.5139 -0.87346,-1.8407 -2.20455,-3.3467 -2.95798,-3.3467 -1.105469,0 -1.050919,0.6689 0.28261,3.4654 1.62713,3.4121 1.37226,5.7606 -1.333159,12.2846 -0.89136,2.1495 1.517669,1.3627 2.722909,-0.8894 z m 55.033171,-3.3576 c 1.87269,-3.5301 2.14793,-4.8741 1.27997,-6.25 -0.60814,-0.9641 -1.47222,-1.6646 -1.92018,-1.5566 -0.60357,0.1455 -4.34852,10.2829 -4.45283,12.0536 -0.008,0.1375 0.59774,0.25 1.34631,0.25 0.74857,0 2.4346,-2.0236 3.74673,-4.497 z m 291.4193,-1.5468 c 0.35481,-0.5741 0.21591,-1.5866 -0.30866,-2.25 -0.52458,-0.6634 -1.72448,-3.5687 -2.66646,-6.4562 -1.80993,-5.5481 -2.54946,-6.1628 -4.53529,-3.77 -1.00115,1.2063 -0.74646,2.0524 1.37756,4.5767 1.50721,1.7912 2.60578,4.3292 2.60578,6.0201 0,2.9245 2.1674,4.0794 3.52707,1.8794 z m -333.556031,-2.9171 c 0.80907,-0.5117 1.13586,-1.2655 0.72619,-1.6752 -0.40967,-0.4096 -1.50556,0.016 -2.43533,0.9457 -1.80738,1.8073 -0.72543,2.2692 1.70914,0.7295 z m 174.925121,-15.5987 c 2.96788,-4.073 6.87216,-9.8557 8.67617,-12.8504 1.80401,-2.9948 5.60231,-8.4001 8.44068,-12.0118 5.07146,-6.45333 5.3104,-6.61119 13.82382,-9.13247 4.76475,-1.4111 13.83817,-4.28338 20.16317,-6.38286 6.325,-2.09947 15.775,-4.56144 21,-5.47103 5.225,-0.9096 13.49032,-2.56925 18.36738,-3.68811 4.87706,-1.11886 14.77706,-2.70084 22,-3.5155 7.22294,-0.81466 13.58262,-1.62045 14.13262,-1.79065 0.55,-0.17021 -1.7,-0.88406 -5,-1.58635 -11.76056,-2.50283 -39.46645,0.28175 -60.365,6.06699 -4.05075,1.12134 -9.67575,2.18306 -12.5,2.35937 -6.14482,0.3836 -16.30564,3.84924 -28.55259,9.7387 -8.54811,4.11071 -8.99337,4.48333 -9.03676,7.56261 -0.0315,2.2339 -1.40234,5.0264 -4.41813,9 -5.41547,7.1354 -16.62752,25.8147 -16.62752,27.7014 0,1.5186 1.90851,2.5193 3.5,1.8353 0.55,-0.2364 3.42827,-3.7622 6.39616,-7.8352 z m -235.89616,-5.8813 c 0,-0.2426 -0.45,-0.7191 -1,-1.0591 -0.55,-0.3399 -1,-0.1414 -1,0.441 0,0.5825 0.45,1.059 1,1.059 0.55,0 1,-0.1984 1,-0.4409 z m 32.18524,-8.2862 c -0.36155,-6.9185 1.28736,-20.5591 3.33163,-27.56091 1.92274,-6.58557 5.5232,-12.71195 7.47079,-12.71195 0.89065,0 6.156269,1.52787 11.701369,3.39527 l 10.08199,3.39528 -0.66849,-2.49959 c -0.43899,-1.64144 -1.85878,-2.94155 -4.13551,-3.78691 -1.90686,-0.70803 -6.69925,-2.69055 -10.64976,-4.4056 -3.950509,-1.71505 -9.209779,-3.39611 -11.687269,-3.73569 -4.26248,-0.58423 -4.6082,-0.44693 -6.43392,2.55523 -1.63481,2.68823 -1.9417,5.18881 -2.00994,16.37733 -0.0446,7.31096 -0.67707,15.65954 -1.41705,18.70464 -1.80797,7.4401 0.40947,17.8061 3.57256,16.7009 0.75408,-0.2635 1.0485,-2.507 0.8436,-6.428 z m 143.36861,3.64 c 1.11922,-1.8109 -1.06826,-3.0586 -5.68145,-3.2405 -5.2455,-0.2068 -6.09214,1.3741 -1.60742,3.0016 4.18375,1.5182 6.45229,1.5925 7.28887,0.2389 z m 225.98121,-3.8451 c -0.87253,-1.6873 -2.03401,-3.0678 -2.58106,-3.0678 -0.54706,0 -0.0145,1.9125 1.18353,4.25 1.198,2.3375 2.35948,3.718 2.58106,3.0678 0.22159,-0.6502 -0.311,-2.5627 -1.18353,-4.25 z m 50.51078,-4.1534 c 0.61391,-1.1471 0.85474,-2.3471 0.53518,-2.6667 -0.31956,-0.3195 -0.58102,-0.056 -0.58102,0.5857 0,0.6416 -0.675,1.1666 -1.5,1.1666 -0.825,0 -1.5,0.675 -1.5,1.5 0,2.1751 1.74826,1.8389 3.04584,-0.5856 z M 237.50448,900.11215 c 4.9238,-3.33612 4.7185,-4.39371 -1.00014,-5.15231 -4.01614,-0.53276 -5.55373,-0.30384 -7.49618,1.11604 -3.45364,2.52451 -3.85953,4.21659 -1.26205,5.26127 3.66815,1.47529 6.25166,1.15097 9.75837,-1.225 z m -128.02502,-1.25 c -0.68469,-0.825 -1.75229,-1.48569 -2.37244,-1.4682 -0.62016,0.0175 -0.25405,0.6925 0.81357,1.5 2.49367,1.88612 3.13966,1.87294 1.55887,-0.0318 z m 134,-17.94098 c 0,-0.24254 -0.45,-0.7191 -1,-1.05902 -0.55,-0.33992 -1,-0.14148 -1,0.44098 0,0.58246 0.45,1.05902 1,1.05902 0.55,0 1,-0.19844 1,-0.44098 z m -116.27083,-6.16319 c -0.3323,-0.33229 -1.1948,-0.36781 -1.91667,-0.0789 -0.79773,0.31922 -0.56078,0.55618 0.60417,0.60416 1.05416,0.0434 1.64479,-0.19293 1.3125,-0.52522 z m 268.15017,-5.02387 c 3.16443,-2.21646 1.13293,-3.3211 -4.21325,-2.29097 -2.29135,0.44151 -7.76609,1.16479 -12.16609,1.60728 l -8,0.80454 9.5,0.56218 c 5.225,0.3092 10.18737,0.64832 11.02749,0.75359 0.84013,0.10528 2.57346,-0.5412 3.85185,-1.43662 z M 138.46516,851.86215 c -1.26122,-8.63834 -3.25608,-14.5 -4.93467,-14.5 -1.69279,0 -1.14787,8.03908 0.94897,14 1.06409,3.025 1.9494,6.70821 1.96735,8.1849 0.018,1.4767 0.57818,3.9517 1.24495,5.5 l 1.2123,2.8151 0.36456,-4 c 0.20051,-2.2 -0.16104,-7.6 -0.80346,-12 z m 140.38401,9.25 c 0.7827,-2.92062 0.7947,-8.15798 0.0233,-10.16821 -1.35577,-3.53308 -2.39301,-1.18457 -2.39301,5.41821 0,6.8587 1.17397,9.21189 2.36971,4.75 z m -27.86804,-3.75271 c 0.67949,-1.09943 2.38574,-10.99729 1.89578,-10.99729 -0.56998,0 -4.39745,9.24968 -4.39745,10.62712 0,1.59607 1.5979,1.83251 2.50167,0.37017 z m -89.86907,-5.74729 c -0.33031,-1.5125 -1.27427,-7.7 -2.09769,-13.75 -0.82342,-6.05 -1.95905,-13.925 -2.52361,-17.5 l -1.02649,-6.5 5.97698,-12.12148 c 3.28735,-6.66681 7.8466,-14.48671 10.13169,-17.37756 7.78324,-9.84654 18.90652,-26.42621 18.90652,-28.18089 0,-0.96233 -0.94994,-2.2581 -2.11098,-2.87946 -1.83272,-0.98085 -2.63191,-0.623 -6.06297,2.71481 -2.1736,2.11452 -4.9099,5.41958 -6.08066,7.34458 -1.17077,1.925 -3.57394,5.3 -5.34038,7.5 -1.76644,2.2 -4.79958,6.41824 -6.7403,9.37386 -1.94073,2.95562 -4.52834,5.88062 -5.75025,6.5 -3.58578,1.8176 -5.95905,5.86333 -6.55299,11.17089 -1.065,9.51706 -1.13508,16.20132 -0.22602,21.55818 2.34547,13.82136 4.14844,21.54853 6.52198,27.95201 2.63602,7.1116 4.04638,9.10024 2.97517,4.19506 z m 217.3674,-9.71862 c 0,-0.89459 -0.58629,-1.24363 -1.5,-0.89301 -0.825,0.31659 -1.5,0.97746 -1.5,1.46862 0,0.49115 0.675,0.89301 1.5,0.89301 0.825,0 1.5,-0.66088 1.5,-1.46862 z M 273.12018,833.7576 c -0.60294,-4.39894 -0.37596,-4.96826 5.08334,-12.75 14.58761,-20.79334 30.57548,-30.92212 58.52594,-37.0779 4.60503,-1.0142 3.30397,-3.31977 -2.5,-4.43017 -12.83773,-2.45609 -13.34319,-2.36262 -20.37309,3.76735 -5.776,5.03659 -18.66989,12.44031 -26.37691,15.14573 -3.575,1.25494 -7.34471,2.99447 -8.37713,3.86562 -2.83671,2.3936 -8.6996,15.86277 -9.61275,22.08392 -0.64846,4.41787 -0.44481,6.33619 1.03506,9.75 2.39764,5.53093 3.38378,5.39623 2.59554,-0.35455 z m 162.61863,-8.95191 c 7.03759,-5.84148 9.26879,-9.97283 8.57945,-15.88591 l -0.3388,-2.90621 -6.22713,5.19171 c -5.41994,4.51874 -6.44212,5.93481 -7.88571,10.92429 -0.91221,3.15292 -1.87065,6.29508 -2.12986,6.98258 -0.91425,2.42492 1.37962,1.19043 8.00205,-4.30646 z m -314.50022,-8.69354 c -1.0688,-3.2782 -21.22967,-9.06343 -37.968921,-10.89531 -9.0908,-0.99486 -12.64328,-0.91724 -23.499999,0.51348 -20.99745,2.76707 -29.66192,5.66012 -26.48032,8.84172 0.8335,0.8335 2.6239,0.75772 6.90762,-0.29238 8.6539,-2.1214 55.062029,-1.86674 65.28249,0.35824 13.49188,2.93715 16.32241,3.20195 15.75913,1.47425 z m 124.52704,-8.85158 c -4.14117,-8.1021 -6.48781,-11.03011 -7.79355,-9.72438 -0.23161,0.23162 1.34691,3.32471 3.50782,6.87354 2.16092,3.54883 3.94483,7.14992 3.96425,8.00242 0.043,1.88768 1.9771,3.95 3.70441,3.95 0.77768,0 -0.53226,-3.52433 -3.38293,-9.10158 z m 167.71383,6.66668 c 0,-1.34342 -2.13839,-5.76004 -2.57665,-5.32179 -0.78885,0.78886 0.6653,5.75669 1.68506,5.75669 0.49037,0 0.89159,-0.19571 0.89159,-0.4349 z m 55.75,-19.25596 c 6.57064,-6.33987 11.25,-11.64451 11.25,-12.75327 0,-1.98397 -2.68351,-5.55587 -4.17404,-5.55587 -0.47524,0 -0.58662,1.10542 -0.24753,2.45648 0.51114,2.03655 0.18222,2.56549 -1.92411,3.09414 -1.39736,0.35072 -2.96935,0.37271 -3.49332,0.0489 -1.18085,-0.7298 -3.36916,1.16733 -10.54486,9.14181 -5.25428,5.83917 -5.61614,6.5663 -5.61614,11.28519 0,6.44867 0.14928,6.37057 14.75,-7.71736 z m -337.33179,-2.91613 c 1.57206,-0.60325 2.26548,-3.41328 0.83179,-3.37077 -0.4125,0.0122 -1.875,0.90222 -3.25,1.97776 -1.92199,1.5034 -2.1143,1.96067 -0.83179,1.97776 0.91752,0.0122 2.38002,-0.2509 3.25,-0.58475 z m -80.32249,-7.00835 c 1.15986,-1.39754 1.08641,-1.56608 -0.54469,-1.25 -1.03691,0.20094 -2.07259,0.92784 -2.3015,1.61534 -0.59396,1.78389 1.25999,1.54592 2.84619,-0.36534 z m 291.5592,-7.92779 c 0.93028,-2.42426 -0.36778,-2.86191 -1.60908,-0.54252 -0.77398,1.44619 -0.7892,2.08565 -0.0496,2.08565 0.58661,0 1.33304,-0.69441 1.65872,-1.54313 z m 6.3767,-32.20617 -1.22574,-5.4772 4.34706,-4.49043 c 11.65902,-12.04354 34.41255,-28.75451 47.28982,-34.73126 10.67859,-4.95627 10.75969,-5.13527 4.38374,-9.67536 l -2.85114,-2.03018 -6.03899,2.32686 c -3.32144,1.27978 -9.50339,4.96861 -13.73768,8.1974 -4.23428,3.2288 -11.29869,8.22476 -15.69869,11.10213 -8.19053,5.35619 -20.77479,17.66705 -21.99756,21.51964 -0.81857,2.5791 2.09947,15.49765 4.28884,18.98727 2.2031,3.51151 2.74653,1.00149 1.24034,-5.72887 z m -24.42745,1.02013 c -1.01652,-1.01651 -1.85525,0.51389 -1.02122,1.86338 0.63003,1.01942 0.86558,1.02021 1.2043,0.004 0.2316,-0.69479 0.14921,-1.53513 -0.18308,-1.86742 z M 157.49641,740.9373 c -1.25092,-5.54642 -3.36301,-7.27391 -2.53715,-2.07515 1.30388,8.20784 1.60712,9.09608 2.53766,7.43328 0.48134,-0.8601 0.48111,-3.22269 -5.1e-4,-5.35813 z m 36.96774,5.67485 c -0.028,-1.36867 -1.86631,-3.70172 -2.45386,-3.11417 -0.78775,0.78775 0.46709,3.86417 1.57616,3.86417 0.49115,0 0.88612,-0.3375 0.8777,-0.75 z m 290.01531,-7.22695 c 0,-1.49189 -3.55595,-3.51801 -14.82103,-8.44478 -5.66286,-2.47664 -12.02201,-5.86993 -14.13144,-7.54063 -5.54386,-4.39081 -5.95965,-3.73131 -0.91619,1.45319 3.08481,3.17108 7.74131,6.10985 15.84507,10 11.52717,5.53354 14.02359,6.34035 14.02359,4.53222 z m -332.25,-21.65334 c 2.76147,-0.74004 2.87723,-1.96366 0.31547,-3.33467 -2.44111,-1.30644 -7.06547,0.29067 -7.06547,2.44021 0,1.60112 2.75221,1.96583 6.75,0.89446 z m 84.74452,-7.08888 c 2.94393,-2.59555 5.13544,-5.07055 4.87002,-5.5 -1.12228,-1.8159 -7.49702,-0.73926 -9.90999,1.67372 -2.50432,2.50431 -3.48244,8.54545 -1.3836,8.54545 0.58903,0 3.47963,-2.12363 6.42357,-4.71917 z m 40.23465,-4.885 c -0.33229,-0.33229 -1.1948,-0.36781 -1.91667,-0.0789 -0.79773,0.31922 -0.56078,0.55618 0.60417,0.60416 1.05416,0.0434 1.64479,-0.19293 1.3125,-0.52522 z M 474.54502,695.6897 c 1.14894,-3.02193 0.41839,-6.2115 -1.07959,-4.71352 -0.52166,0.52166 -1.23816,2.39691 -1.59222,4.16722 -0.8009,4.00451 1.20135,4.41391 2.67181,0.5463 z m -304.06556,-2.19169 c 0,-0.8227 -3.10803,-2.12415 -13.75,-5.75766 -2.6125,-0.892 -6.1,-2.20729 -7.75,-2.92289 -3.88733,-1.68591 -8.5,-2.8287 -8.5,-2.10587 0,1.22706 9.59102,6.08584 17.33302,8.78086 8.27667,2.88113 12.66698,3.57625 12.66698,2.00556 z m 123.49507,-0.13399 c 3.44762,-1.31078 2.29045,-3.00187 -2.05409,-3.00187 -2.20082,0 -3.44098,0.48055 -3.44098,1.33333 0,2.74768 1.47707,3.19618 5.49507,1.66854 z M 88.479459,680.36215 c 0,-0.55 -0.45,-1 -1,-1 -0.55,0 -1,0.45 -1,1 0,0.55 0.45,1 1,1 0.55,0 1,-0.45 1,-1 z m 330.000001,-1.34501 c 0,-2.5872 -7.91142,-7.65499 -11.95034,-7.65499 -3.91482,0 -2.01466,2.59053 4.20034,5.7264 7.17352,3.61951 7.75,3.76297 7.75,1.92859 z m -150.38753,-7.27893 c -2.12881,-6.24771 -2.04939,-7.55532 0.79829,-13.14447 1.32592,-2.60237 3.1695,-9.00659 4.09685,-14.23159 0.92735,-5.225 2.31751,-11.49266 3.08924,-13.92814 0.77173,-2.43547 1.40315,-5.6414 1.40315,-7.12427 0,-1.48288 0.675,-4.60929 1.5,-6.94759 1.86075,-5.27393 1.99024,-10.32741 0.25,-9.75681 -0.6875,0.22542 -1.82371,2.13258 -2.5249,4.23813 -0.71325,2.14173 -4.03313,6.75214 -7.53578,10.46514 -5.99293,6.35281 -6.36059,7.04164 -8.59078,16.0952 -2.52199,10.23815 -3.92649,23.95834 -2.45255,23.95834 0.49995,0 1.87959,-0.67983 3.06586,-1.51072 2.79474,-1.95751 3.55302,-0.76462 3.92782,6.17904 0.27086,5.01797 2.89304,12.1323 4.04654,10.97881 0.2963,-0.29631 -0.18688,-2.66829 -1.07374,-5.27107 z m 136.33511,-11.90413 c -4.01515,-16.93159 -6.37354,-31.29826 -7.38244,-44.97193 -0.6493,-8.8 -1.0311,-16.45 -0.84845,-17 0.36619,-1.10269 14.40191,-10.59345 26.6132,-17.99548 7.05569,-4.2769 18.84675,-13.60041 19.38055,-15.32474 0.35418,-1.1441 -8.32893,-6.17978 -10.65591,-6.17978 -2.5879,0 -6.05453,1.69803 -6.05453,2.96563 0,0.4924 0.97725,1.03907 2.17167,1.21482 3.94803,0.58093 2.91807,2.3093 -3.41627,5.7328 -9.02697,4.87879 -28.85862,18.19215 -29.46917,19.78322 -0.38377,1.0001 -0.86426,1.0687 -1.83611,0.26213 -0.99926,-0.82931 -1.66688,-0.53438 -2.77177,1.22448 -2.23985,3.5656 -3.93447,9.70776 -3.20269,11.60816 0.4726,1.22732 1.16604,0.20985 2.46121,-3.61129 3.3993,-10.02894 4.04272,-8.62278 3.3874,7.40292 -0.84245,20.60185 1.96277,36.26623 9.72666,54.31389 2.57893,5.99488 3.2286,6.19189 1.89665,0.57517 z M 112.0986,652.28155 c 1.29326,-10.7279 2.12134,-13.21326 6.57871,-19.74506 5.04748,-7.39653 22.00945,-26.2186 30.4352,-33.77281 4.23378,-3.79584 14.09564,-10.96686 21.91524,-15.9356 13.5723,-8.62413 20.59645,-14.64041 18.56144,-15.89811 -0.51805,-0.32017 -2.13395,-0.12891 -3.59091,0.42503 -4.57352,1.73884 -6.35509,1.27558 -6.7024,-1.74285 -0.42736,-3.71419 -3.20482,-3.64813 -3.4916,0.083 -0.2747,3.57381 -1.55644,5.1158 -5.60798,6.74666 -1.76926,0.71218 -5.91684,2.93316 -9.21684,4.93551 -3.3,2.00234 -8.59233,5.16607 -11.76074,7.0305 -3.1684,1.86444 -5.59004,3.85437 -5.38142,4.42209 0.20863,0.56771 -5.79139,7.3322 -13.33336,15.0322 -12.44724,12.70805 -14.15973,14.90272 -18.5571,23.78222 -3.70863,7.48874 -4.94563,11.1814 -5.27609,15.75 -0.30369,4.19842 -0.84076,5.96778 -1.81148,5.96778 -0.7589,0 -1.37981,-0.45 -1.37981,-1 0,-0.55 -0.45,-1 -1,-1 -1.76601,0 -1.07662,1.84314 2,5.34722 1.65,1.87924 3,4.5199 3,5.86813 0,1.34822 0.30938,2.76069 0.6875,3.13882 1.80681,1.8068 2.88973,-0.7919 3.93164,-9.43477 z m 232.13086,-47.8965 c 8.87782,-0.0181 11.25,-0.31337 11.25,-1.40046 0,-3.66853 -2.73494,-4.12655 -23.74442,-3.97643 -19.46425,0.13907 -20.41137,0.0577 -19.94825,-1.71323 0.65715,-2.51297 -1.23127,-3.86606 -4.51562,-3.23552 -1.9884,0.38174 -3.00648,1.42346 -3.83009,3.91902 -0.61698,1.86949 -2.09825,3.94594 -3.29171,4.61434 -2.07761,1.16358 -2.02104,1.2433 1.33009,1.87443 1.925,0.36254 9.8,0.49752 17.5,0.29996 7.7,-0.19757 19.0625,-0.36951 25.25,-0.38211 z m -96.73148,-6.5716 c 0.53295,-1.40179 1.39255,-5.11428 1.9102,-8.25 0.85514,-5.18005 0.70256,-6.18338 -1.66885,-10.97417 -3.7531,-7.58209 -4.93718,-8.3036 -7.92554,-4.82942 -3.08224,3.58332 -2.69354,5.70307 1.39403,7.60229 3.89915,1.81167 4.05963,3.55973 0.77164,8.40486 -3.15621,4.65094 -3.13566,5.94997 0.13486,8.52256 3.41112,2.68319 4.20933,2.61259 5.38366,-0.47612 z m 221.34118,-21.22428 c 0.64411,-1.04221 -3.38579,-10.22702 -4.48719,-10.22702 -1.32131,0 -1.05675,2.03083 0.87749,6.73574 1.70834,4.15543 2.64145,5.05793 3.6097,3.49128 z m -325.8597,-8.86225 c 1.94282,-1.52669 1.92853,-1.55116 -0.5,-0.8558 -3.0516,0.87376 -5.0076,2.50436 -2.95,2.45923 0.7975,-0.0175 2.35,-0.73904 3.45,-1.60343 z m 356.57895,11.0519 c 0.048,-1.16495 0.28494,-1.4019 0.60416,-0.60417 0.28887,0.72188 0.25335,1.58438 -0.0789,1.91667 -0.33229,0.33229 -0.56864,-0.25834 -0.52522,-1.3125 z M 11.47946,554.26853 c 0,-0.49851 0.9,-0.90638 2,-0.90638 1.1,0 2,0.17252 2,0.38337 0,0.21085 -0.9,0.61872 -2,0.90638 -1.1,0.28766 -2,0.11514 -2,-0.38337 z"
         id="path3022"
         inkscape:connector-curvature="0" />
      <path
         style="fill:#ca7b00"
         d="m 42.863406,1031.1121 c 11.13907,-14.4726 25.73309,-37.9758 24.40513,-39.30379 -0.36538,-0.3654 -2.06615,0.3339 -3.77948,1.5539 -1.71333,1.22 -3.34542,1.9879 -3.62686,1.7064 -0.97586,-0.9758 2.1381,-4.7836 4.37686,-5.352 2.86023,-0.72621 2.97499,-4.163 0.2545,-7.6216 -2.91675,-3.708 -14.98397,-12.3992 -20.62597,-14.8554 -6.58305,-2.8659 -8.47285,-4.6535 -7.79117,-7.3695 0.56578,-2.2543 -1.65829,-3.2787 -21.33736,-9.8281 -3.132496,-1.0425 -3.249996,-1.2771 -3.249996,-6.4877 0,-4.7622 0.20843,-5.3185 1.75,-4.6705 4.182286,1.7579 6.080256,1.664 7.160416,-0.3543 0.5981,-1.1175 1.98841,-2.3179 3.08958,-2.6674 2.8137,-0.893 4.63792,-4.4809 2.85325,-5.6118 -1.05768,-0.6702 -0.9789,-0.8609 0.3607,-0.8728 2.0901,-0.019 6.78605,-6.6688 6.78605,-9.61 0,-1.1717 1.35123,-3.8307 3.00274,-5.90881 2.34218,-2.94725 2.96852,-4.68331 2.84717,-7.89162 -0.0856,-2.26223 0.62795,-5.62833 1.5856,-7.48021 1.23274,-2.38386 1.58829,-4.71871 1.21763,-7.99589 -1.31786,-11.65154 -2.72406,-18.34753 -4.64307,-22.1091 -1.39505,-2.73452 -1.78755,-4.59494 -1.19339,-5.65664 0.79791,-1.42578 0.94873,-1.41681 1.52726,0.0908 0.7609,1.98288 2.65606,1.12878 2.65606,-1.19699 0,-2.72972 -14.52799,-16.2569 -17.45967,-16.2569 -1.73135,0 -2.54033,0.54527 -2.54033,1.71223 0,1.22207 -0.84717,0.7211 -2.95936,-1.75 -1.62765,-1.90423 -2.97765,-3.96963 -3,-4.58979 -0.0224,-0.62015 -0.689226,-1.66583 -1.481956,-2.32374 -1.19772,-0.99402 -1.44673,-6.49608 -1.47338,-32.55475 l -0.0321,-31.35857 7.079476,2.91934 c 3.89371,1.60564 11.22269,4.24654 16.28662,5.86866 5.06393,1.62212 10.42064,3.50221 11.9038,4.17799 2.36434,1.07726 2.98065,0.96187 5.00121,-0.93635 2.45077,-2.30238 5.15719,-2.81294 6.17566,-1.16502 0.33992,0.55 2.21526,1 4.16742,1 3.25143,0 3.49861,0.20234 2.94447,2.41024 -0.5774,2.30052 -0.29784,2.45801 6.14159,3.45984 14.70516,2.28781 31.705584,3.36305 37.996524,2.40321 2.31197,-0.35275 3.25,-1.02792 3.25,-2.33927 0,-1.36451 0.9742,-1.98802 3.75,-2.40011 2.0625,-0.30619 5.72304,-1.01605 8.13453,-1.57745 5.26385,-1.22546 6.0513,-0.79966 2.64668,1.43113 -1.39217,0.91219 -2.53121,2.38066 -2.53121,3.26327 0,1.32769 0.73378,1.48764 4.25,0.92641 2.3375,-0.3731 5.15,-1.27916 6.25,-2.01348 2.7108,-1.80964 13.51132,-21.56013 15.27343,-27.92991 0.78111,-2.82364 1.56145,-8.28388 1.73408,-12.13388 0.42328,-9.4397 0.35278,-9.04379 1.41554,-7.95 0.50768,0.5225 1.07018,2.3 1.25,3.95 0.1995,1.83056 0.90228,3 1.80287,3 0.81175,0 1.89248,-1.35 2.40162,-3 0.50914,-1.65 2.43383,-7.05 4.27708,-12 1.84326,-4.95 3.35003,-9.76094 3.34838,-10.69098 -0.005,-2.5869 -1.83105,-3.15171 -4.51179,-1.39522 -3.25312,2.13153 -4.04819,2.02589 -8.11847,-1.07867 l -3.49382,-2.66486 3.14774,-1.32353 c 5.21722,-2.19367 5.74132,-1.74443 -20.52666,-17.59466 -12.79477,-7.72044 -45.616784,-23.92125 -47.218214,-23.30671 -0.6722,0.25794 -1.50982,1.615 -1.86137,3.01567 -0.52069,2.0746 -1.68479,2.83765 -6.2798,4.11632 -16.47304,4.58401 -37.19185,12.44004 -40.64062,15.40986 -3.18828,2.74551 -21.12861,12.05084 -21.84752,11.33192 -1.850026,-1.85002 -0.0459,-4.20015 6.01821,-7.8397 3.66888,-2.20197 6.85757,-4.56423 7.08598,-5.24945 0.47353,-1.42059 -1.36588,-0.83959 -10.34535,3.26771 -3.00882,1.37626 -5.693926,2.5023 -5.966906,2.5023 -0.27297,0 -0.44892,-11.5309 -0.39101,-25.62422 l 0.1053,-25.62422 1.93275,2.87422 c 9.390606,13.96492 9.162826,13.49981 8.205916,16.75563 -0.76552,2.60465 -1.35699,3.07162 -3.58903,2.83355 -2.0538,-0.21905 -2.5361,0.0703 -2.08341,1.25 0.37187,0.96908 1.85943,1.53504 4.03465,1.53504 6.1789,0 26.34731,-5.0463 46.61105,-11.66247 12.47923,-4.0745 11.4931,-2.8927 17.69013,-21.20009 3.93801,-11.63374 4.11683,-12.64551 3.03324,-17.16244 -0.63331,-2.63993 -2.23283,-6.26557 -3.55448,-8.05697 -1.70471,-2.31061 -2.10682,-3.61398 -1.38375,-4.48523 0.71953,-0.86697 -0.0562,-3.83134 -2.63788,-10.08046 -5.9755,-14.46411 -9.2366,-20.35234 -11.27177,-20.35234 -1.84948,0 -4.67293,-4.45777 -4.27529,-6.75 0.11926,-0.6875 -0.23535,-1.25 -0.78804,-1.25 -1.52456,0 -5.08279,-4.16665 -5.08279,-5.95191 0,-2.00227 -5.88777,-10.78201 -9.96417,-14.85842 l -3.11873,-3.11873 7.54145,0.0394 c 5.63071,0.0294 7.54145,0.38012 7.54145,1.38425 0,2.57019 14.01492,28.67713 18.69381,34.82277 6.23224,8.18592 18.30151,20.68267 19.97519,20.68267 0.73479,0 1.331004,-1.06501 1.331004,-2.37756 0,-2.29465 1.29736,-3.89201 4.94086,-6.0834 6.86946,-4.13164 12.99213,-8.78783 14.41886,-10.96528 1.26508,-1.93076 2.5369,-2.57376 5.09075,-2.57376 4.01826,0 7.54953,-3.71755 7.54953,-7.94777 0,-3.12246 3.33581,-6.54442 10.25,-10.51471 2.6125,-1.50016 4.75,-3.06504 4.75,-3.47751 0,-0.41247 1.78563,-3.51266 3.96807,-6.88932 l 3.96806,-6.13937 17.07562,0.0226 17.07563,0.0226 -5.14418,3.46177 c -2.8293,1.90398 -5.71128,3.46177 -6.4044,3.46177 -0.69312,0 -6.07332,3.16693 -11.95599,7.03762 -8.54758,5.62416 -10.63422,7.45413 -10.38929,9.11138 0.23961,1.62132 -0.89345,2.70741 -5.19352,4.97824 -3.025,1.59746 -7.45041,5.03484 -9.83425,7.63861 -2.38383,2.60379 -7.33383,7.90894 -11,11.78922 -8.77701,9.28966 -15.96318,17.73302 -20.59237,24.19493 -2.06854,2.88751 -4.11418,5.25 -4.54587,5.25 -1.04927,0 -2.56276,4.25413 -3.9803,11.18786 -1.231864,6.0255 -0.24483,9.74339 3.38685,12.75743 0.86127,0.71478 1.56594,2.14832 1.56594,3.18564 0,1.642 -0.26273,1.72319 -2.03051,0.62755 -1.67894,-1.04057 -2.19573,-0.99875 -2.98469,0.24153 -1.135744,1.78543 -1.244454,5.06044 -0.21949,6.61254 1.03373,1.56538 28.00512,17.16249 38.33689,22.16959 18.00048,8.72358 33.60596,15.21788 36.56789,15.21788 0.78758,0 2.09004,-1.57501 2.89436,-3.5 1.64301,-3.9323 4.43141,-4.59207 8.21304,-1.94331 1.65775,1.16114 2.22251,2.55873 2.22251,5.5 0,5.1971 1.71718,5.15213 8.84804,-0.23172 6.61439,-4.99392 32.11537,-26.81625 33.93155,-29.03675 1.06815,-1.30595 0.88291,-2.03735 -1.12103,-4.42634 -2.16412,-2.57995 -2.32433,-3.4037 -1.62628,-8.36188 0.94942,-6.74365 2.64568,-11.31708 3.90807,-10.53688 0.51925,0.32092 1.24702,2.60353 1.61726,5.07248 0.37024,2.46894 1.02909,4.70895 1.4641,4.97781 0.43502,0.26885 1.8028,-3.7084 3.03951,-8.83835 l 2.24856,-9.32717 -2.25851,-9.14041 c -2.24214,-9.07414 -2.24508,-9.18234 -0.40489,-14.92395 1.01949,-3.18095 1.84498,-8.59604 1.83441,-12.03354 -0.0106,-3.4375 0.34277,-6.25 0.78519,-6.25 0.44241,0 1.91542,0.72798 3.27336,1.61773 2.44887,1.60456 2.4852,1.58103 4.46313,-2.89042 1.16637,-2.63677 2.0884,-7.14807 2.22116,-10.86773 0.20272,-5.67942 -0.12712,-6.92107 -3.08409,-11.60958 -3.58043,-5.67705 -5.71604,-6.48043 -8.63954,-3.25 -0.99549,1.1 -2.14747,2 -2.55997,2 -0.41249,0 -1.91807,-1.99318 -3.34572,-4.42928 -3.84218,-6.55618 -5.43831,-7.85192 -8.83536,-7.17251 -2.84368,0.56874 -2.89585,0.50488 -2.17153,-2.65774 0.40819,-1.78226 0.69722,-4.01132 0.6423,-4.95348 -0.0918,-1.57486 1.68915,-1.69582 22.08522,-1.5 13.48989,0.12953 22.24584,0.59569 22.34013,1.1894 0.2018,1.27063 7.19723,4.35393 10.09493,4.44945 3.4328,0.11315 2.70072,1.67568 -2,4.26875 -4.99264,2.75409 -5.42949,4.84197 -1.25,5.97427 5.29664,1.43496 38.53557,6.83114 42.07788,6.83114 4.73118,0 4.27927,-1.50723 -1.06369,-3.54773 -4.66197,-1.78042 -9.00457,-5.35958 -5.00635,-4.12623 9.85119,3.03887 16.46465,3.8919 32.77167,4.22703 9.77874,0.20096 18.10374,0.54651 18.5,0.7679 0.39627,0.22138 2.0427,0.71956 3.65872,1.10707 1.61603,0.3875 3.44355,1.39561 4.06116,2.24024 0.97179,1.329 2.06235,0.92799 8.10251,-2.97937 3.83877,-2.48329 11.79997,-8.14408 17.69154,-12.57953 l 10.71195,-8.06445 47.49731,-0.005 47.4973,-0.005 0,3.81349 c 0,4.0145 -0.44444,4.42791 -7.67814,7.14209 -1.74798,0.65586 -3.42299,1.83053 -3.72225,2.61037 -0.73878,1.92523 3.83503,23.25144 7.66411,35.73529 3.11009,10.13972 3.11825,10.22734 3.45906,37.14243 0.18789,14.8383 -0.0417,28.7883 -0.51015,31 -0.47112,2.22418 -0.46836,5.49056 0.006,7.30905 0.47188,1.80828 0.72818,7.20828 0.56957,12 l -0.2882,8.71222 -3.12984,-6 c -2.89471,-5.54925 -3.1011,-6.601 -2.74728,-14 0.21041,-4.4 0.77844,-10.45303 1.2623,-13.45117 1.25016,-7.7465 0.67285,-13.40985 -1.76987,-17.36226 -1.16342,-1.88245 -2.11531,-4.8611 -2.11531,-6.61922 0,-1.75812 -0.97696,-5.4676 -2.17103,-8.24328 -1.74593,-4.05853 -1.94174,-5.41386 -1,-6.92182 1.75346,-2.80773 1.49122,-3.64873 -2.32897,-7.46892 -1.925,-1.925 -3.50251,-4.2725 -3.50558,-5.21666 -0.012,-3.6852 -2.15655,-9.14568 -4.99442,-12.71668 -1.63477,-2.05709 -3.40198,-5.29634 -3.92715,-7.19833 -0.52517,-1.902 -2.1064,-4.96794 -3.51385,-6.8132 -2.92777,-3.83851 -3.19343,-5.71705 -1.059,-7.48847 1.98925,-1.65093 1.89417,-3.21297 -0.53999,-8.87132 -1.95106,-4.53535 -2.4197,-4.90122 -10.75,-8.39244 -17.46304,-7.31874 -20.37911,-8.18546 -21.4003,-6.36069 -0.59502,1.06323 -2.24734,1.62445 -4.78267,1.62445 -2.59259,0 -4.80839,0.77522 -6.70031,2.34416 -1.5547,1.2893 -8.00173,5.75284 -14.32673,9.91899 -20.23863,13.33079 -23.92909,16.34111 -23.86896,19.47 0.0292,1.52176 -0.27548,5.57601 -0.67715,9.00945 -0.43715,3.73659 -0.27734,8.5538 0.3981,12 0.62063,3.16657 1.36595,7.51143 1.65626,9.65523 0.29032,2.14381 0.71406,4.8438 0.94164,6 0.22759,1.1562 1.13605,6.15218 2.01881,11.10217 2.45107,13.74418 4.79595,23.54553 5.77829,24.15265 0.48735,0.30119 1.499,-0.28494 2.24812,-1.30251 1.51079,-2.05218 1.22342,-2.45087 3.99362,5.54089 1.13332,3.26954 1.23671,4.73487 0.40479,5.73727 -1.87517,2.25945 -0.39875,3.86208 7.14151,7.75197 7.22126,3.72532 9.96497,4.04227 9.96497,1.15111 0,-0.84226 0.17586,-1.53138 0.3908,-1.53138 1.80493,0 8.83024,4.28611 11.88673,7.25203 2.98347,2.89506 6.1139,4.4209 14.89205,7.25868 12.75763,4.12428 18.13893,4.33758 18.64997,0.73929 0.21223,-1.49433 1.00528,-2.25 2.36129,-2.25 1.7758,0 1.9596,0.43786 1.41112,3.36151 -0.41256,2.19914 -0.1917,3.69645 0.63871,4.33014 1.32865,1.01389 23.62279,5.31686 27.51933,5.31146 l 2.25,-0.003 0,63.05902 c 0,41.78471 -0.33737,62.85051 -1,62.44098 -0.55,-0.33992 -1,-1.19116 -1,-1.89165 0,-2.07726 -7.8482,-7.7584 -12.75988,-9.2366 -9.4251,-2.83654 -8.85232,-3.17471 -28.83843,17.02654 -10.0113,10.11907 -18.50303,19.34565 -18.87053,20.50353 -0.67916,2.13984 0.88051,13.56296 4.62062,33.84162 l 2.07369,11.24344 10.63727,6.42797 c 5.85049,3.53538 11.83343,7.36333 13.29542,8.50652 3.59817,2.8137 5.38343,2.6177 7.96528,-0.87447 1.81277,-2.45189 2.51288,-2.77672 4.12508,-1.9139 1.55597,0.83274 1.8173,1.70261 1.31533,4.37837 -0.55273,2.9463 -0.2404,3.6286 2.65486,5.7997 4.52964,3.3966 11.29324,6.6889 13.74145,6.6889 1.84643,0 2.03984,0.6239 2.03984,6.5795 l 0,6.57941 -2.75,-0.5466 c -1.5125,-0.3006 -5.675,-1.0171 -9.25,-1.592 -3.575,-0.57501 -7.9625,-1.28511 -9.75,-1.5781 -3.67314,-0.6022 -4.26418,0.7797 -1.59501,3.7291 1.57689,1.7424 1.45891,1.8358 -2.5,1.97869 -2.28525,0.082 -4.65844,0.195 -5.27376,0.25 -0.61532,0.055 -1.62782,-1.47499 -2.25,-3.4 l -1.13123,-3.5 -11.13087,-0.2816 c -8.48039,-0.2146 -11.25103,0.031 -11.6355,1.0334 -0.27755,0.72331 -0.0645,3.87 0.47356,6.9928 0.91557,5.3142 0.74798,6.2724 -2.6175,14.9666 -2.42468,6.2637 -3.59209,10.9172 -3.58462,14.2888 0.0286,12.916 6.95306,53.41691 10.64814,62.28061 0.42111,1.0102 -2.17301,1.2213 -12.28474,1 l -12.81859,-0.2806 -1.22054,-12.2283 c -1.87059,-18.7409 -5.09042,-35.53361 -7.11359,-37.10021 -2.88176,-2.2313 -10.22031,-0.8675 -13.05309,2.4258 -2.28511,2.6566 -2.46964,2.7034 -3.75097,0.9511 -1.7057,-2.3327 -0.97003,-3.5484 2.14733,-3.5484 1.45866,0 2.44098,-0.5799 2.44098,-1.4409 0,-1.9711 -0.58881,-2.1973 -7.75,-2.9775 -5.13467,-0.5594 -6.25,-0.4192 -6.25,0.7854 0,0.8065 1.2375,1.9183 2.75,2.4708 2.54321,0.9288 2.39804,1.0103 -1.93045,1.0833 -4.11219,0.069 -4.71924,-0.1926 -5,-2.1576 -0.39556,-2.7686 -3.91539,-3.4816 -18.97306,-3.8433 -9.02476,-0.21689 -10.92039,0.011 -12.39908,1.48961 -1.01484,1.01479 -2.58295,1.52649 -3.74594,1.2224 -2.91175,-0.7614 -18.6167,1.3236 -22.67805,3.0108 -2.2921,0.9523 -5.18809,1.2475 -8.5,0.8665 -4.32821,-0.4978 -7.23773,0.1755 -21.02342,4.8651 -12.95627,4.4074 -16.27904,5.9227 -17.46683,7.9658 -1.32588,2.2805 -1.28696,2.7217 0.40498,4.5913 1.68184,1.8584 1.70158,2.0683 0.19449,2.0683 -4.3728,0 -14.63264,13.1391 -14.63264,18.739 0,1.1592 -1.04841,3.3796 -2.32981,4.9343 -1.28139,1.5547 -2.61727,3.6142 -2.96861,4.5767 -0.35135,0.9625 -1.55675,1.75 -2.67867,1.75 -1.60016,0 -1.85647,-0.3772 -1.18908,-1.75 0.46792,-0.9625 1.93423,-3.9866 3.25847,-6.7202 1.32423,-2.7336 4.2077,-7.1652 6.4077,-9.848 9.25512,-11.2861 10.5,-13.0428 10.5,-14.8175 0,-3.0272 -2.86112,-2.2312 -13.5067,3.7576 -13.64183,7.6745 -24.4933,15.3014 -24.4933,17.2152 0,1.9117 7.882,10.1629 9.70821,10.1629 0.71048,0 1.29179,0.4473 1.29179,0.994 0,0.6423 -13.96945,0.9815 -39.49625,0.9589 l -39.49624,-0.035 1.59106,-3.7089 c 0.87508,-2.0399 3.1729,-7.7577 5.10626,-12.7061 3.98129,-10.1901 4.02045,-13.8334 0.25894,-24.08831 -3.59397,-9.79819 -3.59104,-10.0391 0.13134,-10.7835 3.38331,-0.6767 6.90489,-3.1936 6.90489,-4.93499 0,-0.92651 -27.86986,-0.1595 -28.82263,0.7933 -0.20864,0.20859 0.7911,1.9138 2.22164,3.78939 1.43055,1.87551 2.60099,3.8689 2.60099,4.4297 0,0.5609 -2.10586,1.3084 -4.67969,1.6612 -3.77989,0.518 -5.07778,0.2795 -6.75,-1.2406 -4.79808,-4.3615 -10.55939,-7.1289 -14.80044,-7.1092 -8.24936,0.038 -30.53126,3.9786 -33.75106,5.9685 -1.218634,0.7532 -1.153334,1.2055 0.42594,2.9506 1.80092,1.99 1.80282,2.13 0.0553,4.0611 -0.995494,1.1 -2.688394,2.00001 -3.762024,2.00001 -4.07403,0 -14.69077,6.2063 -22.84553,13.355 -9.11071,7.9867 -19.54608,19.6037 -20.96715,23.3414 -0.81369,2.1402 -1.44401,2.3035 -8.88825,2.3035 l -8.01245,0 6.34975,-8.25 z M 353.98906,975.7667 c 10.69889,-2.41509 24.08538,-6.19969 28.25469,-7.9882 3.55293,-1.52399 3.62968,-1.65139 1.4942,-2.47959 -1.23812,-0.4802 -2.98702,-0.5907 -3.88645,-0.2456 -1.12723,0.4326 -1.48494,0.1897 -1.15127,-0.7818 0.51093,-1.4876 2.18315,-1.5566 10.28883,-0.4245 4.48148,0.6259 5.75555,0.3226 12.28573,-2.9246 4.66129,-2.3179 7.69202,-4.5147 8.41365,-6.09851 1.02535,-2.25039 1.28176,-2.33629 2.81965,-0.9445 0.93999,0.8507 2.43489,1.2458 3.36413,0.8892 2.96061,-1.13609 3.61304,-3.7687 2.14383,-8.65049 -0.75517,-2.5093 -1.23435,-6.9684 -1.06483,-9.9091 0.16951,-2.9408 0.35987,-8.19681 0.42302,-11.6802 0.13159,-7.2582 1.39983,-7.76711 4.61482,-1.8519 2.6318,4.8423 4.18959,4.6562 4.72912,-0.5648 0.59094,-5.7184 0.28075,-6.28061 -4.20693,-7.62517 -3.40959,-1.02153 -4.05337,-1.727 -5.37734,-5.89264 -0.82721,-2.60269 -1.78964,-6.30716 -2.13872,-8.23216 -0.34909,-1.925 -1.79313,-7.24211 -3.20898,-11.81581 -2.22427,-7.18513 -2.41948,-8.83251 -1.43572,-12.11602 0.62621,-2.09011 1.13857,-4.0855 1.13857,-4.43419 0,-1.38436 -2.2801,-0.47447 -7.0732,2.8226 -4.31387,2.96742 -5.39972,3.31411 -7.67296,2.44983 -1.45639,-0.55372 -5.65832,-1.18013 -9.33762,-1.39204 -3.6793,-0.2119 -9.32812,-0.85999 -12.55293,-1.44019 -7.29096,-1.31177 -18.91923,-0.77825 -28.53494,1.30922 -4.03059,0.875 -12.05335,2.53974 -17.82835,3.69941 -5.775,1.15968 -12.01746,2.74046 -13.87212,3.51285 -1.85467,0.77239 -5.60033,1.40434 -8.32369,1.40434 -5.98353,0 -18.0229,3.8771 -26.58861,8.56248 -3.45644,1.89063 -6.88884,3.43752 -7.62756,3.43752 -2.23572,0 -3.84149,2.79745 -4.08521,7.11694 -0.16754,2.9693 -0.92627,4.6795 -2.76708,6.23706 -3.01693,2.55273 -7.46724,9.28726 -14.09087,21.32346 -3.87217,7.0363 -5.59308,9.1745 -8.5,10.5609 -2.00467,0.9562 -6.22003,3.9521 -9.36747,6.6576 -3.14744,2.7055 -6.2659,5.1002 -6.92991,5.3216 -3.18893,1.0629 1.09951,3.9011 12.80884,8.477 27.27509,10.65901 28.67009,10.8895 30.74186,5.07941 0.72407,-2.03061 0.38483,-3.19191 -1.75,-5.99081 -3.25064,-4.26179 -3.59643,-6.94949 -0.53884,-4.1881 1.16014,1.0477 3.38462,4.4291 4.9433,7.51411 3.15526,6.2451 7.93091,9.4138 13.05453,8.6618 1.88388,-0.2765 2.89283,0.015 2.89283,0.8349 0,1.7252 1.74437,2.1162 15,3.3618 23.13352,2.1739 35.66269,1.7861 50.5,-1.56311 z m 53,-30.4045 c -0.33992,-0.55 -0.14148,-1 0.44098,-1 0.58246,0 1.05902,0.45 1.05902,1 0,0.55 -0.19844,1 -0.44098,1 -0.24254,0 -0.7191,-0.45 -1.05902,-1 z m -290.62505,21.543 c 3.09378,-1.3514 11.8652,-4.704 19.49205,-7.4504 7.62685,-2.7463 13.98794,-5.1282 14.13576,-5.293 0.14782,-0.1648 0.55783,-2.0996 0.91113,-4.2996 0.57796,-3.5989 0.11305,-4.878 -4.63575,-12.7542 -6.65988,-11.0458 -12.44184,-18.9453 -19.11574,-26.11644 -4.5468,-4.88558 -5.7291,-5.62941 -8.94786,-5.62941 -3.23786,0 -3.8755,0.40853 -5.0216,3.2173 l -1.31279,3.21729 -1.54237,-4.68503 c -0.84831,-2.57676 -1.13326,-4.43218 -0.63324,-4.12315 1.50729,0.93156 5.79546,-0.56678 5.79546,-2.02499 0,-2.817 -22.010474,-18.67295 -24.879424,-17.92269 -1.23669,0.3234 -2.01319,-0.16008 -2.35474,-1.46614 -1.02269,-3.91078 -27.09345,-13.95997 -34.56473,-13.32327 -1.64446,0.14014 -5.1501,7.75749 -5.17915,11.2537 -0.0121,1.45366 -0.65033,2.88414 -1.41834,3.17885 -2.47108,0.94825 -4.35134,24.70836 -2.18157,27.56767 1.58751,2.09201 3.40662,10.09831 2.43138,10.70102 -2.11099,1.3047 1.20992,17.1128 3.80412,18.1083 0.73834,0.2833 1.34245,1.62439 1.34245,2.9801 0,2.6391 3.99741,10.2949 7.41616,14.2034 2.06678,2.3628 10.93291,7.0891 13.33384,7.1079 0.6875,0.01 1.25,-0.6652 1.25,-1.4902 0,-0.825 -0.675,-1.5 -1.5,-1.5 -1.84109,0 -1.84109,-0.7794 0,-4 0.78602,-1.375 1.44507,-4.1875 1.46456,-6.25 0.0273,-2.8913 0.43621,-3.7501 1.78544,-3.7502 1.55564,-1e-4 1.71124,0.9341 1.401,8.4118 -0.39982,9.6371 -0.21811,9.8768 8.36758,11.0352 4.32231,0.5832 5.9819,0.245 11.9621,-2.4382 9.826114,-4.4087 15.271294,-9.1905 18.457074,-16.2087 2.44439,-5.3848 2.78731,-5.7215 4.53021,-4.447 1.81671,1.3284 1.82451,1.6264 0.21346,8.1549 -1.87031,7.579 -3.04657,9.4922 -5.83598,9.4922 -3.61798,0 -8.85551,2.7928 -8.33527,4.4447 0.26941,0.8554 0.70071,2.2303 0.95844,3.0553 0.63775,2.0413 1.86056,1.9021 8.40634,-0.957 z m 125.26518,-34.8487 c 1.1429,-2.1791 1.13599,-2.1811 -0.99462,-0.2894 -1.18003,1.0478 -2.14551,2.3118 -2.14551,2.8091 0,1.4077 1.86524,-0.089 3.14013,-2.5197 z m -38.48921,-2.1361 c 3.21699,-2.443 9.67408,-7.6114 14.34908,-11.4854 4.675,-3.87397 12.4375,-10.25444 17.25,-14.17883 4.8125,-3.92439 8.75,-7.71641 8.75,-8.42673 0,-0.72744 -1.74697,-1.58664 -4,-1.9673 -6.73386,-1.13768 -5.36602,-2.44596 4.14952,-3.96885 6.13494,-0.98185 6.61497,-2.72175 2.35282,-8.52796 l -3.70298,-5.04447 1.60032,-3.9996 c 0.88018,-2.19978 1.60032,-5.53893 1.60032,-7.42034 0,-4.00346 1.72325,-5.66139 2.42146,-2.32968 0.26405,1.26 0.76055,6.14322 1.10332,10.85162 0.62395,8.57067 1.67095,12.07688 3.16129,10.58655 0.43714,-0.43715 1.09048,-8.89049 1.45185,-18.78519 0.36138,-9.89471 0.91235,-18.24568 1.22438,-18.55772 0.77097,-0.77096 -1.19474,-4.30436 -2.39462,-4.30436 -0.52907,0 -1.56556,1.4625 -2.30331,3.25 -1.25419,3.03878 -1.33297,2.66511 -1.21222,-5.75 0.071,-4.95 -0.43563,-11.475 -1.12589,-14.5 -1.68941,-7.40367 -1.72962,-7.24749 1.67374,-6.5 3.69893,0.81242 3.76528,-0.0239 0.6104,-7.69465 -2.82968,-6.88006 -13.51511,-22.92712 -22.33513,-33.54225 -10.09443,-12.14892 -22.17846,-24.2631 -24.2027,-24.2631 -1.0134,0 -2.58132,1.12751 -3.48426,2.50556 -1.57112,2.39783 -1.74804,2.43589 -4.11501,0.88499 -2.85655,-1.87168 -3.08696,-3.52436 -0.94673,-6.79075 2.13317,-3.25563 0.46736,-7.15819 -3.95582,-9.26745 -4.37497,-2.08628 -4.52173,-1.97282 -14.21375,10.98874 -7.5103,10.04385 -8.50335,12.30179 -5.857,13.31728 2.23836,0.85894 1.88,1.80292 -2.35948,6.21538 -2.12272,2.20932 -4.81859,6.05735 -5.99082,8.55117 -1.29145,2.74744 -3.31049,5.14399 -5.12359,6.08158 -3.64639,1.88562 -6.23595,6.51652 -6.97377,12.47114 -0.46087,3.71946 -0.96634,4.55493 -3.05234,5.04509 -1.375,0.32309 -2.49267,1.01715 -2.4837,1.54235 0.22157,12.98326 6.33701,41.04866 14.15364,64.95492 6.89824,21.09744 8.3778,24.03062 12.86924,25.51293 2.06159,0.68039 4.78982,1.23707 6.06272,1.23707 2.53767,0 5.93272,3.07595 5.02182,4.54981 -0.31471,0.50921 -2.60879,1.49605 -5.09796,2.19298 -2.48917,0.69692 -4.52576,1.70168 -4.52576,2.2328 0,1.13602 3.95906,6.97026 5.39794,7.95463 0.54686,0.37413 1.82118,0.2377 2.83181,-0.30318 1.3293,-0.71142 3.55682,-0.38333 8.05388,1.18624 8.66048,3.02268 9.58981,4.34408 2.50387,3.56008 -4.99521,-0.5527 -5.84232,-0.3894 -6.74641,1.2999 -0.82616,1.5437 -0.496,2.5994 1.64323,5.2543 4.12493,5.1192 8.63197,9.8224 9.41276,9.8224 0.38761,0 3.33684,-1.9987 6.55384,-4.4417 z m -71.99454,-53.55825 c 2.20085,0 3.6238,-0.56658 4.02072,-1.60092 0.77189,-2.01151 -1.51264,-3.57446 -4.27864,-2.92724 -3.01092,0.70453 -3.79274,-0.59084 -1.15139,-1.9077 1.22937,-0.6129 2.39538,-2.00307 2.59114,-3.08926 0.55288,-3.06776 2.00758,-4.05368 2.79173,-1.8921 1.04013,2.86719 4.37612,7.41722 5.43815,7.41722 3.26455,0 -5.02108,-56.35299 -8.84836,-60.18027 -1.55872,-1.55872 -27.93213,-7.75131 -40.042094,-9.40205 -11.36089,-1.54863 -40.21547,-2.13037 -42.28315,-0.85247 -0.60421,0.37342 -0.28258,1.18148 0.79567,1.99899 1.71016,1.29662 1.68917,1.37394 -0.38114,1.404 -1.20504,0.0175 -2.43424,-0.36179 -2.73154,-0.84284 -0.86924,-1.40646 -11.63991,-1.98725 -17.07748,-0.92087 -2.75,0.53931 -6.0125,1.1725 -7.25,1.40709 -3.02387,0.57322 -2.88706,3.02734 0.59714,10.71158 1.73269,3.82136 4.37484,7.58042 6.75,9.60342 2.14657,1.8283 3.33718,3.01424 2.6458,2.63542 -3.39309,-1.85912 -1.82521,3.16258 3.77792,12.10021 6.66382,10.62956 10.76581,15.58767 12.17538,14.71651 0.48961,-0.3026 2.41572,0.6134 4.28025,2.03555 1.86454,1.42215 4.02319,2.58573 4.79702,2.58573 0.77382,0 3.84135,1.33576 6.81672,2.96835 2.97537,1.63259 7.32755,3.25948 9.67149,3.6153 2.34395,0.35582 5.26895,1.43144 6.5,2.39026 5.86538,4.5683 16.82587,7.00697 31.647284,7.0414 3.62505,0.008 7.266,0.47063 8.091,1.02714 0.825,0.5565 2.79375,0.77461 4.375,0.48468 1.58125,-0.28992 4.40787,-0.52713 6.28138,-0.52713 z m -12.65638,-4 c 0,-0.55 1.6875,-0.99311 3.75,-0.98469 2.78938,0.0114 3.36575,0.26364 2.25,0.98469 -1.97089,1.27369 -6,1.27369 -6,0 z m 278.05597,-1.84424 c 3.39809,-2.75161 1.98406,-5.62534 -2.32137,-4.71772 -1.77903,0.37503 -9.7596,1.06765 -17.7346,1.53916 -7.975,0.47151 -15.76458,1.34369 -17.31017,1.93817 -5.89432,2.26714 -1.45301,3.08463 16.7584,3.08463 16.3242,0 18.57945,-0.20183 20.60774,-1.84424 z m -116.38445,-8.59313 1.63917,-3.43737 2.0189,2.56662 c 1.94319,2.47036 2.30325,2.5429 9.60166,1.93422 13.10419,-1.09285 31.70256,-5.41259 38.99735,-9.05768 2.67951,-1.33893 7.37578,-2.53544 11.34767,-2.89117 8.32947,-0.74601 13.76072,-3.09992 20.04701,-8.68837 l 4.82328,-4.28786 -0.66702,-5.10051 c -0.36686,-2.80528 -1.29984,-6.40715 -2.07328,-8.00415 -1.96141,-4.04991 -1.79571,-4.59636 1.39374,-4.59636 5.59786,0 5.57399,-1.62509 -0.18271,-12.43741 -8.88255,-16.68335 -8.69725,-16.43632 -12.57747,-16.76665 -2.98505,-0.25411 -3.61088,-0.76775 -4.42809,-3.63427 -0.52344,-1.83609 -2.11272,-4.0624 -3.53172,-4.94735 -1.41901,-0.88496 -2.72369,-1.70138 -2.8993,-1.81429 -0.17561,-0.11291 0.22772,-1.08118 0.89629,-2.15173 0.69734,-1.11662 0.93192,-3.07662 0.55024,-4.59738 -0.61422,-2.44724 -1.06728,-2.65008 -5.89629,-2.63992 -8.5067,0.0179 -12.93687,1.06042 -13.4897,3.17444 -0.45043,1.72247 -0.68446,1.75417 -2.78568,0.3774 -2.03133,-1.33098 -2.86274,-1.33413 -7.26263,-0.0275 -5.69268,1.69055 -16.44996,6.30866 -17.19294,7.38096 -0.275,0.39689 -2.53946,1.69577 -5.03214,2.8864 -5.23622,2.50108 -15.96786,11.71519 -15.96786,13.70989 0,0.74394 -0.90687,1.64045 -2.01526,1.99224 -1.10839,0.35179 -4.48339,3.69438 -7.5,7.42798 -8.26312,10.22711 -8.08364,11.79726 5.72325,50.06718 3.07599,8.52602 3.88422,8.97151 6.46353,3.56263 z m 98.86366,-18.17764 c 3.18865,-2.08928 3.19062,-4.38499 0.004,-4.38499 -2.29695,0 -6.53896,3.36597 -6.53896,5.18856 0,1.38009 3.94233,0.89534 6.53518,-0.80357 z m 56.78448,-17.49742 c 8.00954,-6.50098 9.09597,-8.21922 10.67786,-16.88757 1.5666,-8.58453 7.72831,-12.39127 6.37684,-3.93964 -0.51863,3.24329 -0.33956,3.93964 1.01308,3.93964 2.00962,0 25.23423,-22.36771 27.22817,-26.22356 1.37804,-2.66484 1.27504,-2.93975 -2.72878,-7.2834 l -4.16087,-4.514 0.68855,-6.73952 c 0.3787,-3.70674 1.41407,-7.86452 2.30083,-9.23952 4.93562,-7.6532 5.18592,-6.45438 -2.37528,-11.37658 -6.93931,-4.51736 -11.55508,-9.52623 -7.68724,-8.34191 1.01595,0.31108 5.3334,2.04128 9.59434,3.84488 5.7004,2.41292 8.04193,2.98452 8.86287,2.16358 0.61364,-0.61364 0.80443,-1.61936 0.42398,-2.23494 -1.02026,-1.65082 -25.28351,-20.86642 -33.50783,-26.53698 -6.9269,-4.776 -7.18383,-4.86282 -10.66533,-3.60389 -3.44379,1.24529 -3.69385,1.171 -7.21415,-2.14313 -4.9334,-4.64448 -13.97721,-10.37377 -17.6467,-11.17927 -1.65,-0.36219 -4.8481,-1.88101 -7.10689,-3.37515 -2.25879,-1.49413 -6.00441,-3.98066 -8.3236,-5.52562 l -4.21672,-2.80901 -7.67259,4.32919 c -4.95307,2.79473 -8.14723,5.31949 -9.01169,7.12313 -0.73651,1.53666 -2.08822,3.07657 -3.00381,3.42201 -2.35401,0.88816 -15.85517,10.84826 -20.89236,15.41275 -2.32521,2.10702 -4.66435,3.83094 -5.19808,3.83094 -0.53374,0 -3.69379,2.26641 -7.02234,5.03646 -4.06429,3.38233 -6.05169,5.76344 -6.05121,7.25 0.002,5.25518 5.30006,21.45831 8.73523,26.71354 4.61545,7.06086 17.20878,22.52886 25.64584,31.5 l 6.58327,7 2.15818,-2.5 2.15817,-2.5 -0.70429,3.84746 c -0.67607,3.69324 -0.49131,4.0457 4.60929,8.79283 2.92248,2.71995 9.77387,8.58868 15.2253,13.04164 9.22117,7.53221 10.00494,7.96876 11.25,6.26604 0.73607,-1.00663 1.3383,-4.17709 1.3383,-7.04548 0,-4.76615 0.17662,-5.16906 2.051,-4.6789 1.12805,0.29499 3.89286,3.24861 6.14403,6.56361 3.78811,5.57823 4.00781,6.26296 2.949,9.19103 -2.69551,7.45431 -0.56743,7.31732 9.17563,-0.59066 z M 256.63745,790.89074 c 2.42521,-2.04068 3.9318,-2.45117 8.64436,-2.35527 14.00886,0.28506 24.96878,-2.99693 31.72287,-9.49953 1.8131,-1.74559 5.1947,-4.2988 7.51468,-5.6738 2.42065,-1.43467 4.63302,-3.67187 5.19174,-5.25 0.57908,-1.63562 1.7109,-2.75 2.79304,-2.75 2.40798,0 10.11493,-11.44812 9.28522,-13.79252 -0.33236,-0.93911 -1.21188,-2.41899 -1.95448,-3.28863 -0.7426,-0.86963 -1.0492,-1.88212 -0.68134,-2.25 1.11876,-1.11875 2.33552,-0.74954 2.33552,0.70871 0,2.44386 2.45692,3.74004 4.39838,2.32042 2.59798,-1.89969 3.1205,-8.61969 1.13504,-14.59735 -2.08763,-6.28527 -4.96005,-8.41769 -24.87397,-18.46592 -21.35064,-10.77318 -26.35495,-12.96554 -28.08234,-12.30266 -2.36972,0.90934 -1.89835,3.20056 0.92289,4.48601 1.375,0.62649 2.5,1.55153 2.5,2.05565 0,0.90203 -10.38426,-1.93862 -13.83197,-3.78377 -1.94594,-1.04145 -20.72211,-4.02903 -23.62682,-3.75942 -3.14239,0.29168 -2.80561,-2.11354 0.39435,-2.81636 1.67283,-0.36741 3.31045,-1.10319 3.63917,-1.63506 0.93005,-1.50486 -2.40443,-5.87909 -4.48164,-5.87909 -1.78084,0 -20.73322,15.76042 -22.39278,18.62139 -0.79867,1.37685 -0.68422,1.51851 1.41676,1.75361 2.22602,0.24909 10.05867,11.35293 9.71454,13.77167 -0.29287,2.05849 -0.71285,1.74801 -3.59537,-2.65797 -5.67173,-8.66933 -8.01967,-11.10527 -9.38657,-9.73837 -0.88017,0.88017 -0.92451,1.82707 -0.16294,3.47946 0.57548,1.24862 2.9931,8.28011 5.37249,15.62554 2.3794,7.34543 4.90289,13.57664 5.60778,13.84713 0.70488,0.27049 2.06456,-0.29117 3.02152,-1.24812 1.65321,-1.65322 1.7812,-1.58057 2.56854,1.45789 0.69792,2.69337 0.46696,3.49694 -1.46421,5.09421 l -2.29285,1.89641 6.75593,13.29858 c 3.71576,7.31421 8.54182,16.11107 10.72458,19.54857 4.49504,7.07897 6.45679,7.74271 11.16788,3.77859 z m 73.67657,-81.75355 c 0.96661,-0.96661 1.64306,-0.96385 3.2074,0.0131 1.66807,1.04172 2.77986,0.83397 7.01094,-1.31009 2.76568,-1.40148 6.75439,-4.10736 8.8638,-6.01309 2.10942,-1.90573 4.25322,-3.46496 4.76402,-3.46496 1.63004,0 13.20867,-8.88691 14.85774,-11.40371 0.87355,-1.3332 3.08612,-3.13477 4.91684,-4.00351 4.34335,-2.06105 9.5543,-6.96641 9.5543,-8.99399 0,-1.10977 0.91761,-1.59879 3,-1.59879 1.73816,0 2.99619,-0.52576 2.99094,-1.25 -0.0246,-3.39404 -5.25089,-23.611 -8.85397,-34.25 -5.65826,-16.70739 -16.41515,-40.31782 -19.13445,-41.99845 -1.6409,-1.01414 -8.75527,-1.42718 -33.22198,-1.92883 l -22.71946,-0.46583 -2.03054,2.58141 c -1.1168,1.41978 -2.03054,3.1465 -2.03054,3.83715 0,0.69066 -1.4625,1.4614 -3.25,1.71276 -1.7875,0.25136 -4.1012,0.82318 -5.14155,1.27071 -1.72801,0.74334 -1.82968,0.4839 -1.17595,-3.00083 l 0.71561,-3.81453 -8.49079,0.65266 c -4.66994,0.35895 -9.20326,0.92605 -10.07406,1.2602 -1.9836,0.76118 -2.03488,3.41422 -0.11506,5.95245 0.8075,1.06762 1.4825,3.62577 1.5,5.68478 0.0274,3.23063 -0.92434,4.82872 -6.94536,11.66156 -6.88072,7.80847 -7.01042,8.0608 -9.3836,18.25635 -3.6404,15.63976 -5.03015,26.6625 -3.58165,28.40783 1.73489,2.09042 2.94241,1.75028 2.94241,-0.82884 0,-1.2427 0.84599,-2.78779 1.87999,-3.43353 1.72393,-1.07661 1.93603,-0.75156 2.55518,3.91584 0.99549,7.50433 2.77723,10.11596 11.10119,16.27182 4.13552,3.05835 9.29469,7.16477 11.46484,9.12537 3.57322,3.22818 4.32209,3.50113 7.93254,2.89114 3.35387,-0.56664 4.52408,-0.26378 7.37093,1.90761 1.86126,1.41966 4.10623,2.5812 4.98883,2.5812 0.88259,0 2.82246,1.59655 4.31082,3.54788 3.33042,4.36641 5.6099,5.67113 11.39568,6.52263 6.98773,1.02838 7.51889,1.0106 8.82496,-0.29547 z M 11.48906,840.86215 c 0,-0.825 0.45,-1.5 1,-1.5 0.55,0 1,0.675 1,1.5 0,0.825 -0.45,1.5 -1,1.5 -0.55,0 -1,-0.675 -1,-1.5 z m 481.5,-1.5 c 0.33992,-0.55 1.26648,-1 2.05902,-1 0.79254,0 1.44098,0.45 1.44098,1 0,0.55 -0.92656,1 -2.05902,1 -1.13246,0 -1.7809,-0.45 -1.44098,-1 z M 24.739056,771.24338 c -1.7875,-0.51612 -3.25,-1.19932 -3.25,-1.51823 0,-0.81809 5.30321,0.58604 6.45,1.70776 1.08457,1.06087 1.14246,1.0643 -3.2,-0.18953 z M 11.48906,766.20716 c 0,-2.12942 0.0267,-2.13251 2.25,-0.26065 1.237496,1.04188 2.437496,2.01162 2.666666,2.15498 0.22916,0.14336 -0.78334,0.26066 -2.249996,0.26066 -2.06393,0 -2.66667,-0.48708 -2.66667,-2.15499 z m 485,-199.77851 c 0,-0.41609 0.94588,-1.61253 2.10195,-2.65876 2.08286,-1.88496 2.09876,-1.88038 1.75,0.50449 -0.31165,2.13118 -3.85195,4.11116 -3.85195,2.15427 z m -315,-2.10168 c 0,-1.73468 0.29945,-1.87493 2.02801,-0.94983 2.1634,1.15781 1.80406,2.98501 -0.58703,2.98501 -0.79254,0 -1.44098,-0.91583 -1.44098,-2.03519 z M 37.989056,554.36215 c -0.33992,-0.55 -0.14148,-1 0.44098,-1 0.58246,0 1.05902,0.45 1.05902,1 0,0.55 -0.19844,1 -0.44098,1 -0.24254,0 -0.7191,-0.45 -1.05902,-1 z"
         id="path3016"
         inkscape:connector-curvature="0" />
      <path
         style="fill:#c47900"
         d="m 38.264587,1037.6562 c 2.20735,-1.5383 14.585321,-18.0351 18.978661,-25.294 11.60105,-19.16781 12.7996,-23.13911 8.8176,-29.21641 -2.02346,-3.0882 -15.31843,-13.5642 -21.093861,-16.6213 -2.2,-1.1645 -4.7875,-2.7395 -5.75,-3.5 -1.8016,-1.4236 -2.4454,-5.6623 -0.86001,-5.6623 1.16836,0 10.90298,7.1412 24.860011,18.2371 7.3226,5.8214 11.25,9.6141 11.25,10.864 0,1.7601 -7.81641,15.23401 -13.95521,24.05601 -15.751621,22.6363 -20.801891,28.8897 -23.251151,28.7904 -0.7115,-0.029 -0.25972,-0.7729 1.00396,-1.6535 z m 12.838571,0.2117 c 0.31537,-0.8218 0.98359,-1.2407 1.48493,-0.9309 1.04858,0.6481 0.20682,2.4252 -1.14873,2.4252 -0.50028,0 -0.65157,-0.6724 -0.3362,-1.4943 z m 120.682562,-0.2557 c 0.30359,-0.9625 2.43564,-6.25 4.73787,-11.75 5.3367,-12.7493 5.55141,-19.4666 0.9374,-29.3265 -3.47426,-7.4243 -3.4195,-7.17351 -1.56585,-7.17351 1.21432,0 2.79787,3.2678 5.81515,12.00001 1.17886,3.4117 2.89049,-4.53921 2.22029,-10.31371 -0.62124,-5.35269 -0.50769,-5.862 1.41932,-6.3659 5.31708,-1.39049 -0.28292,-2.3204 -13.97331,-2.3204 -16.99172,0 -17.94793,0.4611 -13.37912,6.4511 3.74507,4.91 1.11223,4.5961 -4.06471,-0.4847 -3.35011,-3.2879 -4.51825,-3.88249 -6.3186,-3.2165 -2.19243,0.811 -2.18639,0.8383 0.82208,3.72061 4.40138,4.21679 3.71254,5.0376 -1.21925,1.4528 -7.69655,-5.5944 -10.01598,-6.1421 -20.71996,-4.89281 -16.42964,1.9176 -29.030042,5.3633 -29.030042,7.9386 0,0.5048 -3.01044,3.18441 -6.68986,5.9547 -3.67942,2.77031 -12.00442,10.02911 -18.5,16.13071 -6.49558,6.1016 -11.81014,10.6907 -11.81014,10.1978 0,-1.4141 11.85533,-15.307 23.16225,-27.14311 l 10.33775,-10.8216 11.500002,-2.0959 c 22.71323,-4.1394 49.98111,-7.4153 73.09411,-8.7813 l 11.59411,-0.6853 3.65589,6.0183 c 2.01074,3.31 3.65589,7.1491 3.65589,8.5312 0,5.0722 -16.31188,42.00281 -20.74858,46.97541 -0.85877,0.9625 -2.44413,1.75 -3.52304,1.75 -1.41185,0 -1.80693,-0.4905 -1.40965,-1.75 z m 67.18127,0.75 c 0.33992,-0.55 0.23158,-1 -0.24076,-1 -0.47234,0 -2.63524,-3.6436 -4.80645,-8.0969 l -3.94766,-8.0968 2.99743,-2.3925 c 4.00988,-3.2005 24.56832,-13.3158 38.18866,-18.78971 18.51876,-7.4426 40.38797,-13.2888 58.30878,-15.5876 4.675,-0.5997 11.77219,-1.5936 15.77153,-2.2086 7.78411,-1.19699 8.62643,-1.0286 7.64502,1.529 -0.50232,1.309 -2.0829,1.6473 -7.77354,1.6639 -3.92865,0.012 -10.06801,0.7308 -13.64301,1.5986 -3.575,0.8677 -9.875,1.6839 -14,1.8138 -6.07345,0.1912 -9.59227,1.0443 -18.5,4.4849 -6.05,2.3368 -12.35,4.7225 -14,5.3014 -1.65,0.5789 -4.125,2.06021 -5.5,3.29181 -1.375,1.2315 -3.06631,2.0315 -3.75846,1.7778 -2.50824,-0.9196 -32.00359,16.4755 -36.6595,21.6202 -1.88875,2.0871 -1.87594,2.1535 1.25487,6.5131 3.89789,5.4277 4.06927,7.5776 0.60407,7.5776 -1.45136,0 -2.2915,-0.4329 -1.94098,-1 z m 18.65769,-2.5427 c 1.14964,-1.9485 2.29264,-3.3403 2.54001,-3.0929 0.68771,0.6877 -2.61956,6.6356 -3.68965,6.6356 -0.51733,0 1e-5,-1.5942 1.14964,-3.5427 z m 165.47619,-5.0589 c -0.7139,-9.2876 -4.0929,-31.60601 -5.68919,-37.5773 -0.78974,-2.9542 -1.66974,-3.9053 -4.46754,-4.82861 -1.91624,-0.63249 -4.76081,-0.8695 -6.32127,-0.52669 -1.90264,0.4178 -3.23946,0.1384 -4.05843,-0.8484 -0.70839,-0.8535 -3.99422,-1.7684 -7.82463,-2.1786 -5.797,-0.6208 -6.77344,-0.47711 -7.99586,1.17699 -1.29738,1.7555 -1.4587,1.7674 -2.36237,0.17361 -1.32613,-2.3389 -7.09016,-3.7772 -15.16459,-3.7838 -4.43423,0 -6.75,-0.4019 -6.75,-1.1607 0,-2.4306 52.66313,1.4182 55.28538,4.0405 1.86498,1.865 9.14787,49.822 8.0146,52.7752 -1.19725,3.12 -2.0457,0.8089 -2.6661,-7.2622 z m 14.95411,6.8516 c -2.34816,-7.5154 -6.5383,-32.4216 -9.00646,-53.53451 l -1.49455,-12.7845 3.6173,-10.7155 c 1.98951,-5.8935 5.06023,-14.3155 6.82381,-18.7155 l 3.2065,-8.00001 4.88271,-0.32071 c 8.00785,-0.52597 42.84756,4.16887 51.06719,6.88162 3.07891,1.01611 4.59389,2.93911 2.31551,2.93911 -0.55,0 -1,-0.3899 -1,-0.8665 0,-0.4766 -4.94473,-1.436 -10.9883,-2.1322 -8.62573,-0.9935 -11.303,-1.00445 -12.45201,-0.051 -0.80925,0.67169 -2.3969,0.91859 -3.55078,0.5524 -1.84017,-0.584 -2.01047,-0.35721 -1.43958,1.9174 0.4043,1.6108 0.23118,2.5798 -0.46092,2.5798 -0.60963,0 -1.10841,-0.814 -1.10841,-1.8089 0,-4.21382 -2.02848,-5.0687 -13.72732,-5.78524 -9.17121,-0.56173 -11.29284,-0.43294 -11.58508,0.70324 -0.19677,0.76499 -1.30224,4.3081 -2.45661,7.8736 -1.15437,3.5655 -1.90634,6.6753 -1.67105,6.9106 0.23529,0.2353 1.33332,-0.3917 2.44006,-1.3933 1.10674,-1.0016 2.28568,-1.5477 2.61986,-1.2135 0.69228,0.6923 -5.18697,17.487 -6.80342,19.4347 -0.58373,0.7033 -1.90623,1.2788 -2.93888,1.2788 -2.04899,0 -2.30872,1.7576 -1.22704,8.3034 0.44445,2.6897 1.0363,3.647 2.02101,3.2691 2.01303,-0.7724 2.98067,2.5344 4.77306,16.3118 0.86524,6.6507 2.23752,14.9101 3.04951,18.354 1.89375,8.0321 1.87499,10.2497 -0.10343,12.2282 -1.01298,1.0129 -1.42171,2.5908 -1.103,4.258 0.27848,1.4568 0.27954,3.2398 0.002,3.9621 -0.72588,1.8916 -3.0606,1.6163 -3.70202,-0.4366 z M 95.466988,998.86219 c 3.49114,-1.9957 5.656292,-1.9957 4,0 -0.68469,0.825 -2.42729,1.48401 -3.87244,1.46451 l -2.62756,-0.035 2.5,-1.42911 z m 186.500002,-20.0235 c -18.76469,-2.0043 -47.59801,-8.6138 -62.77563,-14.3901 -4.53975,-1.7278 -4.33154,-3.5641 1.34391,-11.8531 12.87357,-18.80165 41.14835,-55.35775 47.19788,-61.0215 4.47987,-4.19419 50.46034,-17.60661 77.73384,-22.67483 14.10939,-2.62194 33.74257,-5.30136 47.5,-6.48252 7.15,-0.61387 14.66431,-1.28132 16.69846,-1.48322 2.03415,-0.20191 4.35695,0.14947 5.16178,0.78083 1.35781,1.06515 4.31585,9.40204 8.03579,22.64793 0.84953,3.025 2.44089,8.65 3.53635,12.5 5.02014,17.64337 5.24579,19.6283 3.20255,28.17146 -3.23272,13.5166 -8.31142,30.77075 -9.48244,32.21515 -2.5285,3.1189 -29.8124,12.5185 -48.15249,16.5891 -4.8598,1.0786 -1.63843,-0.9286 5.5,-3.4271 3.575,-1.2512 7.429,-3.1241 8.56445,-4.1618 1.15255,-1.0534 3.52675,-1.8868 5.37496,-1.8868 3.81452,0 14.50116,-4.4097 17.80977,-7.349 1.23705,-1.0989 3.37329,-2.0473 4.74719,-2.1075 1.3739,-0.06 3.2513,-0.8626 4.17201,-1.7833 1.43339,-1.4334 1.50566,-2.2359 0.50282,-5.5831 -0.64416,-2.15 -1.1712,-5.1248 -1.1712,-6.6105 0,-2.18454 0.35809,-2.58773 1.8716,-2.10736 1.52384,0.48365 2.0593,-0.14543 2.88175,-3.38563 0.86705,-3.41593 0.67719,-4.65915 -1.34033,-8.77664 -2.72826,-5.56799 -3.23324,-9.22259 -1.02061,-7.38627 0.76583,0.63558 1.94542,2.49068 2.62132,4.12245 2.25277,5.43865 4.98627,3.26959 4.98627,-3.95666 0,-3.51761 -0.25674,-3.83685 -3.98368,-4.95347 -4.60651,-1.38014 -5.82899,-3.20094 -6.60163,-9.83271 l -0.5581,-4.79032 2.18742,2.5 c 1.20308,1.375 2.8,3.37285 3.5487,4.43967 0.74871,1.06681 1.57627,1.72469 1.83902,1.46194 1.20388,-1.20389 -10.34796,-38.90161 -11.92075,-38.90161 -0.63237,0 -3.54496,1.78705 -6.47242,3.97123 -2.92746,2.18417 -5.70873,3.73262 -6.1806,3.44098 -1.25964,-0.7785 -1.24627,-0.79431 3.64204,-4.30483 2.475,-1.77741 4.5,-3.65369 4.5,-4.16952 0,-2.14515 -4.77128,-0.69486 -8.43165,2.56292 -2.16241,1.92457 -4.97491,3.49922 -6.25,3.49922 -3.38063,0 -2.85322,-0.80218 1.73422,-2.63771 3.17513,-1.27044 3.98705,-2.08061 3.75,-3.7419 -0.33969,-2.38053 1.66661,-2.3163 -22.62354,-0.72427 -12.3035,0.80639 -15.08139,1.31066 -19.71883,3.57955 -3.49728,1.71106 -8.31366,2.97238 -13.67903,3.58227 -8.43431,0.95876 -10.75124,1.39168 -23.52014,4.39481 -6.40733,1.50695 -10.52181,3.54725 -7.15338,3.54725 0.67413,0 0.91187,0.31381 0.52833,0.69735 -0.38355,0.38355 -3.50375,0.78881 -6.93378,0.90059 -4.45576,0.1452 -8.92943,1.25554 -15.66806,3.88872 -5.1874,2.02702 -11.25469,3.98681 -13.48288,4.35509 -3.539,0.58494 -4.34034,1.23789 -6.3375,5.16393 -1.25744,2.47188 -2.06804,5.35457 -1.80134,6.40599 0.68002,2.68094 -1.11363,5.58833 -3.4476,5.58833 -1.36208,0 -1.97397,-0.69022 -1.99466,-2.25 -0.026,-1.96354 -0.5185,-1.68463 -3.86808,2.19074 -2.11104,2.4424 -4.38223,5.94509 -5.0471,7.78376 -1.82412,5.0445 -14.92874,24.27551 -16.54211,24.27551 -1.53251,0 -6.51287,5.9809 -6.51287,7.8213 0,0.6229 -1.125,1.8697 -2.5,2.7707 -1.375,0.9009 -2.5,2.2788 -2.5,3.0621 0,1.9555 11.84676,7.4627 26.70454,12.4141 12.99822,4.3316 16.65576,4.5227 17.7962,0.9295 0.92276,-2.9074 2.65156,-2.4527 1.9099,0.5023 -0.55856,2.2255 -0.3136,2.5036 2.23095,2.5326 2.573,0.029 8.38813,1.8071 15.39699,4.7069 1.39622,0.5776 6.08903,1.3829 10.42846,1.7896 4.33943,0.4066 9.04707,1.0902 10.46142,1.5192 4.11877,1.249 -14.9777,0.8649 -28.42846,-0.5718 z m -40.57683,-46.20723 c 1.24107,-2.72385 1.23896,-2.72598 -0.83949,-0.84501 -2.14939,1.94517 -2.71675,3.57573 -1.2442,3.57573 0.46172,0 1.39938,-1.22882 2.08369,-2.73072 z M 84.466988,973.00979 c -4.125,-1.8149 -12.96941,-6.09179 -19.65424,-9.5043 -11.49872,-5.8698 -12.2737,-6.4586 -14.36912,-10.9164 -4.952691,-10.5364 -9.966591,-38.87902 -7.182241,-40.59984 1.7737,-1.09621 2.41818,1.16422 2.6251,9.20727 0.1903,7.39716 2.88726,18.16566 4.549581,18.16566 0.44458,0 1.09371,1.52111 1.44249,3.38031 0.65836,3.5094 7.37845,14.7252 9.73577,16.249 3.85429,2.4914 11.49083,5.11291 12.7848,4.3888 0.89529,-0.501 2.40538,-0.097 4.00277,1.0708 2.77101,2.0258 5.51324,2.7205 11.19846,2.8368 2.82885,0.058 3.75634,0.5446 4.18875,2.1981 0.46119,1.7636 1.03215,2.00591 3.36663,1.4287 1.54619,-0.3824 3.960872,-1.7881 5.365972,-3.1238 2.91332,-2.7696 4.94528,-3.1383 4.94528,-0.8973 0,0.8422 0.56392,1.7478 1.25316,2.0122 1.26122,0.484 20.70769,-6.005 34.87126,-11.6359 l 7.62441,-3.0313 0.0934,-4.6551 c 0.0768,-3.826 -0.72906,-6.0581 -4.52442,-12.53201 -8.68208,-14.80933 -23.60134,-32.6893 -27.27632,-32.6893 -2.11655,0 -4.04149,-1.94093 -4.04149,-4.07505 0,-0.92128 -3.58311,-4.44692 -7.96246,-7.83475 -8.823912,-6.8261 -10.922312,-9.11621 -6.03943,-6.59118 20.00991,10.34753 46.49732,34.76847 61.2253,56.44869 2.0745,3.0538 3.7729,6.7575 3.77421,8.2304 0.002,2.3427 -0.71789,2.9501 -5.74762,4.8492 -17.92789,6.7688 -64.344372,21.0707 -67.981622,20.9465 -0.42261,-0.014 -4.14338,-1.5112 -8.26838,-3.3262 z m 12,-7.6476 c 0.825,-0.5332 1.95,-0.9694 2.5,-0.9694 0.55,0 0.325,0.43621 -0.5,0.9694 -0.825,0.5332 -1.95,0.9694 -2.5,0.9694 -0.55,0 -0.325,-0.4362 0.5,-0.9694 z m 4.733332,-2.1241 c 0.67834,-0.6834 1.48524,-0.9907 1.79313,-0.6828 0.30789,0.3079 -0.24711,0.8671 -1.23333,1.2426 -1.4252,0.5427 -1.54006,0.4278 -0.5598,-0.5598 z m -26.733332,-4.8759 c 0,-0.55 0.45,-1 1,-1 0.55,0 1,0.45 1,1 0,0.55 -0.45,1 -1,1 -0.55,0 -1,-0.45 -1,-1 z m 41.723022,-2.25 c 0.97591,-1.7875 2.52759,-5.275 3.44818,-7.75 l 1.67379,-4.5 0.0775,3.7298 c 0.11041,5.313 -2.66376,11.7702 -5.05675,11.7702 -1.86019,0 -1.86443,-0.096 -0.14272,-3.25 z m -85.223023,-1.75 c -2.2,-1.0184 -3.64805,-1.8851 -3.21788,-1.9258 1.18415,-0.1123 7.71788,2.7447 7.71788,3.3748 0,0.67741 0.30706,0.7763 -4.5,-1.44899 z m -14,-5 c -0.78218,-1.2656 0.54163,-1.2656 2.5,0 1.29269,0.8354 1.26629,0.9715 -0.19098,0.9847 -0.93004,0.01 -1.9691,-0.4347 -2.30902,-0.9847 z m -5.5,-1.059 c 0,-0.5825 0.45,-0.7809 1,-0.441 0.55,0.3399 1,0.8165 1,1.059 0,0.2426 -0.45,0.441 -1,0.441 -0.55,0 -1,-0.4766 -1,-1.059 z m 7.5217,-5.9059 c -0.32799,-0.5307 1.30715,-2.81217 3.63364,-5.06994 2.32649,-2.25779 4.70578,-4.90924 5.28732,-5.89212 0.58154,-0.98289 2.25386,-3.57756 3.71628,-5.76594 1.46242,-2.18839 2.81242,-5.02998 3,-6.31466 0.18758,-1.28468 0.95078,-2.53678 1.696,-2.78242 1.79423,-0.59145 0.98939,1.99505 -3.90617,12.55323 -5.05965,10.91206 -7.50184,14.23676 -10.45785,14.23676 -1.30509,0 -2.64124,-0.43421 -2.96922,-0.9649 z M 183.70276,928.11218 c -15.83297,-21.08984 -16.499,-22.26483 -22.03675,-38.87687 -7.9447,-23.83236 -16.75659,-59.22265 -15.97957,-64.17708 0.18943,-1.20783 0.92807,0.95395 1.64143,4.80395 1.91932,10.3586 7.61778,30.78071 12.03641,43.13604 7.12784,19.9308 7.50504,20.67424 11.71882,23.09751 2.50096,1.43825 3.2311,2.23941 2.05056,2.25 -3.13424,0.0281 -1.19704,2.48846 2.37506,3.01645 l 3.38275,0.5 -2.71224,1.22856 c -3.40417,1.54198 -3.42782,3.64449 -0.0902,8.0203 2.01792,2.64563 3.17563,3.33181 5.02488,2.97831 2.03395,-0.38882 2.3048,-0.15036 1.76413,1.55315 -0.55667,1.7539 -0.335,1.9106 1.72512,1.21954 3.61485,-1.21261 8.77492,-0.99476 10.13996,0.42808 0.98884,1.0307 0.23352,1.14456 -3.933,0.59285 -4.65058,-0.61581 -5.22142,-0.47957 -5.81406,1.38768 -0.70781,2.23012 -0.1751,3.16386 5.93271,10.39872 2.17895,2.58104 4.70701,4.69281 5.61789,4.69281 3.17755,0 46.92033,-36.04627 46.92033,-38.66474 0,-0.75596 -1.68688,-1.58137 -3.98182,-1.94834 -4.65839,-0.74491 -4.38899,-2.38692 0.39161,-2.38692 3.70893,0 9.59021,-1.80594 9.59021,-2.94482 0,-0.41204 0.86166,-1.74266 1.91479,-2.95694 2.03762,-2.34938 2.62336,-7.44212 3.43924,-29.90229 0.393,-10.81877 0.31473,-11.36688 -1.82321,-12.76771 -1.94535,-1.27465 -2.1721,-2.10608 -1.75584,-6.43819 0.35251,-3.66868 -0.0802,-6.27213 -1.6485,-9.91767 -2.99365,-6.95892 -2.86721,-8.34762 0.62352,-6.84846 1.5125,0.64957 2.90208,1.27951 3.08796,1.39986 1.31477,0.85125 3.38565,23.61179 3.85813,42.40376 l 0.56639,22.52754 -13.88124,13.55012 c -14.3904,14.04712 -19.68663,18.94635 -32.38124,29.95398 -12.04139,10.44122 -14.04891,11.94083 -15.98519,11.94083 -1.183,0 -5.35475,-4.69273 -11.77904,-13.25001 z M 11.466987,939.30316 c 0,-0.58246 0.45,-0.7809 1,-0.44098 0.55,0.33992 1,0.81648 1,1.05902 0,0.24259 -0.45,0.441 -1,0.441 -0.55,0 -1,-0.47658 -1,-1.05903 z m 234.000003,-1.39711 c 0,-1.01755 6.15992,-11.52467 7.09544,-12.10286 1.50463,-0.92991 1.04894,0.33346 -2.19088,6.07411 -2.79806,4.95789 -4.90456,7.54723 -4.90456,6.02875 z m 244.5,-8.45767 c -13.5171,-5.40078 -28.09334,-12.22955 -37.72249,-17.67247 -10.94118,-6.18455 -9.94507,-4.52985 -13.72237,-22.79513 -2.77232,-13.40567 -5.05514,-27.86706 -5.05514,-32.02365 0,-3.15151 1.78621,-5.16264 22.25,-25.05168 12.2375,-11.89381 23.20535,-21.86613 24.37299,-22.16072 2.1443,-0.54098 15.14217,5.30898 18.62701,8.3835 0.9625,0.84916 1.75,2.74919 1.75,4.22227 0,3.47839 -2.40587,3.56728 -6.85173,0.2532 -3.80996,-2.84006 -10.962,-5.24152 -15.61039,-5.24152 -2.74338,0 -5.41209,2.27427 -20.93212,17.8383 -9.78332,9.81107 -18.18999,18.47357 -18.6815,19.25 -1.5219,2.40418 -1.03775,8.63834 2.12488,27.36095 3.55838,21.0654 2.24531,19.11045 20.04321,29.84123 9.20046,5.54718 11.77937,6.67697 14.08511,6.17054 1.85907,-0.40832 2.82254,-0.21494 2.82254,0.56651 0,0.65255 0.59479,0.9582 1.32177,0.67924 0.72697,-0.27897 1.86864,0.36848 2.53704,1.43876 1.9204,3.07504 13.13146,9.85447 16.29623,9.85447 1.56473,0 2.84496,0.45 2.84496,1 0,1.61951 -3.04658,1.06422 -10.5,-1.9138 z M 41.802817,882.79496 c -0.33077,-0.86197 -0.0916,-2.07697 0.53139,-2.7 0.84371,-0.84371 1.13278,-0.44377 1.13278,1.56722 0,3.0087 -0.74874,3.51836 -1.66417,1.13278 z m 47.123051,-1.49931 c -0.36253,-0.58659 -0.4535,-1.27219 -0.20214,-1.52354 0.69747,-0.69748 3.74326,0.68337 3.74326,1.69706 0,1.25179 -2.74331,1.11736 -3.54112,-0.17352 z m 21.708542,-2.46403 c -4.58293,-0.7157 -8.59543,-1.56411 -8.91667,-1.88536 -0.61988,-0.61987 12.864,-1.14982 16.24925,-0.63863 5.24303,0.79172 16.00203,-0.0898 17.48589,-1.43268 0.87724,-0.79389 2.53385,-1.18962 3.70162,-0.88424 1.70514,0.44591 2.23101,0.004 2.72029,-2.28788 0.33359,-1.56236 0.42358,-4.64065 0.19998,-6.84065 -0.2236,-2.2 -0.68176,-7.6 -1.01814,-12 -0.98532,-12.88833 0.99321,-5.61723 2.82873,10.39559 1.24571,10.86745 1.36389,14.66184 0.48948,15.71545 -1.49379,1.7999 -21.85538,1.71446 -33.74043,-0.1416 z m 133.83258,-0.96944 c -0.71755,-0.86459 -0.81474,-1.5 -0.22943,-1.5 0.5585,0 1.27447,0.675 1.59106,1.5 0.31658,0.825 0.41982,1.5 0.22943,1.5 -0.19039,0 -0.90637,-0.675 -1.59106,-1.5 z m -203.483073,-3.75 c -0.35309,-1.7875 -1.11861,-4.48791 -1.70115,-6.0009 -0.78628,-2.04215 -0.73985,-3.13566 0.1802,-4.24426 0.68166,-0.82134 1.02382,-2.62093 0.76037,-3.99909 -0.55053,-2.87992 0.73135,-3.34154 2.09862,-0.75575 0.83592,1.5809 1.66273,12.13109 1.29309,16.5 -0.24754,2.9258 -1.94843,1.95613 -2.63113,-1.5 z m 299.216403,2.12591 c 0.67834,-0.68342 1.48524,-0.99067 1.79313,-0.68278 0.30789,0.30789 -0.24711,0.86705 -1.23333,1.24258 -1.4252,0.54268 -1.54006,0.42782 -0.5598,-0.5598 z m -64.08096,-3.70754 c -1.91188,-2.11261 -7.56663,-17.94316 -12.14284,-33.99407 -4.15786,-14.58357 -4.50037,-18.21624 -0.58215,-6.1743 3.3625,10.33401 11.04482,30.00297 12.4281,31.81952 0.55265,0.72574 1.86464,1.09468 2.91554,0.81986 1.58821,-0.41533 1.81038,-0.0998 1.31619,1.86919 -0.72958,2.90685 0.92095,4.19272 2.27531,1.77262 0.78719,-1.40665 2.45921,-1.79128 8.31146,-1.912 8.3891,-0.17303 27.91598,-4.06132 41.82602,-8.32858 8.81943,-2.70559 9.18676,-2.9189 5.12756,-2.97749 -7.04142,-0.10165 -3.47995,-2.68155 4.63406,-3.35689 9.7147,-0.80855 13.59067,-2.24205 19.85232,-7.34224 6.33607,-5.16079 8.99213,-4.96357 2.88606,0.2143 -5.05526,4.2868 -2.44172,4.61091 3.34996,0.41544 3.03271,-2.19689 4.15004,-2.60074 4.15004,-1.5 0,1.98459 3.91367,1.95546 6.77749,-0.0504 4.02734,-2.82086 2.84505,-4.91762 -2.52749,-4.48243 -2.55918,0.20731 -3.14824,-2.40221 -0.75,-3.3225 0.825,-0.31658 1.49832,-1.37722 1.49626,-2.35699 -0.006,-2.91961 -3.80718,-8.28141 -5.87078,-8.28141 -1.04715,0 -2.94615,-0.84395 -4.22,-1.87545 l -2.31608,-1.87546 3.27287,-0.71884 c 1.80008,-0.39536 3.49764,-1.30459 3.77237,-2.02051 0.58083,-1.51362 -10.2287,-23.69689 -12.99282,-26.66383 -1.28337,-1.37753 -2.60367,-1.82132 -4.21524,-1.41684 -2.84234,0.71338 -5.63835,-3.06212 -3.32604,-4.49121 1.69486,-1.04748 -0.54354,-5.52679 -3.84177,-7.68788 -1.4604,-0.95689 -2.25877,-2.47589 -2.25877,-4.29759 0,-1.9907 -0.62091,-3.01468 -2.11569,-3.48911 -3.13151,-0.9939 -15.03163,0.47578 -17.70123,2.18614 -1.86043,1.19193 -2.61173,1.23973 -3.81319,0.24261 -1.31739,-1.09334 -1.28961,-1.35744 0.23235,-2.20917 2.45675,-1.37487 15.40572,-4.6453 18.47345,-4.66571 3.15256,-0.021 4.89602,1.85415 13.00102,13.98286 15.78546,23.62211 34.83868,59.17215 33.53476,62.57011 -0.77696,2.02473 -6.98705,4.58787 -28.05623,11.57987 -21.62162,7.17533 -38.97815,11.79634 -59.05524,15.72288 -21.45792,4.19661 -22.07353,4.25586 -23.84763,2.29551 z M 80.966988,872.14159 c -4.39951,-1.38846 -17.84538,-7.05069 -18.95,-7.9801 -0.5225,-0.43962 -1.60265,-0.79931 -2.40033,-0.79931 -2.08468,0 -12.149671,-5.06771 -12.149671,-6.11735 0,-1.48472 2.779651,-0.98752 6.225831,1.11361 1.80079,1.09795 4.03931,1.99795 4.97448,2 0.93517,0.002 2.06017,0.59219 2.5,1.31142 1.31328,2.14751 10.00177,5.69001 14.03879,5.72392 2.56287,0.0215 4.67366,0.83424 6.62628,2.55128 3.3901,2.9811 3.19442,3.47779 -0.86538,2.19654 z m 165.752182,-6.27941 c 0.0111,-2.2 0.21589,-2.98225 0.45508,-1.73834 0.23919,1.24391 0.23011,3.04391 -0.0202,4 -0.25029,0.95609 -0.446,-0.0617 -0.4349,-2.26166 z m -194.752182,0.5 c 0.33992,-0.55 1.04148,-1 1.55902,-1 0.51754,0 0.94098,0.45 0.94098,1 0,0.55 -0.70156,1 -1.55902,1 -0.85746,0 -1.2809,-0.45 -0.94098,-1 z m -22.095011,-18.25 -1.90499,-2.25 2.25,1.90499 c 2.11445,1.79022 2.70524,2.59501 1.90499,2.59501 -0.18976,0 -1.20226,-1.0125 -2.25,-2.25 z m -14.15499,-7.34601 c -8.9225999,-9.45178 -2.87916,-8.09888 9.25,2.07074 l 3,2.51535 -4,-0.042 c -3.41982,-0.0359 -4.61645,-0.69501 -8.25,-4.54407 z m 14.92414,-5.145 c -3.2949,-4.90022 -8.50699,-13.4144 -11.58243,-18.9204 -5.26595,-9.4277 -6.624,-13.58257 -4.80668,-14.70573 3.11483,-1.92507 51.214971,-4.52904 51.214971,-2.7726 0,0.73576 -2.29738,1.13974 -6.48144,1.13974 -3.56479,0 -9.527291,0.43178 -13.250001,0.95952 -3.72271,0.52773 -10.59356,1.42518 -15.26856,1.99433 -10.17253,1.23842 -11.50529,2.36255 -9.50906,8.02047 1.95439,5.53935 4.43257,10.18178 6.95323,13.02568 1.21872,1.375 2.26795,3.55983 2.33161,4.85517 0.0637,1.29534 1.73113,5.06688 3.70546,8.38121 5.51954,9.26568 3.40098,7.99896 -3.3071,-1.97739 z m 108.373713,3.99101 c -1.85814,-12.99422 -4.80342,-24.88074 -6.65481,-26.85746 -1.11076,-1.18595 -6.0008,-3.32579 -11.18344,-4.89378 -9.08291,-2.74801 -10.73087,-4.76197 -2.13357,-2.60743 2.43318,0.60978 6.56147,1.62501 9.17397,2.25611 2.6125,0.63108 5.13416,1.48774 5.60369,1.90369 0.83105,0.7362 1.674,4.39833 5.05219,21.94888 0.89986,4.675 1.86023,9.5125 2.13416,10.75 0.27394,1.2375 0.0906,2.25 -0.40744,2.25 -0.49803,0 -1.21117,-2.1375 -1.58475,-4.75 z m 280.45215,-3.01197 c -13.08922,-9.97792 -43.85361,-39.54278 -51.66234,-49.64798 -5.03484,-6.51554 -2.7126,-4.95317 5.44,3.65995 2.47281,2.6125 5.27985,4.75 6.23786,4.75 0.95927,0 2.25591,1.24107 2.88604,2.76234 1.11576,2.69368 11.27486,11.9319 23.83292,21.67254 5.20901,4.04036 6.48376,4.62889 7.75,3.578 0.83354,-0.69177 1.52241,-2.21517 1.53083,-3.38532 0.008,-1.17016 0.45153,-2.80256 0.98469,-3.62756 0.68881,-1.06586 0.97381,0.14449 0.98469,4.18191 0.0142,5.26741 0.25239,5.8486 3.26531,7.96708 1.7875,1.25685 3.84641,2.86426 4.57535,3.57202 1.50745,1.46364 1.16545,1.6547 11.07212,-6.18549 7.06557,-5.59173 8.38232,-7.64814 10.03608,-15.67368 1.7408,-8.44795 7.69465,-12.50786 6.36976,-4.34352 -0.43283,2.66725 -0.21734,3.48168 0.92122,3.48168 2.61205,0 24.80676,-21.41018 27.5533,-26.57935 1.17458,-2.21065 0.9408,-2.77059 -2.89364,-6.93046 l -4.17146,-4.5255 1.19414,-7.23235 c 1.32815,-8.04402 2.16879,-9.55103 4.05796,-7.27472 3.09546,3.7298 4.99713,-0.0581 5.02416,-10.00762 0.006,-2.22749 0.53194,-4.57092 1.16863,-5.20762 0.87682,-0.87681 0.82385,-1.55978 -0.2184,-2.81561 -4.54814,-5.48018 -38.25059,-31.42677 -40.82074,-31.42677 -0.63009,0 -1.9799,0.52102 -2.99958,1.15782 -2.60915,1.62945 -5.47903,0.32735 -4.82138,-2.18751 0.43054,-1.6464 -0.84701,-2.80459 -7.13655,-6.46979 -4.8305,-2.81495 -8.88602,-4.47106 -10.97671,-4.48245 -1.82366,-0.01 -4.29866,-0.51924 -5.5,-1.13179 -2.93601,-1.49703 -12.84446,-8.07947 -14.48606,-9.62343 -1.05248,-0.9899 -2.30296,-0.73671 -6.25679,1.26685 -2.71777,1.3772 -4.94141,2.33869 -4.94141,2.13662 0,-0.61708 10.06727,-6.66632 11.09424,-6.66632 1.48281,0 22.18905,9.83815 33.92992,16.12111 20.65966,11.05574 54.38125,34.03086 56.92511,38.7841 0.93332,1.74393 -1.77055,32.46208 -3.82566,43.46254 -1.07181,5.73711 -3.15211,8.07176 -26.12361,29.31766 -21.02135,19.44226 -34.08664,30.43552 -35.97251,30.26764 -0.29012,-0.0258 -2.10249,-1.24758 -4.02749,-2.71501 z m 2.9682,-15.30102 c -1.70453,-3.37666 -2.90061,-6.33794 -2.65794,-6.5806 0.54565,-0.54565 7.68974,9.29002 7.68974,10.58689 0,0.51627 -0.43484,1.20741 -0.96632,1.53588 -0.53148,0.32848 -2.36094,-2.16549 -4.06548,-5.54217 z m -163.4534,-2.86963 c -0.35637,-1.62254 -0.2081,-3.76397 0.3295,-4.75873 1.46055,-2.7026 16.18474,-16.61294 16.86493,-15.93276 0.32357,0.32358 -1.24438,2.28387 -3.48434,4.35622 -4.85346,4.49027 -11.22489,13.75439 -11.22489,16.32109 0,3.11502 -1.80188,3.12531 -2.4852,0.0142 z m -114.90191,-0.31738 c -0.3412,-1.2375 -0.90091,-5.40836 -1.2438,-9.26859 l -0.62344,-7.01858 5.24908,-9.48142 c 7.71022,-13.92698 16.60825,-28.33704 23.46277,-37.99714 3.32337,-4.68365 7.26878,-10.30865 8.76756,-12.5 4.85263,-7.09497 7.67181,-9.60983 9.60992,-8.57259 4.80485,2.57148 41.16502,42.14968 41.16502,44.8083 0,0.30161 -4.76528,-4.45984 -10.58952,-10.58099 -5.82423,-6.12116 -12.91173,-12.68774 -15.75,-14.59241 l -5.16048,-3.46304 -0.77859,2.95823 c -0.7704,2.92712 -3.00137,3.9323 -4.24859,1.91425 -0.35487,-0.57418 0.10672,-2.19157 1.02575,-3.59419 2.29688,-3.50547 1.23178,-6.79344 -3.16945,-9.78416 -2.6508,-1.80126 -4.11601,-2.22691 -5.36493,-1.55851 -2.14322,1.14702 -17.96419,22.00225 -17.96419,23.68043 0,0.67652 0.93733,1.73169 2.08296,2.34481 1.94198,1.03931 1.97197,1.23742 0.44319,2.92671 -0.90188,0.99656 -2.43363,1.60434 -3.40389,1.35061 -2.49015,-0.65119 -7.73747,7.23207 -6.11508,9.18693 1.56713,1.88828 -0.25082,5.04886 -4.02741,7.00181 -4.07921,2.10944 -6.08183,5.53915 -6.83768,11.71023 -0.58142,4.74702 -0.87832,5.24412 -3.14209,5.26084 -2.48644,0.0184 -2.49918,0.0659 -2.34839,8.76847 0.0834,4.8125 0.0234,8.75 -0.13337,8.75 -0.15674,0 -0.56414,-1.0125 -0.90535,-2.25 z M 107.21699,803.6999 c 0.6875,-0.27741 1.8125,-0.27741 2.5,0 0.6875,0.27741 0.125,0.50439 -1.25,0.50439 -1.375,0 -1.9375,-0.22698 -1.25,-0.50439 z m 143.31953,-6.2078 c -0.58824,-1.09914 -1.06953,-2.20195 -1.06953,-2.45068 0,-0.54987 5.736,-1.73399 8.4925,-1.75315 1.09587,-0.008 3.05431,-0.70958 4.35208,-1.55991 1.29777,-0.85033 3.28259,-1.30468 4.41072,-1.00967 1.12812,0.29501 3.30984,-0.11452 4.84826,-0.91006 1.53842,-0.79555 4.01421,-1.44645 5.50177,-1.44645 2.59034,0 2.63225,0.08 0.99151,1.893 -1.58897,1.75578 -15.96971,7.05244 -23.27731,8.5734 -2.56379,0.53362 -3.38784,0.27448 -4.25,-1.33648 z m -140.06953,-0.55131 c 0,-0.39681 0.63482,-1.35629 1.41071,-2.13218 0.7759,-0.77589 1.61965,-1.98125 1.875,-2.67857 0.37158,-1.01469 0.72887,-1.01826 1.78929,-0.0179 0.72875,0.6875 2.0975,1.25 3.04167,1.25 0.94416,0 1.91743,-0.5625 2.16282,-1.25 0.31117,-0.87181 1.17288,-0.58337 2.84815,0.95337 2.17988,1.99962 2.81672,2.10198 6.88717,1.10692 5.01236,-1.2253 7.35106,-2.90383 9.36585,-6.722 8.41094,-15.93937 10.51387,-20.49659 11.60772,-25.15475 1.53524,-6.53791 2.65335,-8.94744 5.07355,-10.93354 2.15655,-1.76974 11.25884,-25.72169 10.51323,-27.66472 -0.61832,-1.61132 -3.95519,-1.73745 -6.72655,-0.25426 -2.49281,1.33411 -4.01643,0.15203 -1.56925,-1.21748 2.80679,-1.57076 0.86112,-3.10112 -3.14388,-2.47282 -3.18271,0.49931 -3.35526,0.42919 -1.38548,-0.563 1.2375,-0.62334 2.24202,-1.85208 2.23226,-2.73053 -0.0341,-3.06636 -32.96762,-22.67901 -56.33324,-33.54767 -12.240692,-5.69383 -12.847012,-5.86647 -15.444942,-4.39769 -1.48724,0.84084 -5.40408,2.31461 -8.70408,3.27505 -10.35642,3.01416 -30.814231,9.80359 -35.314211,11.7199 -2.94299,1.25326 -4.25721,2.39596 -4.13485,3.59521 0.0987,0.9669 0.12755,2.28167 0.0642,2.9217 -0.13398,1.35394 -18.2299,11.33635 -20.55023,11.33635 -3.48912,0 -1.15568,-2.91017 5.93507,-7.40199 14.01603,-8.87881 7.64364,-8.75916 -9.75,0.18307 -1.25821,0.64686 -0.83481,-1.83912 0.5489,-3.22283 2.07568,-2.07568 6.15935,-3.86828 23.7011,-10.40403 14.873691,-5.54167 37.826641,-12.97682 47.000001,-15.2247 3.81201,-0.93411 8.80592,1.03226 29.000002,11.41886 25.65871,13.19727 59,33.91573 59,36.66293 0,4.29176 -18.37267,43.49548 -29.07325,62.03668 -6.5205,11.29825 -5.72089,10.82742 -19.67675,11.58613 -6.7375,0.36628 -12.25,0.3413 -12.25,-0.0555 z m -62.500003,-6.6639 c -12.82865,-2.76005 -33.70721,-8.97906 -35.21856,-10.49042 -1.23073,-1.23072 -1.80324,-4.42429 -0.79315,-4.42429 0.26856,0 4.20606,1.52348 8.75,3.3855 4.54394,1.86203 12.81165,4.86221 18.37269,6.66708 l 10.11098,3.28159 3.139021,-2.23518 3.13902,-2.23518 0,2.18164 c 0,2.0286 0.32538,2.13284 4.63847,1.48606 4.07239,-0.6107 4.56055,-0.49253 4,0.96824 -0.35116,0.9151 -0.63847,2.07702 -0.63847,2.58204 0,1.39482 -5.52642,0.9787 -15.500001,-1.16708 z M 229.08505,762.11218 c -7.91272,-14.5497 -19.61806,-42.95579 -19.61806,-47.60839 0,-1.7612 5.31072,-6.87925 20.05607,-19.32849 10.21789,-8.62679 9.36987,-8.46086 21.71702,-4.24927 16.86501,5.75263 58.25799,24.73841 56.89862,26.09779 -0.25671,0.2567 -3.77536,-1.19954 -7.81923,-3.2361 -10.19878,-5.13629 -22.93469,-10.42553 -25.10351,-10.42553 -2.33038,0 -3.33031,2.59461 -1.73891,4.51212 1.06367,1.28165 0.76882,1.39886 -2.13812,0.85 -4.21249,-0.79535 -7.33169,-3.30237 -5.89557,-4.73849 1.76185,-1.76185 1.18518,-2.2983 -4.72637,-4.39677 -10.05769,-3.57024 -10.25,-3.59525 -10.25,-1.33279 0,1.52722 -1.00812,2.3003 -4.07746,3.12679 -2.2426,0.60387 -5.0551,0.91855 -6.25,0.6993 -1.91387,-0.35117 -1.78558,-0.54849 1.07746,-1.65722 2.08652,-0.80802 3.25,-1.93956 3.25,-3.16077 0,-1.96728 -3.28927,-5.90217 -4.93377,-5.90217 -0.98889,0 -9.70434,6.82204 -17.24683,13.5 -2.48481,2.2 -5.28548,5.48809 -6.2237,7.30686 -1.64764,3.19398 -1.61703,3.61566 0.89682,12.35365 3.95162,13.73557 7.2724,21.89228 9.90684,24.3338 1.6303,1.51091 2.23734,2.96251 1.92614,4.60595 -0.25147,1.32807 0.86537,5.63743 2.50089,9.64974 1.6254,3.9875 2.80297,7.25 2.61682,7.25 -0.18616,0 -2.35748,-3.7125 -4.82515,-8.25 z m 82.38194,5.80902 c 0,-0.85745 0.45,-1.55902 1,-1.55902 0.55,0 1,0.42344 1,0.94098 0,0.51754 -0.45,1.2191 -1,1.55902 -0.55,0.33992 -1,-0.0835 -1,-0.94098 z m 5,-3.99978 c 0,-0.33411 1.575,-2.8971 3.5,-5.69556 1.925,-2.79845 3.5,-5.71261 3.5,-6.47589 0,-0.76329 0.45661,-1.38779 1.0147,-1.38779 1.75843,0 4.97423,-6.35184 5.06278,-10 l 0.085,-3.5 1.37367,3 c 2.58489,5.64518 1.89907,7.60189 -5.62378,16.04516 -6.61462,7.42389 -8.91237,9.49004 -8.91237,8.01407 z m 23.07895,-18.22744 c -0.0434,-0.64252 -0.33793,-1.99253 -0.65446,-3 -0.54705,-1.74122 -0.51883,-1.7434 0.57078,-0.0441 0.63045,0.98322 0.92496,2.33322 0.65445,3 -0.35498,0.87499 -0.51379,0.88726 -0.57077,0.0441 z m -2.95356,-11.66208 c -0.65607,-2.93167 -0.92139,-6.03775 -0.58958,-6.90242 0.81781,-2.13119 14.01737,-13.19019 29.88166,-25.03579 9.55729,-7.13627 13.17268,-9.34359 13.4171,-8.19159 0.50182,2.36515 -0.5783,4.46009 -2.29957,4.46009 -1.9128,0 -14.35784,8.76295 -21.14429,14.88837 -2.81012,2.5364 -8.15372,7.02389 -11.87469,9.9722 l -6.76539,5.36056 0.63342,5.38944 c 0.34838,2.96419 0.4761,5.38943 0.28382,5.38943 -0.19229,0 -0.8864,-2.39863 -1.54248,-5.33029 z m -9.50185,-2.20837 c -0.96498,-2.51469 -0.68031,-3.16355 0.49853,-1.13634 0.58369,1.00375 0.8506,2.03566 0.59313,2.29313 -0.25747,0.25747 -0.74872,-0.26309 -1.09166,-1.15679 z m -5.62354,-6.54377 -2.5,-2.03796 3.25,1.58588 c 1.7875,0.87223 3.25,1.79931 3.25,2.06019 0,0.99447 -1.59298,0.35405 -4,-1.60811 z m -5.55887,-3.47274 c -1.86402,-1.49339 -1.85176,-1.51185 0.30887,-0.46481 1.2375,0.59969 2.25,1.29951 2.25,1.55516 0,0.76522 -0.51861,0.54423 -2.55887,-1.09035 z m 5.05887,-6.07783 c -17.20366,-8.8973 -37.31642,-21.57734 -54,-34.04418 -15.70362,-11.73456 -16.75485,-12.83101 -15.98021,-16.66765 6.72413,-33.30333 16.32653,-69.33841 18.99724,-71.29128 0.9005,-0.65846 5.54006,-1.57221 10.31012,-2.03055 10.87672,-1.0451 78.71359,-1.10179 82.40466,-0.0688 1.53604,0.42986 3.39954,2.05574 4.25728,3.71442 2.44982,4.73744 11.51372,27.81096 11.48139,29.22761 -0.0162,0.71141 -3.31457,-5.45652 -7.32962,-13.70652 -4.01506,-8.25 -8.02252,-15.59332 -8.90547,-16.31849 -2.1803,-1.79068 -14.51823,-2.62354 -37.18639,-2.51022 l -18.95099,0.0947 -2.29901,2.67275 c -1.26445,1.47002 -2.299,3.32266 -2.299,4.11699 0,0.79433 -0.45,1.44424 -1,1.44424 -0.55,0 -1,-1.125 -1,-2.5 0,-1.38461 -0.58,-2.5 -1.3,-2.5 -1.85506,0 -3.7,2.09426 -3.7,4.2 0,0.99 -0.66386,1.8 -1.47525,1.8 -1.13232,0 -1.26902,-0.54242 -0.58806,-2.33347 1.71636,-4.51438 0.11527,-5.17133 -9.47583,-3.88805 -9.11013,1.21892 -11.46086,2.29674 -11.46086,5.25487 0,0.98365 -0.85281,4.52855 -1.89514,7.87756 -1.04233,3.349 -1.62945,6.08909 -1.30472,6.08909 0.32473,0 1.85255,-1.20919 3.39514,-2.68709 l 2.80472,-2.68709 0,2.32404 c 0,1.45555 -2.49979,5.11712 -6.68937,9.79824 l -6.68938,7.4742 -2.76818,12.0726 c -3.89872,17.00315 -4.57463,24.84069 -2.33534,27.07997 0.95708,0.95708 2.37226,1.49759 3.14484,1.20112 0.88378,-0.33914 2.59745,1.1865 4.62106,4.11403 3.5922,5.19677 3.66656,5.26688 16.21637,15.2894 8.71934,6.96342 9.13581,7.1695 13.35518,6.60878 3.55614,-0.47258 4.25244,-0.31103 3.79517,0.88058 -0.83687,2.18085 4.65808,5.7429 7.68661,4.98278 1.97253,-0.49507 2.94775,0.0551 5.10073,2.87787 3.09268,4.05471 8.01693,6.67057 12.55706,6.67057 2.37664,0 3.32938,0.52348 3.72816,2.04842 0.70859,2.70965 3.6817,2.10054 4.10077,-0.84013 0.28374,-1.99103 0.73144,-2.19477 3.62852,-1.65129 3.7389,0.70142 7.49792,-0.91435 14.4416,-6.20758 2.41659,-1.84218 4.79441,-3.34942 5.28403,-3.34942 0.48963,0 4.20304,-2.2576 8.25203,-5.01688 4.77095,-3.25127 7.57952,-5.88436 7.98045,-7.48181 0.35406,-1.41067 2.0025,-3.1631 3.85418,-4.09729 4.26791,-2.15321 8.71441,-6.33141 9.85005,-9.25569 0.5838,-1.50329 1.44937,-2.14593 2.39936,-1.78138 2.14508,0.82316 4.47589,-0.31623 4.54949,-2.22394 0.0421,-1.09028 0.3786,-0.85644 1.00037,0.69511 0.51534,1.28597 0.59932,2.91206 0.18661,3.61355 -1.93764,3.29346 -26.23057,22.06787 -39.82194,30.77577 -6.59538,4.22562 -23.00611,13.78048 -23.64374,13.76616 -0.15658,-0.004 -3.43469,-1.63549 -7.28469,-3.62661 z m -142.5,-7.2567 c -25.54779,-10.36584 -59.22286,-27.39332 -78.783702,-39.83623 -4.55392,-2.89681 -4.43881,-1.08271 -1.6323,-25.72421 l 1.47494,-12.95013 5.354842,-7.11454 c 5.63674,-7.48909 24.37241,-28.1642 31.74372,-35.02972 13.0913,-12.193 36.1151,-29.78609 42.64192,-32.58382 2.40151,-1.02941 5.79158,-1.8531 7.53349,-1.83043 l 3.16709,0.0412 -4.5,2.35734 c -2.475,1.29654 -5.89981,3.02884 -7.6107,3.84955 -1.71088,0.82072 -7.70454,4.35386 -13.31923,7.85144 -7.89991,4.92112 -10.32904,6.95528 -10.74143,8.99491 -0.30364,1.50175 -1.67209,3.21723 -3.18078,3.98741 -4.74959,2.42466 -10.3207,7.2905 -13.31212,11.62691 -1.6125,2.3375 -3.48962,4.25 -4.17137,4.25 -1.3864,0 -9.05955,7.55624 -13.3582,13.15467 -1.54339,2.01007 -5.39012,7.04382 -8.54828,11.18611 -3.15816,4.14229 -6.19886,7.81372 -6.75711,8.15874 -3.56083,2.20071 -5.870192,14.86663 -3.90596,21.42262 0.99659,3.32634 0.92253,4.52152 -0.46082,7.43673 -3.041382,6.40921 -0.768862,8.72581 20.366,20.76106 11.93136,6.79431 34.78824,17.63916 46.20914,21.92475 9.65938,3.62459 11.057,3.3746 12.16719,-2.17631 0.55651,-2.78259 0.88866,-3.01977 3.37051,-2.40681 4.07791,1.00715 4.59253,1.9815 2.83826,5.37388 -0.87181,1.68588 -1.5851,3.24056 -1.5851,3.45484 0,0.21428 1.74226,0.9646 3.87168,1.66737 3.8643,1.27534 3.8848,1.2676 10.75,-4.05812 8.24648,-6.39726 21.80242,-17.80445 29.37832,-24.72158 l 5.5,-5.02174 -1.75,-3.15914 c -1.93619,-3.49527 -2.31846,-11.37171 -0.75187,-15.49214 1.35254,-3.55746 2.63312,-2.44958 3.44776,2.98277 0.37216,2.48177 1.08651,4.5123 1.58745,4.5123 0.87168,0 2.59375,-5.19346 5.0102,-15.10993 0.96101,-3.94375 0.82227,-5.5847 -0.9601,-11.35533 -1.14589,-3.70998 -2.08344,-8.46121 -2.08344,-10.55829 0,-7.00548 2.18217,-9.25766 4.09507,-4.22645 0.88013,2.31488 1.18883,2.49402 1.95098,1.13216 0.49798,-0.88982 1.2006,-4.12943 1.56138,-7.19913 0.59551,-5.06679 0.41338,-5.86959 -1.97573,-8.70888 -2.37311,-2.82028 -3.4799,-5.97415 -2.09652,-5.97415 0.29435,0 1.64622,0.72798 3.00416,1.61773 2.45094,1.60592 2.48384,1.5841 4.50639,-2.98821 1.20682,-2.72821 2.1224,-7.15871 2.24585,-10.86773 0.18138,-5.4494 -0.19168,-6.91047 -2.8755,-11.26179 -3.55317,-5.76079 -5.64464,-6.57336 -8.94315,-3.47457 l -2.34865,2.20645 -5.22543,-8.10532 c -4.92186,-7.63444 -5.30638,-7.98974 -6.61884,-6.11594 -2.01921,2.88283 -3.44068,2.46955 -2.61618,-0.76062 0.38606,-1.5125 0.6476,-3.5375 0.5812,-4.5 -0.0664,-0.9625 0.5263,-1.75 1.31712,-1.75 0.79082,0 1.43785,0.39375 1.43785,0.875 0,0.48125 1.0125,0.88388 2.25,0.89474 1.2375,0.0109 2.925,0.1796 3.75,0.375 0.825,0.19539 1.3875,-0.20724 1.25,-0.89474 -0.41636,-2.08182 3.26697,-1.40071 5.40786,1 2.31417,2.59502 8.50538,12.52048 13.30159,21.32451 l 3.30924,6.0745 -2.19277,14.9255 c -3.08959,21.02982 -7.98231,44.65361 -13.27976,64.11937 l -3.04632,11.19388 -11.12492,10.03195 c -13.1074,11.81965 -34.53092,29.0878 -36.05632,29.06272 -0.58773,-0.01 -5.3436,-1.75212 -10.5686,-3.87213 z m 317.5,1.11565 c -15.44868,-3.12783 -43.57839,-11.57095 -57.5,-17.25861 -21.22369,-8.67091 -19.96068,-7.95954 -18.77027,-10.57219 1.26201,-2.76981 2.05088,-2.96689 3.73813,-0.93388 0.66701,0.8037 2.18461,1.76442 3.37245,2.13492 1.18783,0.37051 3.67461,1.99521 5.52618,3.61046 5.79415,5.05461 20.28296,10.03168 29.8301,10.24697 4.31965,0.0974 6.77581,0.66392 8.10887,1.87032 1.89448,1.71449 17.88006,5.32979 26.04937,5.89133 3.47859,0.23911 4.14247,0.62807 4.1437,2.42774 0.002,2.36483 -1.45238,3.19968 -4.49853,2.58294 z m 2.97111,-12.83282 c -0.31679,-1.04122 -1.45363,-3.69313 -2.52632,-5.89313 -2.26938,-4.65431 -2.70098,-8.07693 -0.62704,-4.97251 1.94286,2.90823 4.98598,11.50211 4.3117,12.17639 -0.32031,0.32031 -0.84156,-0.26953 -1.15834,-1.31075 z m 0.52889,-12.64313 c 0,-0.87083 -0.46061,-1.73687 -1.02358,-1.92453 -0.56296,-0.18765 -1.22384,-2.13765 -1.46861,-4.33333 -0.24477,-2.19569 -0.18859,-3.13932 0.12485,-2.097 0.43387,1.44282 0.76373,1.58151 1.38202,0.5811 0.52299,-0.84622 1.06385,0.3646 1.51919,3.40106 0.38889,2.5933 0.42786,4.99429 0.0866,5.33556 -0.34126,0.34126 -0.62047,-0.092 -0.62047,-0.96286 z M 15.829377,682.59687 c -1.65962,-1.07182 -4.36239,-8.03504 -4.36239,-11.23898 0,-2.68111 0.0929,-2.72743 3.25,-1.61978 4.46919,1.56801 5.75,2.49981 5.75,4.18309 0,0.86549 -0.98589,1.44098 -2.46862,1.44098 -3.61104,0 -2.1593,2.68084 1.76353,3.25659 7.06387,1.03676 53.826131,-11.53785 58.474951,-15.7242 0.69842,-0.62894 3.51398,-7.56374 6.2568,-15.41066 l 4.98694,-14.26713 -1.6234,-5.67729 c -0.89287,-3.12253 -2.24593,-6.38774 -3.0068,-7.25604 -0.76087,-0.86831 -1.3834,-2.97651 -1.3834,-4.6849 0,-1.70839 -0.46259,-4.32286 -1.02798,-5.80995 -0.56539,-1.48708 -0.85024,-2.88152 -0.633,-3.09876 0.60282,-0.60283 5.10669,9.34918 7.65468,16.91427 2.56301,7.60966 2.69736,6.59854 -3.68814,27.75808 -1.90875,6.325 -4.22086,12.24776 -5.13801,13.16168 -2.2511,2.24317 -36.831351,12.83011 -56.479601,17.29154 -7.90605,1.79519 -6.90184,1.70093 -8.32556,0.78147 z M 398.42411,670.20295 c -1.13769,-4.22508 -0.59915,-10.32594 0.99867,-11.31345 0.48308,-0.29856 1.63502,1.73535 2.55986,4.5198 1.38887,4.1815 1.46921,5.57521 0.46162,8.00775 -1.66241,4.01343 -2.69662,3.70109 -4.02015,-1.2141 z m 100.59838,-5.84077 c 0.22154,-7.11157 0.0691,-9.20917 -0.4723,-6.5 l -0.79939,4 -0.1419,-3.78324 c -0.078,-2.08079 -1.26691,-6.00333 -2.64191,-8.71676 -2.8841,-5.6915 -3.09325,-6.73724 -1,-5 1.85618,1.54049 1.92502,0.57357 0.39251,-5.5126 -0.6968,-2.76724 -2.02555,-4.99977 -3.58317,-6.02037 -2.26538,-1.48433 -2.41806,-2.04112 -1.79732,-6.55444 0.63934,-4.64853 0.49423,-5.10433 -2.52192,-7.92184 -2.82868,-2.64238 -3.1514,-3.48309 -2.7793,-7.24013 0.30402,-3.06965 -0.27025,-5.77871 -2.06695,-9.75062 -1.71944,-3.80112 -2.61637,-4.93613 -2.90375,-3.67452 -0.39489,1.73358 -0.51208,1.73836 -2.32796,0.095 -2.54222,-2.30069 -2.52377,-4.8137 0.0304,-4.14576 1.91173,0.49993 1.91072,0.42715 -0.0636,-4.5818 -2.70085,-6.85212 -2.55856,-6.70701 -5.91773,-6.03518 -3.41507,0.68302 -3.5837,0.20459 -1.29406,-3.67146 1.56419,-2.64797 1.55593,-3.1136 -0.13381,-7.53811 -0.99054,-2.59369 -2.558,-5.47282 -3.48325,-6.39807 -1.63381,-1.63383 -19.5047,-9.08961 -25.55009,-10.65956 l -3,-0.77909 2.70055,-0.36738 c 1.4853,-0.20206 3.59321,0.11036 4.68426,0.69427 1.09104,0.58391 2.8606,1.06165 3.93237,1.06165 3.30799,0 19.58194,7.73045 21.43481,10.18196 6.35541,8.40879 25.95336,60.12425 28.92127,76.31804 1.47066,8.02434 2.05096,24.65568 1.01187,29 -0.75518,3.15734 -0.88782,1.78801 -0.62963,-6.5 z m -487.363753,-5.36429 -0.15996,-6.13571 2.56967,4.5 c 2.63453,4.61359 2.39525,7.08967 -0.72944,7.54828 -1.20523,0.17689 -1.55346,-1.04847 -1.68027,-5.91257 z M 379.63463,630.41323 c -0.58498,-1.67808 -0.85087,-3.05105 -0.59087,-3.05105 0.6751,0 2.56204,5.19453 2.06683,5.68973 -0.2268,0.2268 -0.89098,-0.96061 -1.47596,-2.63868 z m 7.91131,-1.63438 c 0.048,-1.16495 0.28494,-1.4019 0.60416,-0.60417 0.28887,0.72188 0.25335,1.58438 -0.0789,1.91667 -0.33229,0.33229 -0.56864,-0.25834 -0.52522,-1.3125 z m -1.5151,-5.54867 c -1.29735,-5.75853 -3.51576,-21.04623 -4.12316,-28.41381 l -0.66332,-8.04581 5.36132,-4.03705 c 14.21383,-10.70296 39.35362,-27.37133 41.28235,-27.37133 0.80351,0 1.73904,-0.45 2.07896,-1 0.33992,-0.55 1.95731,-1 3.5942,-1 2.66629,0 2.86472,0.20824 1.9058,2 -0.74093,1.38444 -2.09382,2 -4.39564,2 -1.8289,0 -4.85056,1.02155 -6.71481,2.27011 -1.86425,1.24856 -7.21455,4.68521 -11.88955,7.63702 -4.675,2.9518 -12.70382,8.48499 -17.84182,12.29598 -8.1132,6.01778 -9.26485,7.23577 -8.75654,9.26101 0.3219,1.28256 0.13412,4.71085 -0.41729,7.61844 -0.7532,3.97155 -0.60999,8.12532 0.57573,16.69946 0.86806,6.27712 1.34406,11.64718 1.05778,11.93347 -0.28629,0.28628 -0.76059,-0.54508 -1.05401,-1.84749 z m 112.15112,-7.92317 c -2.08561,-4.81407 -2.09766,-5.02891 -0.24217,-4.31689 1.35831,0.52123 3.28662,6.94597 2.36221,7.87038 -0.22279,0.22279 -1.1768,-1.37628 -2.12004,-3.55349 z m -403.167182,-4.0704 c -3.17224,-3.77 -2.64713,-4.88433 0.96337,-2.04431 3.64157,2.86446 6.565522,1.23956 6.892192,-3.83012 0.0532,-0.825 1.11014,-1.64393 2.34884,-1.81984 1.23871,-0.17591 2.72861,-1.21003 3.31091,-2.29806 0.67085,-1.2535 1.69583,-1.77599 2.79784,-1.42624 1.83466,0.58231 6.89856,-4.00711 9.05425,-8.20586 1.25607,-2.44651 6.08481,-3.20344 6.08481,-0.95382 0,2.21083 -25.00309,23.70382 -27.574992,23.70382 -0.68597,0 -2.43072,-1.40651 -3.87722,-3.12557 z M 493.05913,599.21526 c -3.82342,-12.59838 -7.75697,-29.68074 -7.40468,-32.15656 0.4867,-3.42047 14.81254,-10.56009 14.81254,-7.38218 0,0.65973 -2.3147,2.09639 -5.14379,3.19258 -7.06545,2.73768 -7.53064,3.76202 -5.98579,13.18063 1.52508,9.29804 4.82768,23.70156 6.32718,27.59451 0.58938,1.53014 0.81465,3.03903 0.50059,3.35309 -0.31406,0.31405 -1.71178,-3.18788 -3.10605,-7.78207 z m -402.925472,6.48025 c -0.36667,-0.36666 -0.66667,-1.13166 -0.66667,-1.7 0,-0.6266 0.46577,-0.56756 1.18333,0.15 0.65084,0.65084 0.95084,1.41584 0.66667,1.7 -0.28417,0.28417 -0.81667,0.21667 -1.18333,-0.15 z m -23.10238,-24.0402 c -0.54268,-1.4252 -0.42782,-1.54006 0.5598,-0.5598 0.68342,0.67834 0.99067,1.48524 0.68278,1.79313 -0.30789,0.30789 -0.86705,-0.24711 -1.24258,-1.23333 z m 66.549652,-0.37361 c -0.7295,-1.86377 -0.5788,-2.64922 0.65609,-3.41952 0.88172,-0.55 2.98167,-2.41324 4.66655,-4.14053 3.53089,-3.61978 7.56342,-5.96848 7.56342,-4.40524 0,0.83976 -3.2875,4.82532 -11.10685,13.46529 -0.47883,0.52907 -1.23431,-0.10785 -1.77921,-1.5 z m 184.38606,-1.47625 c -23.69941,-2.22228 -49.03172,-6.086 -52.01474,-7.93336 -1.10811,-0.68625 -3.84415,-4.34421 -6.0801,-8.12881 -5.4427,-9.21241 -5.82322,-10.3811 -3.38005,-10.3811 1.96085,0 7.32116,6.36493 8.5071,10.10147 0.80558,2.53816 2.12971,2.39377 6.14688,-0.67027 1.85233,-1.41284 4.14481,-2.40271 5.09439,-2.1997 1.3273,0.28376 1.016,0.74687 -1.34631,2.00287 -4.17414,2.2193 -6.03599,4.55681 -4.69648,5.89632 0.57526,0.57526 7.50869,2.28698 15.40762,3.80384 27.45231,5.27173 34.49802,6.02914 36.59341,3.93375 0.84229,-0.84229 3.07769,-0.84229 8.74085,0 9.22408,1.37191 33.14133,1.45268 29.77743,0.10056 -1.2375,-0.49742 -2.25,-1.39922 -2.25,-2.004 0,-1.56238 8.26353,1.03451 9.46188,2.97348 1.115,1.80412 3.65598,1.19256 8.95057,-2.15422 8.50818,-5.37812 26.42356,-18.91436 26.9912,-20.39362 0.65243,-1.7002 3.69582,-1.8696 3.34635,-0.18626 -0.30319,1.46045 -13.84371,11.91545 -26.5583,20.50639 l -9.30829,6.28939 -19.69171,-0.12198 c -10.83043,-0.0671 -25.9917,-0.71272 -33.6917,-1.43475 z M 61.648358,574.4787 c -1.38384,-0.85991 -6.49312,-11.13811 -5.85429,-11.77693 0.20336,-0.20336 2.03946,2.14503 4.08022,5.21865 3.64749,5.49351 4.37225,8.17277 1.77407,6.55828 z m 88.884652,-11.61652 c 1.23886,-2.2 2.88877,-5.2375 3.66647,-6.75 1.56387,-3.04149 4.35966,-3.81367 3.62061,-1 -0.25282,0.9625 -2.50264,4 -4.99961,6.75 l -4.53993,5 2.25246,-4 z m -104.566023,-8.5 c -0.33992,-0.55 0.057,-1 0.88197,-1 0.825,0 1.77811,0.45 2.11803,1 0.33992,0.55 -0.057,1 -0.88197,1 -0.825,0 -1.77811,-0.45 -2.11803,-1 z m 12.500001,0 c 0,-0.55 0.45,-1 1,-1 0.55,0 1,0.45 1,1 0,0.55 -0.45,1 -1,1 -0.55,0 -1,-0.45 -1,-1 z"
         id="path3014"
         inkscape:connector-curvature="0" />
    </g>
  </g>
</svg>
