%!PS-Adobe-3.0
%%Creator: graphviz version 2.26.3 (20100126.1600)
%%Title: finite_state_machine
%%Pages: (atend)
%%BoundingBox: (atend)
%%EndComments
save
%%BeginProlog
/DotDict 200 dict def
DotDict begin

/setupLatin1 {
mark
/EncodingVector 256 array def
 EncodingVector 0

ISOLatin1Encoding 0 255 getinterval putinterval
EncodingVector 45 /hyphen put

% Set up ISO Latin 1 character encoding
/starnetISO {
        dup dup findfont dup length dict begin
        { 1 index /FID ne { def }{ pop pop } ifelse
        } forall
        /Encoding EncodingVector def
        currentdict end definefont
} def
/Times-Roman starnetISO def
/Times-Italic starnetISO def
/Times-Bold starnetISO def
/Times-BoldItalic starnetISO def
/Helvetica starnetISO def
/Helvetica-Oblique starnetISO def
/Helvetica-Bold starnetISO def
/Helvetica-BoldOblique starnetISO def
/Courier starnetISO def
/Courier-Oblique starnetISO def
/Courier-Bold starnetISO def
/Courier-BoldOblique starnetISO def
cleartomark
} bind def

%%BeginResource: procset graphviz 0 0
/coord-font-family /Times-Roman def
/default-font-family /Times-Roman def
/coordfont coord-font-family findfont 8 scalefont def

/InvScaleFactor 1.0 def
/set_scale {
       dup 1 exch div /InvScaleFactor exch def
       scale
} bind def

% styles
/solid { [] 0 setdash } bind def
/dashed { [9 InvScaleFactor mul dup ] 0 setdash } bind def
/dotted { [1 InvScaleFactor mul 6 InvScaleFactor mul] 0 setdash } bind def
/invis {/fill {newpath} def /stroke {newpath} def /show {pop newpath} def} bind def
/bold { 2 setlinewidth } bind def
/filled { } bind def
/unfilled { } bind def
/rounded { } bind def
/diagonals { } bind def

% hooks for setting color 
/nodecolor { sethsbcolor } bind def
/edgecolor { sethsbcolor } bind def
/graphcolor { sethsbcolor } bind def
/nopcolor {pop pop pop} bind def

/beginpage {	% i j npages
	/npages exch def
	/j exch def
	/i exch def
	/str 10 string def
	npages 1 gt {
		gsave
			coordfont setfont
			0 0 moveto
			(\() show i str cvs show (,) show j str cvs show (\)) show
		grestore
	} if
} bind def

/set_font {
	findfont exch
	scalefont setfont
} def

% draw text fitted to its expected width
/alignedtext {			% width text
	/text exch def
	/width exch def
	gsave
		width 0 gt {
			[] 0 setdash
			text stringwidth pop width exch sub text length div 0 text ashow
		} if
	grestore
} def

/boxprim {				% xcorner ycorner xsize ysize
		4 2 roll
		moveto
		2 copy
		exch 0 rlineto
		0 exch rlineto
		pop neg 0 rlineto
		closepath
} bind def

/ellipse_path {
	/ry exch def
	/rx exch def
	/y exch def
	/x exch def
	matrix currentmatrix
	newpath
	x y translate
	rx ry scale
	0 0 1 0 360 arc
	setmatrix
} bind def

/endpage { showpage } bind def
/showpage { } def

/layercolorseq
	[	% layer color sequence - darkest to lightest
		[0 0 0]
		[.2 .8 .8]
		[.4 .8 .8]
		[.6 .8 .8]
		[.8 .8 .8]
	]
def

/layerlen layercolorseq length def

/setlayer {/maxlayer exch def /curlayer exch def
	layercolorseq curlayer 1 sub layerlen mod get
	aload pop sethsbcolor
	/nodecolor {nopcolor} def
	/edgecolor {nopcolor} def
	/graphcolor {nopcolor} def
} bind def

/onlayer { curlayer ne {invis} if } def

/onlayers {
	/myupper exch def
	/mylower exch def
	curlayer mylower lt
	curlayer myupper gt
	or
	{invis} if
} def

/curlayer 0 def

%%EndResource
%%EndProlog
%%BeginSetup
14 default-font-family set_font
1 setmiterlimit
% /arrowlength 10 def
% /arrowwidth 5 def

% make sure pdfmark is harmless for PS-interpreters other than Distiller
/pdfmark where {pop} {userdict /pdfmark /cleartomark load put} ifelse
% make '<<' and '>>' safe on PS Level 1 devices
/languagelevel where {pop languagelevel}{1} ifelse
2 lt {
    userdict (<<) cvn ([) cvn load put
    userdict (>>) cvn ([) cvn load put
} if

%%EndSetup
setupLatin1
%%Page: 1 1
%%PageBoundingBox: 36 36 676 406
%%PageOrientation: Portrait
0 0 1 beginpage
gsave
36 36 640 370 boxprim clip newpath
1 1 set_scale 0 rotate 40 41 translate
% Juego
gsave
1 setlinewidth
0 0 0 nodecolor
39 144 38.89 38.89 ellipse_path stroke
0 0 0 nodecolor
14 /Times-Roman set_font
19.5 140.4 moveto 39 (Juego) alignedtext
grestore
% Enhorabuena
gsave
1 setlinewidth
0 0 0 nodecolor
555 285 77.07 77.07 ellipse_path stroke
0 0 0 nodecolor
14 /Times-Roman set_font
508.5 281.4 moveto 93 (Enhorabuena) alignedtext
grestore
% Juego->Enhorabuena
gsave
1 setlinewidth
0 0 0 edgecolor
newpath 69.12 168.88 moveto
103.66 195.84 163.13 237.59 222 257 curveto
302.31 283.48 399.13 288.89 467.62 288.63 curveto
stroke
0 0 0 edgecolor
newpath 467.96 292.13 moveto
477.94 288.55 lineto
467.91 285.13 lineto
closepath fill
1 setlinewidth
solid
0 0 0 edgecolor
newpath 467.96 292.13 moveto
477.94 288.55 lineto
467.91 285.13 lineto
closepath stroke
0 0 0 edgecolor
14 /Times-Roman set_font
222.5 285.4 moveto 111 (Completar Nivel) alignedtext
grestore
% Pausa
gsave
1 setlinewidth
0 0 0 nodecolor
555 40 39.81 40.31 ellipse_path stroke
0 0 0 nodecolor
14 /Times-Roman set_font
534.5 36.4 moveto 41 (Pausa) alignedtext
grestore
% Juego->Pausa
gsave
1 setlinewidth
0 0 0 edgecolor
newpath 77.36 136.27 moveto
169.36 117.73 402.49 70.74 505.16 50.05 curveto
stroke
0 0 0 edgecolor
newpath 505.86 53.48 moveto
514.97 48.07 lineto
504.47 46.61 lineto
closepath fill
1 setlinewidth
solid
0 0 0 edgecolor
newpath 505.86 53.48 moveto
514.97 48.07 lineto
504.47 46.61 lineto
closepath stroke
0 0 0 edgecolor
14 /Times-Roman set_font
257.5 109.4 moveto 41 (Pausa) alignedtext
grestore
% Muerte
gsave
1 setlinewidth
0 0 0 nodecolor
555 144 46.17 46.67 ellipse_path stroke
0 0 0 nodecolor
14 /Times-Roman set_font
530 140.4 moveto 50 (Muerte) alignedtext
grestore
% Juego->Muerte
gsave
1 setlinewidth
0 0 0 edgecolor
newpath 77.82 149.21 moveto
114.8 153.89 172.08 160.42 222 163 curveto
319.16 168.03 432.22 158.27 498.46 150.97 curveto
stroke
0 0 0 edgecolor
newpath 499.13 154.42 moveto
508.68 149.83 lineto
498.35 147.46 lineto
closepath fill
1 setlinewidth
solid
0 0 0 edgecolor
newpath 499.13 154.42 moveto
508.68 149.83 lineto
498.35 147.46 lineto
closepath stroke
0 0 0 edgecolor
14 /Times-Roman set_font
246 169.4 moveto 64 (Fin Juego) alignedtext
grestore
% Juego->Muerte
gsave
1 setlinewidth
0 0 0 edgecolor
newpath 78.27 143.17 moveto
115.32 142.43 172.43 141.41 222 141 curveto
319 140.21 431.88 141.74 498.17 142.89 curveto
stroke
0 0 0 edgecolor
newpath 498.34 146.4 moveto
508.4 143.07 lineto
498.46 139.4 lineto
closepath fill
1 setlinewidth
solid
0 0 0 edgecolor
newpath 498.34 146.4 moveto
508.4 143.07 lineto
498.46 139.4 lineto
closepath stroke
0 0 0 edgecolor
14 /Times-Roman set_font
242.5 146.4 moveto 71 (Tiempo=0) alignedtext
grestore
% Enhorabuena->Juego
gsave
1 setlinewidth
0 0 0 edgecolor
newpath 480.41 264.62 moveto
372.72 235.19 176.71 181.63 86.62 157.01 curveto
stroke
0 0 0 edgecolor
newpath 87.51 153.63 moveto
76.94 154.37 lineto
85.67 160.38 lineto
closepath fill
1 setlinewidth
solid
0 0 0 edgecolor
newpath 87.51 153.63 moveto
76.94 154.37 lineto
85.67 160.38 lineto
closepath stroke
0 0 0 edgecolor
14 /Times-Roman set_font
243 227.4 moveto 70 (Continuar) alignedtext
grestore
% Pausa->Juego
gsave
1 setlinewidth
0 0 0 edgecolor
newpath 514.32 38.32 moveto
450.87 36.7 324.94 37.5 222 63 curveto
172 75.39 118.54 100.59 82.39 119.61 curveto
stroke
0 0 0 edgecolor
newpath 80.31 116.76 moveto
73.13 124.55 lineto
83.6 122.93 lineto
closepath fill
1 setlinewidth
solid
0 0 0 edgecolor
newpath 80.31 116.76 moveto
73.13 124.55 lineto
83.6 122.93 lineto
closepath stroke
0 0 0 edgecolor
14 /Times-Roman set_font
256 68.4 moveto 44 (Volver) alignedtext
grestore
% Pausa->Juego
gsave
1 setlinewidth
0 0 0 edgecolor
newpath 515.76 29.39 moveto
452.42 14.12 324.37 -9 222 22 curveto
165.33 39.16 110.17 80.29 75.48 110.06 curveto
stroke
0 0 0 edgecolor
newpath 72.78 107.77 moveto
67.54 116.99 lineto
77.38 113.05 lineto
closepath fill
1 setlinewidth
solid
0 0 0 edgecolor
newpath 72.78 107.77 moveto
67.54 116.99 lineto
77.38 113.05 lineto
closepath stroke
0 0 0 edgecolor
14 /Times-Roman set_font
248.5 27.4 moveto 59 (Reiniciar) alignedtext
grestore
endpage
showpage
grestore
%%PageTrailer
%%EndPage: 1
%%Trailer
%%Pages: 1
%%BoundingBox: 36 36 676 406
end
restore
%%EOF
