%!PS-Adobe-3.0
%%Creator: graphviz version 2.26.3 (20100126.1600)
%%Title: finite_state_machine
%%Pages: (atend)
%%BoundingBox: (atend)
%%EndComments
save
%%BeginProlog
/DotDict 200 dict def
DotDict begin

/setupLatin1 {
mark
/EncodingVector 256 array def
 EncodingVector 0

ISOLatin1Encoding 0 255 getinterval putinterval
EncodingVector 45 /hyphen put

% Set up ISO Latin 1 character encoding
/starnetISO {
        dup dup findfont dup length dict begin
        { 1 index /FID ne { def }{ pop pop } ifelse
        } forall
        /Encoding EncodingVector def
        currentdict end definefont
} def
/Times-Roman starnetISO def
/Times-Italic starnetISO def
/Times-Bold starnetISO def
/Times-BoldItalic starnetISO def
/Helvetica starnetISO def
/Helvetica-Oblique starnetISO def
/Helvetica-Bold starnetISO def
/Helvetica-BoldOblique starnetISO def
/Courier starnetISO def
/Courier-Oblique starnetISO def
/Courier-Bold starnetISO def
/Courier-BoldOblique starnetISO def
cleartomark
} bind def

%%BeginResource: procset graphviz 0 0
/coord-font-family /Times-Roman def
/default-font-family /Times-Roman def
/coordfont coord-font-family findfont 8 scalefont def

/InvScaleFactor 1.0 def
/set_scale {
       dup 1 exch div /InvScaleFactor exch def
       scale
} bind def

% styles
/solid { [] 0 setdash } bind def
/dashed { [9 InvScaleFactor mul dup ] 0 setdash } bind def
/dotted { [1 InvScaleFactor mul 6 InvScaleFactor mul] 0 setdash } bind def
/invis {/fill {newpath} def /stroke {newpath} def /show {pop newpath} def} bind def
/bold { 2 setlinewidth } bind def
/filled { } bind def
/unfilled { } bind def
/rounded { } bind def
/diagonals { } bind def

% hooks for setting color 
/nodecolor { sethsbcolor } bind def
/edgecolor { sethsbcolor } bind def
/graphcolor { sethsbcolor } bind def
/nopcolor {pop pop pop} bind def

/beginpage {	% i j npages
	/npages exch def
	/j exch def
	/i exch def
	/str 10 string def
	npages 1 gt {
		gsave
			coordfont setfont
			0 0 moveto
			(\() show i str cvs show (,) show j str cvs show (\)) show
		grestore
	} if
} bind def

/set_font {
	findfont exch
	scalefont setfont
} def

% draw text fitted to its expected width
/alignedtext {			% width text
	/text exch def
	/width exch def
	gsave
		width 0 gt {
			[] 0 setdash
			text stringwidth pop width exch sub text length div 0 text ashow
		} if
	grestore
} def

/boxprim {				% xcorner ycorner xsize ysize
		4 2 roll
		moveto
		2 copy
		exch 0 rlineto
		0 exch rlineto
		pop neg 0 rlineto
		closepath
} bind def

/ellipse_path {
	/ry exch def
	/rx exch def
	/y exch def
	/x exch def
	matrix currentmatrix
	newpath
	x y translate
	rx ry scale
	0 0 1 0 360 arc
	setmatrix
} bind def

/endpage { showpage } bind def
/showpage { } def

/layercolorseq
	[	% layer color sequence - darkest to lightest
		[0 0 0]
		[.2 .8 .8]
		[.4 .8 .8]
		[.6 .8 .8]
		[.8 .8 .8]
	]
def

/layerlen layercolorseq length def

/setlayer {/maxlayer exch def /curlayer exch def
	layercolorseq curlayer 1 sub layerlen mod get
	aload pop sethsbcolor
	/nodecolor {nopcolor} def
	/edgecolor {nopcolor} def
	/graphcolor {nopcolor} def
} bind def

/onlayer { curlayer ne {invis} if } def

/onlayers {
	/myupper exch def
	/mylower exch def
	curlayer mylower lt
	curlayer myupper gt
	or
	{invis} if
} def

/curlayer 0 def

%%EndResource
%%EndProlog
%%BeginSetup
14 default-font-family set_font
1 setmiterlimit
% /arrowlength 10 def
% /arrowwidth 5 def

% make sure pdfmark is harmless for PS-interpreters other than Distiller
/pdfmark where {pop} {userdict /pdfmark /cleartomark load put} ifelse
% make '<<' and '>>' safe on PS Level 1 devices
/languagelevel where {pop languagelevel}{1} ifelse
2 lt {
    userdict (<<) cvn ([) cvn load put
    userdict (>>) cvn ([) cvn load put
} if

%%EndSetup
setupLatin1
%%Page: 1 1
%%PageBoundingBox: 36 36 756 295
%%PageOrientation: Portrait
0 0 1 beginpage
gsave
36 36 720 259 boxprim clip newpath
0.295567 0.295567 set_scale 0 rotate 125.8 126.8 translate
% Fin
gsave
1 setlinewidth
0 0 0 nodecolor
900 839 26.16 26.16 ellipse_path stroke
1 setlinewidth
0 0 0 nodecolor
900 839 30.16 30.16 ellipse_path stroke
0 0 0 nodecolor
14 /Times-Roman set_font
889.5 835.4 moveto 21 (Fin) alignedtext
grestore
% Intro
gsave
1 setlinewidth
0 0 0 nodecolor
36 379 34.86 35.36 ellipse_path stroke
0 0 0 nodecolor
14 /Times-Roman set_font
19 375.4 moveto 34 (Intro) alignedtext
grestore
% Menu
gsave
1 setlinewidth
0 0 0 nodecolor
439 379 38.89 38.89 ellipse_path stroke
0 0 0 nodecolor
14 /Times-Roman set_font
419.5 375.4 moveto 39 (Menu) alignedtext
grestore
% Intro->Menu
gsave
1 setlinewidth
0 0 0 edgecolor
newpath 71.76 379 moveto
143.99 379 307.39 379 389.68 379 curveto
stroke
0 0 0 edgecolor
newpath 389.78 382.5 moveto
399.78 379 lineto
389.78 375.5 lineto
closepath fill
1 setlinewidth
solid
0 0 0 edgecolor
newpath 389.78 382.5 moveto
399.78 379 lineto
389.78 375.5 lineto
closepath stroke
0 0 0 edgecolor
14 /Times-Roman set_font
216.5 384.4 moveto 39 (Enter) alignedtext
grestore
% Menu->Fin
gsave
1 setlinewidth
0 0 0 edgecolor
newpath 443.73 417.75 moveto
456.15 501.44 497.8 699.27 622 795 curveto
691.92 848.89 801.59 848.63 860.1 843.81 curveto
stroke
0 0 0 edgecolor
newpath 860.42 847.3 moveto
870.06 842.91 lineto
859.79 840.33 lineto
closepath fill
1 setlinewidth
solid
0 0 0 edgecolor
newpath 860.42 847.3 moveto
870.06 842.91 lineto
859.79 840.33 lineto
closepath stroke
0 0 0 edgecolor
14 /Times-Roman set_font
645.5 836.4 moveto 31 (Salir) alignedtext
grestore
% Config
gsave
1 setlinewidth
0 0 0 nodecolor
900 584 41.93 42.43 ellipse_path stroke
0 0 0 nodecolor
14 /Times-Roman set_font
878 580.4 moveto 44 (Config) alignedtext
grestore
% Menu->Config
gsave
1 setlinewidth
0 0 0 edgecolor
newpath 466.45 406.71 moveto
500.13 439.07 560.37 491.88 622 521 curveto
642.3 530.59 773.51 558.24 848.19 573.53 curveto
stroke
0 0 0 edgecolor
newpath 847.83 577.03 moveto
858.33 575.6 lineto
849.23 570.17 lineto
closepath fill
1 setlinewidth
solid
0 0 0 edgecolor
newpath 847.83 577.03 moveto
858.33 575.6 lineto
849.23 570.17 lineto
closepath stroke
0 0 0 edgecolor
14 /Times-Roman set_font
635.5 546.4 moveto 51 (B.Jugar) alignedtext
grestore
% Acerca
gsave
1 setlinewidth
0 0 0 nodecolor
900 288 43.84 43.84 ellipse_path stroke
0 0 0 nodecolor
14 /Times-Roman set_font
877 284.4 moveto 46 (Acerca) alignedtext
grestore
% Menu->Acerca
gsave
1 setlinewidth
0 0 0 edgecolor
newpath 476.15 367.12 moveto
512.88 355.75 570.84 338.76 622 328 curveto
699.04 311.79 789.48 300.12 845.77 293.71 curveto
stroke
0 0 0 edgecolor
newpath 846.33 297.17 moveto
855.88 292.57 lineto
845.55 290.21 lineto
closepath fill
1 setlinewidth
solid
0 0 0 edgecolor
newpath 846.33 297.17 moveto
855.88 292.57 lineto
845.55 290.21 lineto
closepath stroke
0 0 0 edgecolor
14 /Times-Roman set_font
630.5 333.4 moveto 61 (B.Acerca) alignedtext
grestore
% Opciones
gsave
1 setlinewidth
0 0 0 nodecolor
900 170 55.86 55.86 ellipse_path stroke
0 0 0 nodecolor
14 /Times-Roman set_font
868.5 166.4 moveto 63 (Opciones) alignedtext
grestore
% Menu->Opciones
gsave
1 setlinewidth
0 0 0 edgecolor
newpath 469.84 355 moveto
505.03 328.55 565.08 286.15 622 259 curveto
692.15 225.53 778.03 200.22 835.62 185.31 curveto
stroke
0 0 0 edgecolor
newpath 836.5 188.69 moveto
845.32 182.82 lineto
834.76 181.91 lineto
closepath fill
1 setlinewidth
solid
0 0 0 edgecolor
newpath 836.5 188.69 moveto
845.32 182.82 lineto
834.76 181.91 lineto
closepath stroke
0 0 0 edgecolor
14 /Times-Roman set_font
622.5 264.4 moveto 77 (B.Opciones) alignedtext
grestore
% Logros
gsave
1 setlinewidth
0 0 0 nodecolor
2384 382 43.84 43.84 ellipse_path stroke
0 0 0 nodecolor
14 /Times-Roman set_font
2361 378.4 moveto 46 (Logros) alignedtext
grestore
% Menu->Logros
gsave
1 setlinewidth
0 0 0 edgecolor
newpath 478.29 379.06 moveto
723.66 379.44 2044.24 381.48 2329.61 381.92 curveto
stroke
0 0 0 edgecolor
newpath 2329.71 385.42 moveto
2339.71 381.93 lineto
2329.72 378.42 lineto
closepath fill
1 setlinewidth
solid
0 0 0 edgecolor
newpath 2329.71 385.42 moveto
2339.71 381.93 lineto
2329.72 378.42 lineto
closepath stroke
0 0 0 edgecolor
14 /Times-Roman set_font
1322.5 386.4 moveto 61 (B.Logros) alignedtext
grestore
% Tutorial
gsave
1 setlinewidth
0 0 0 nodecolor
900 48 48.08 48.08 ellipse_path stroke
0 0 0 nodecolor
14 /Times-Roman set_font
874 44.4 moveto 52 (Tutorial) alignedtext
grestore
% Menu->Tutorial
gsave
1 setlinewidth
0 0 0 edgecolor
newpath 459.55 345.43 moveto
489.85 298.42 550.69 212.91 622 161 curveto
690.48 111.14 784.12 79.04 843.33 62.24 curveto
stroke
0 0 0 edgecolor
newpath 844.55 65.53 moveto
853.25 59.48 lineto
842.68 58.79 lineto
closepath fill
1 setlinewidth
solid
0 0 0 edgecolor
newpath 844.55 65.53 moveto
853.25 59.48 lineto
842.68 58.79 lineto
closepath stroke
0 0 0 edgecolor
14 /Times-Roman set_font
627.5 166.4 moveto 67 (B.Tutorial) alignedtext
grestore
% Config->Menu
gsave
1 setlinewidth
0 0 0 edgecolor
newpath 857.71 589.4 moveto
801.18 594.72 699.16 597.59 622 562 curveto
554.54 530.88 497.88 463.62 466.21 419.89 curveto
stroke
0 0 0 edgecolor
newpath 469.06 417.85 moveto
460.41 411.74 lineto
463.36 421.91 lineto
closepath fill
1 setlinewidth
solid
0 0 0 edgecolor
newpath 469.06 417.85 moveto
460.41 411.74 lineto
463.36 421.91 lineto
closepath stroke
0 0 0 edgecolor
14 /Times-Roman set_font
639 590.4 moveto 44 (Volver) alignedtext
grestore
% Juego
gsave
1 setlinewidth
0 0 0 nodecolor
1353 605 38.89 38.89 ellipse_path stroke
0 0 0 nodecolor
14 /Times-Roman set_font
1333.5 601.4 moveto 39 (Juego) alignedtext
grestore
% Config->Juego
gsave
1 setlinewidth
0 0 0 edgecolor
newpath 942.62 585.98 moveto
1026.83 589.88 1214.14 598.56 1303.59 602.71 curveto
stroke
0 0 0 edgecolor
newpath 1303.59 606.21 moveto
1313.74 603.18 lineto
1303.92 599.22 lineto
closepath fill
1 setlinewidth
solid
0 0 0 edgecolor
newpath 1303.59 606.21 moveto
1313.74 603.18 lineto
1303.92 599.22 lineto
closepath stroke
0 0 0 edgecolor
14 /Times-Roman set_font
1100 602.4 moveto 70 (Continuar) alignedtext
grestore
% Acerca->Menu
gsave
1 setlinewidth
0 0 0 edgecolor
newpath 855.96 282.92 moveto
800.55 277.82 702.85 273.15 622 292 curveto
570.68 303.97 516.76 331.72 480.85 352.69 curveto
stroke
0 0 0 edgecolor
newpath 478.94 349.75 moveto
472.12 357.86 lineto
482.51 355.77 lineto
closepath fill
1 setlinewidth
solid
0 0 0 edgecolor
newpath 478.94 349.75 moveto
472.12 357.86 lineto
482.51 355.77 lineto
closepath stroke
0 0 0 edgecolor
14 /Times-Roman set_font
639 297.4 moveto 44 (Volver) alignedtext
grestore
% Opciones->Menu
gsave
1 setlinewidth
0 0 0 edgecolor
newpath 843.9 167.62 moveto
785.65 167.33 693.25 173.16 622 207 curveto
557.89 237.45 501.31 298.72 468.62 339.3 curveto
stroke
0 0 0 edgecolor
newpath 465.68 337.37 moveto
462.21 347.38 lineto
471.16 341.73 lineto
closepath fill
1 setlinewidth
solid
0 0 0 edgecolor
newpath 465.68 337.37 moveto
462.21 347.38 lineto
471.16 341.73 lineto
closepath stroke
0 0 0 edgecolor
14 /Times-Roman set_font
639 212.4 moveto 44 (Volver) alignedtext
grestore
% Logros->Menu
gsave
1 setlinewidth
0 0 0 edgecolor
newpath 2339.92 380.01 moveto
2193.85 373.65 1712.3 354.45 1314 359 curveto
999.64 362.59 621.88 373.44 488.53 377.47 curveto
stroke
0 0 0 edgecolor
newpath 488.13 373.98 moveto
478.24 377.78 lineto
488.34 380.98 lineto
closepath fill
1 setlinewidth
solid
0 0 0 edgecolor
newpath 488.13 373.98 moveto
478.24 377.78 lineto
488.34 380.98 lineto
closepath stroke
0 0 0 edgecolor
14 /Times-Roman set_font
1331 364.4 moveto 44 (Volver) alignedtext
grestore
% Tutorial->Menu
gsave
1 setlinewidth
0 0 0 edgecolor
newpath 852.04 44.65 moveto
793.03 42.91 692.09 47.88 622 94 curveto
534.28 151.72 479.89 267.6 455.02 332.41 curveto
stroke
0 0 0 edgecolor
newpath 451.67 331.38 moveto
451.42 341.97 lineto
458.22 333.84 lineto
closepath fill
1 setlinewidth
solid
0 0 0 edgecolor
newpath 451.67 331.38 moveto
451.42 341.97 lineto
458.22 333.84 lineto
closepath stroke
0 0 0 edgecolor
14 /Times-Roman set_font
639 99.4 moveto 44 (Volver) alignedtext
grestore
% Enhorabuena
gsave
1 setlinewidth
0 0 0 nodecolor
1869 487 77.07 77.07 ellipse_path stroke
0 0 0 nodecolor
14 /Times-Roman set_font
1822.5 483.4 moveto 93 (Enhorabuena) alignedtext
grestore
% Juego->Enhorabuena
gsave
1 setlinewidth
0 0 0 edgecolor
newpath 1391.16 595.62 moveto
1428.15 586.58 1485.86 572.6 1536 561 curveto
1619.97 541.58 1716.08 520.32 1783.4 505.6 curveto
stroke
0 0 0 edgecolor
newpath 1784.51 508.94 moveto
1793.53 503.38 lineto
1783.01 502.1 lineto
closepath fill
1 setlinewidth
solid
0 0 0 edgecolor
newpath 1784.51 508.94 moveto
1793.53 503.38 lineto
1783.01 502.1 lineto
closepath stroke
0 0 0 edgecolor
14 /Times-Roman set_font
1536.5 566.4 moveto 111 (Completar Nivel) alignedtext
grestore
% Pausa
gsave
1 setlinewidth
0 0 0 nodecolor
1869 740 39.81 40.31 ellipse_path stroke
0 0 0 nodecolor
14 /Times-Roman set_font
1848.5 736.4 moveto 41 (Pausa) alignedtext
grestore
% Juego->Pausa
gsave
1 setlinewidth
0 0 0 edgecolor
newpath 1391.51 611.67 moveto
1448.15 621.8 1557.04 642.5 1648 667 curveto
1708.39 683.27 1776.55 706.55 1821.01 722.42 curveto
stroke
0 0 0 edgecolor
newpath 1820.08 725.81 moveto
1830.67 725.89 lineto
1822.44 719.22 lineto
closepath fill
1 setlinewidth
solid
0 0 0 edgecolor
newpath 1820.08 725.81 moveto
1830.67 725.89 lineto
1822.44 719.22 lineto
closepath stroke
0 0 0 edgecolor
14 /Times-Roman set_font
1571.5 672.4 moveto 41 (Pausa) alignedtext
grestore
% Muerte
gsave
1 setlinewidth
0 0 0 nodecolor
1869 628 46.17 46.67 ellipse_path stroke
0 0 0 nodecolor
14 /Times-Roman set_font
1844 624.4 moveto 50 (Muerte) alignedtext
grestore
% Juego->Muerte
gsave
1 setlinewidth
0 0 0 edgecolor
newpath 1391.81 599.52 moveto
1428.79 594.59 1486.06 587.72 1536 585 curveto
1585.7 582.29 1598.45 580.22 1648 585 curveto
1705.15 590.51 1769.48 603.85 1813.93 614.23 curveto
stroke
0 0 0 edgecolor
newpath 1813.13 617.63 moveto
1823.66 616.52 lineto
1814.73 610.82 lineto
closepath fill
1 setlinewidth
solid
0 0 0 edgecolor
newpath 1813.13 617.63 moveto
1823.66 616.52 lineto
1814.73 610.82 lineto
closepath stroke
0 0 0 edgecolor
14 /Times-Roman set_font
1560 590.4 moveto 64 (Fin Juego) alignedtext
grestore
% Juego->Muerte
gsave
1 setlinewidth
0 0 0 edgecolor
newpath 1392.21 606.75 moveto
1482.8 610.79 1706.92 620.78 1812.4 625.48 curveto
stroke
0 0 0 edgecolor
newpath 1812.39 628.98 moveto
1822.54 625.93 lineto
1812.7 621.99 lineto
closepath fill
1 setlinewidth
solid
0 0 0 edgecolor
newpath 1812.39 628.98 moveto
1822.54 625.93 lineto
1812.7 621.99 lineto
closepath stroke
0 0 0 edgecolor
14 /Times-Roman set_font
1556.5 623.4 moveto 71 (Tiempo=0) alignedtext
grestore
% Enhorabuena->Menu
gsave
1 setlinewidth
0 0 0 edgecolor
newpath 1791.73 485.53 moveto
1595.58 481.11 1062.65 464.79 622 412 curveto
576 406.49 524.07 396.79 487.31 389.32 curveto
stroke
0 0 0 edgecolor
newpath 487.86 385.86 moveto
477.36 387.28 lineto
486.45 392.72 lineto
closepath fill
1 setlinewidth
solid
0 0 0 edgecolor
newpath 487.86 385.86 moveto
477.36 387.28 lineto
486.45 392.72 lineto
closepath stroke
0 0 0 edgecolor
14 /Times-Roman set_font
1119.5 464.4 moveto 31 (Salir) alignedtext
grestore
% Enhorabuena->Juego
gsave
1 setlinewidth
0 0 0 edgecolor
newpath 1791.86 485.43 moveto
1723.44 485.93 1621.4 491.32 1536 515 curveto
1484.89 529.17 1430.93 557.58 1394.96 578.7 curveto
stroke
0 0 0 edgecolor
newpath 1393.02 575.78 moveto
1386.22 583.9 lineto
1396.6 581.8 lineto
closepath fill
1 setlinewidth
solid
0 0 0 edgecolor
newpath 1393.02 575.78 moveto
1386.22 583.9 lineto
1396.6 581.8 lineto
closepath stroke
0 0 0 edgecolor
14 /Times-Roman set_font
1557 520.4 moveto 70 (Continuar) alignedtext
grestore
% Pausa->Menu
gsave
1 setlinewidth
0 0 0 edgecolor
newpath 1828.95 746.91 moveto
1665.3 772.98 1036.44 851.99 622 607 curveto
547.24 562.81 490.67 475.84 461.36 423.01 curveto
stroke
0 0 0 edgecolor
newpath 464.42 421.3 moveto
456.55 414.2 lineto
458.27 424.66 lineto
closepath fill
1 setlinewidth
solid
0 0 0 edgecolor
newpath 464.42 421.3 moveto
456.55 414.2 lineto
458.27 424.66 lineto
closepath stroke
0 0 0 edgecolor
14 /Times-Roman set_font
1119.5 773.4 moveto 31 (Salir) alignedtext
grestore
% Pausa->Juego
gsave
1 setlinewidth
0 0 0 edgecolor
newpath 1828.57 745.11 moveto
1764.66 751.7 1637.15 758.75 1536 726 curveto
1479.98 707.86 1424.88 667.5 1390.02 638.37 curveto
stroke
0 0 0 edgecolor
newpath 1391.92 635.4 moveto
1382.03 631.6 lineto
1387.4 640.74 lineto
closepath fill
1 setlinewidth
solid
0 0 0 edgecolor
newpath 1391.92 635.4 moveto
1382.03 631.6 lineto
1387.4 640.74 lineto
closepath stroke
0 0 0 edgecolor
14 /Times-Roman set_font
1570 752.4 moveto 44 (Volver) alignedtext
grestore
% Pausa->Juego
gsave
1 setlinewidth
0 0 0 edgecolor
newpath 1829 733.46 moveto
1741.29 719.11 1539.52 686.04 1536 685 curveto
1486.86 670.45 1433.47 646.04 1397.11 628 curveto
stroke
0 0 0 edgecolor
newpath 1398.29 624.68 moveto
1387.79 623.33 lineto
1395.16 630.93 lineto
closepath fill
1 setlinewidth
solid
0 0 0 edgecolor
newpath 1398.29 624.68 moveto
1387.79 623.33 lineto
1395.16 630.93 lineto
closepath stroke
0 0 0 edgecolor
14 /Times-Roman set_font
1562.5 708.4 moveto 59 (Reiniciar) alignedtext
grestore
% Muerte->Menu
gsave
1 setlinewidth
0 0 0 edgecolor
newpath 1828 605.76 moveto
1784.64 583.35 1713.55 549.76 1648 533 curveto
1410.97 472.4 1343.48 504.92 1100 481 curveto
986.18 469.82 957.74 466.92 844 455 curveto
745.3 444.65 719.41 449.96 622 431 curveto
575.03 421.86 522.61 406.41 485.96 394.72 curveto
stroke
0 0 0 edgecolor
newpath 486.65 391.26 moveto
476.05 391.53 lineto
484.5 397.93 lineto
closepath fill
1 setlinewidth
solid
0 0 0 edgecolor
newpath 486.65 391.26 moveto
476.05 391.53 lineto
484.5 397.93 lineto
closepath stroke
0 0 0 edgecolor
14 /Times-Roman set_font
1119.5 492.4 moveto 31 (Salir) alignedtext
grestore
% Muerte->Logros
gsave
1 setlinewidth
0 0 0 edgecolor
newpath 1911.14 607.87 moveto
2005.72 562.69 2234.45 453.44 2335.09 405.36 curveto
stroke
0 0 0 edgecolor
newpath 2336.62 408.51 moveto
2344.13 401.04 lineto
2333.6 402.2 lineto
closepath fill
1 setlinewidth
solid
0 0 0 edgecolor
newpath 2336.62 408.51 moveto
2344.13 401.04 lineto
2333.6 402.2 lineto
closepath stroke
0 0 0 edgecolor
14 /Times-Roman set_font
2090 525.4 moveto 106 (Ver puntuacion) alignedtext
grestore
endpage
showpage
grestore
%%PageTrailer
%%EndPage: 1
%%Trailer
%%Pages: 1
%%BoundingBox: 36 36 756 295
end
restore
%%EOF
