%!PS-Adobe-3.0
%%Creator: graphviz version 2.26.3 (20100126.1600)
%%Title: finite_state_machine
%%Pages: (atend)
%%BoundingBox: (atend)
%%EndComments
save
%%BeginProlog
/DotDict 200 dict def
DotDict begin

/setupLatin1 {
mark
/EncodingVector 256 array def
 EncodingVector 0

ISOLatin1Encoding 0 255 getinterval putinterval
EncodingVector 45 /hyphen put

% Set up ISO Latin 1 character encoding
/starnetISO {
        dup dup findfont dup length dict begin
        { 1 index /FID ne { def }{ pop pop } ifelse
        } forall
        /Encoding EncodingVector def
        currentdict end definefont
} def
/Times-Roman starnetISO def
/Times-Italic starnetISO def
/Times-Bold starnetISO def
/Times-BoldItalic starnetISO def
/Helvetica starnetISO def
/Helvetica-Oblique starnetISO def
/Helvetica-Bold starnetISO def
/Helvetica-BoldOblique starnetISO def
/Courier starnetISO def
/Courier-Oblique starnetISO def
/Courier-Bold starnetISO def
/Courier-BoldOblique starnetISO def
cleartomark
} bind def

%%BeginResource: procset graphviz 0 0
/coord-font-family /Times-Roman def
/default-font-family /Times-Roman def
/coordfont coord-font-family findfont 8 scalefont def

/InvScaleFactor 1.0 def
/set_scale {
       dup 1 exch div /InvScaleFactor exch def
       scale
} bind def

% styles
/solid { [] 0 setdash } bind def
/dashed { [9 InvScaleFactor mul dup ] 0 setdash } bind def
/dotted { [1 InvScaleFactor mul 6 InvScaleFactor mul] 0 setdash } bind def
/invis {/fill {newpath} def /stroke {newpath} def /show {pop newpath} def} bind def
/bold { 2 setlinewidth } bind def
/filled { } bind def
/unfilled { } bind def
/rounded { } bind def
/diagonals { } bind def

% hooks for setting color 
/nodecolor { sethsbcolor } bind def
/edgecolor { sethsbcolor } bind def
/graphcolor { sethsbcolor } bind def
/nopcolor {pop pop pop} bind def

/beginpage {	% i j npages
	/npages exch def
	/j exch def
	/i exch def
	/str 10 string def
	npages 1 gt {
		gsave
			coordfont setfont
			0 0 moveto
			(\() show i str cvs show (,) show j str cvs show (\)) show
		grestore
	} if
} bind def

/set_font {
	findfont exch
	scalefont setfont
} def

% draw text fitted to its expected width
/alignedtext {			% width text
	/text exch def
	/width exch def
	gsave
		width 0 gt {
			[] 0 setdash
			text stringwidth pop width exch sub text length div 0 text ashow
		} if
	grestore
} def

/boxprim {				% xcorner ycorner xsize ysize
		4 2 roll
		moveto
		2 copy
		exch 0 rlineto
		0 exch rlineto
		pop neg 0 rlineto
		closepath
} bind def

/ellipse_path {
	/ry exch def
	/rx exch def
	/y exch def
	/x exch def
	matrix currentmatrix
	newpath
	x y translate
	rx ry scale
	0 0 1 0 360 arc
	setmatrix
} bind def

/endpage { showpage } bind def
/showpage { } def

/layercolorseq
	[	% layer color sequence - darkest to lightest
		[0 0 0]
		[.2 .8 .8]
		[.4 .8 .8]
		[.6 .8 .8]
		[.8 .8 .8]
	]
def

/layerlen layercolorseq length def

/setlayer {/maxlayer exch def /curlayer exch def
	layercolorseq curlayer 1 sub layerlen mod get
	aload pop sethsbcolor
	/nodecolor {nopcolor} def
	/edgecolor {nopcolor} def
	/graphcolor {nopcolor} def
} bind def

/onlayer { curlayer ne {invis} if } def

/onlayers {
	/myupper exch def
	/mylower exch def
	curlayer mylower lt
	curlayer myupper gt
	or
	{invis} if
} def

/curlayer 0 def

%%EndResource
%%EndProlog
%%BeginSetup
14 default-font-family set_font
1 setmiterlimit
% /arrowlength 10 def
% /arrowwidth 5 def

% make sure pdfmark is harmless for PS-interpreters other than Distiller
/pdfmark where {pop} {userdict /pdfmark /cleartomark load put} ifelse
% make '<<' and '>>' safe on PS Level 1 devices
/languagelevel where {pop languagelevel}{1} ifelse
2 lt {
    userdict (<<) cvn ([) cvn load put
    userdict (>>) cvn ([) cvn load put
} if

%%EndSetup
setupLatin1
%%Page: 1 1
%%PageBoundingBox: 36 36 756 487
%%PageOrientation: Portrait
0 0 1 beginpage
gsave
36 36 720 451 boxprim clip newpath
0.72 0.72 set_scale 0 rotate 54 55 translate
% Fin
gsave
1 setlinewidth
0 0 0 nodecolor
500 588 26.16 26.16 ellipse_path stroke
1 setlinewidth
0 0 0 nodecolor
500 588 30.16 30.16 ellipse_path stroke
0 0 0 nodecolor
14 /Times-Roman set_font
489.5 584.4 moveto 21 (Fin) alignedtext
grestore
% Menu
gsave
1 setlinewidth
0 0 0 nodecolor
39 312 38.89 38.89 ellipse_path stroke
0 0 0 nodecolor
14 /Times-Roman set_font
19.5 308.4 moveto 39 (Menu) alignedtext
grestore
% Menu->Fin
gsave
1 setlinewidth
0 0 0 edgecolor
newpath 60.72 344.54 moveto
91.5 388.16 151.95 465.06 222 508 curveto
298.38 554.83 403.31 575.24 459.91 583.31 curveto
stroke
0 0 0 edgecolor
newpath 459.51 586.79 moveto
469.89 584.68 lineto
460.46 579.85 lineto
closepath fill
1 setlinewidth
solid
0 0 0 edgecolor
newpath 459.51 586.79 moveto
469.89 584.68 lineto
460.46 579.85 lineto
closepath stroke
0 0 0 edgecolor
14 /Times-Roman set_font
245.5 547.4 moveto 31 (Salir) alignedtext
grestore
% Config
gsave
1 setlinewidth
0 0 0 nodecolor
500 498 41.93 42.43 ellipse_path stroke
0 0 0 nodecolor
14 /Times-Roman set_font
478 494.4 moveto 44 (Config) alignedtext
grestore
% Menu->Config
gsave
1 setlinewidth
0 0 0 edgecolor
newpath 64.74 341.65 moveto
97.41 377.09 157.33 435.08 222 463 curveto
295.37 494.67 389.05 500.11 446.76 499.94 curveto
stroke
0 0 0 edgecolor
newpath 447.14 503.44 moveto
457.11 499.85 lineto
447.08 496.44 lineto
closepath fill
1 setlinewidth
solid
0 0 0 edgecolor
newpath 447.14 503.44 moveto
457.11 499.85 lineto
447.08 496.44 lineto
closepath stroke
0 0 0 edgecolor
14 /Times-Roman set_font
235.5 491.4 moveto 51 (B.Jugar) alignedtext
grestore
% Acerca
gsave
1 setlinewidth
0 0 0 nodecolor
500 394 43.84 43.84 ellipse_path stroke
0 0 0 nodecolor
14 /Times-Roman set_font
477 390.4 moveto 46 (Acerca) alignedtext
grestore
% Menu->Acerca
gsave
1 setlinewidth
0 0 0 edgecolor
newpath 75.46 326.81 moveto
111.91 340.93 169.88 361.55 222 372 curveto
298.64 387.37 389.18 392.1 445.61 393.5 curveto
stroke
0 0 0 edgecolor
newpath 445.66 397 moveto
455.74 393.73 lineto
445.82 390.01 lineto
closepath fill
1 setlinewidth
solid
0 0 0 edgecolor
newpath 445.66 397 moveto
455.74 393.73 lineto
445.82 390.01 lineto
closepath stroke
0 0 0 edgecolor
14 /Times-Roman set_font
230.5 389.4 moveto 61 (B.Acerca) alignedtext
grestore
% Opciones
gsave
1 setlinewidth
0 0 0 nodecolor
500 276 55.86 55.86 ellipse_path stroke
0 0 0 nodecolor
14 /Times-Roman set_font
468.5 272.4 moveto 63 (Opciones) alignedtext
grestore
% Menu->Opciones
gsave
1 setlinewidth
0 0 0 edgecolor
newpath 77.91 308.96 moveto
156.84 302.8 336.56 288.76 434.09 281.15 curveto
stroke
0 0 0 edgecolor
newpath 434.43 284.63 moveto
444.13 280.36 lineto
433.89 277.65 lineto
closepath fill
1 setlinewidth
solid
0 0 0 edgecolor
newpath 434.43 284.63 moveto
444.13 280.36 lineto
433.89 277.65 lineto
closepath stroke
0 0 0 edgecolor
14 /Times-Roman set_font
222.5 303.4 moveto 77 (B.Opciones) alignedtext
grestore
% Logros
gsave
1 setlinewidth
0 0 0 nodecolor
500 158 43.84 43.84 ellipse_path stroke
0 0 0 nodecolor
14 /Times-Roman set_font
477 154.4 moveto 46 (Logros) alignedtext
grestore
% Menu->Logros
gsave
1 setlinewidth
0 0 0 edgecolor
newpath 75.59 297.72 moveto
112.38 283.52 170.82 261.41 222 244 curveto
300.06 217.45 391.57 189.8 447.66 173.24 curveto
stroke
0 0 0 edgecolor
newpath 448.77 176.56 moveto
457.37 170.38 lineto
446.79 169.85 lineto
closepath fill
1 setlinewidth
solid
0 0 0 edgecolor
newpath 448.77 176.56 moveto
457.37 170.38 lineto
446.79 169.85 lineto
closepath stroke
0 0 0 edgecolor
14 /Times-Roman set_font
230.5 249.4 moveto 61 (B.Logros) alignedtext
grestore
% Tutorial
gsave
1 setlinewidth
0 0 0 nodecolor
500 48 48.08 48.08 ellipse_path stroke
0 0 0 nodecolor
14 /Times-Roman set_font
474 44.4 moveto 52 (Tutorial) alignedtext
grestore
% Menu->Tutorial
gsave
1 setlinewidth
0 0 0 edgecolor
newpath 66.15 283.63 moveto
100 249.57 160.88 192.49 222 156 curveto
293.86 113.09 385.82 81.31 443.83 63.71 curveto
stroke
0 0 0 edgecolor
newpath 444.98 67.02 moveto
453.55 60.8 lineto
442.97 60.32 lineto
closepath fill
1 setlinewidth
solid
0 0 0 edgecolor
newpath 444.98 67.02 moveto
453.55 60.8 lineto
442.97 60.32 lineto
closepath stroke
0 0 0 edgecolor
14 /Times-Roman set_font
227.5 161.4 moveto 67 (B.Tutorial) alignedtext
grestore
% Config->Menu
gsave
1 setlinewidth
0 0 0 edgecolor
newpath 458.76 486.53 moveto
403.83 470.76 304.05 440.4 222 406 curveto
172.66 385.31 118.4 356.65 81.87 336.43 curveto
stroke
0 0 0 edgecolor
newpath 83.42 333.28 moveto
72.98 331.48 lineto
80.02 339.4 lineto
closepath fill
1 setlinewidth
solid
0 0 0 edgecolor
newpath 83.42 333.28 moveto
72.98 331.48 lineto
80.02 339.4 lineto
closepath stroke
0 0 0 edgecolor
14 /Times-Roman set_font
239 440.4 moveto 44 (Volver) alignedtext
grestore
% Juego
gsave
1 setlinewidth
0 0 0 nodecolor
953 498 38.89 38.89 ellipse_path stroke
0 0 0 nodecolor
14 /Times-Roman set_font
933.5 494.4 moveto 39 (Juego) alignedtext
grestore
% Config->Juego
gsave
1 setlinewidth
0 0 0 edgecolor
newpath 542.62 498 moveto
626.83 498 814.14 498 903.59 498 curveto
stroke
0 0 0 edgecolor
newpath 903.74 501.5 moveto
913.74 498 lineto
903.74 494.5 lineto
closepath fill
1 setlinewidth
solid
0 0 0 edgecolor
newpath 903.74 501.5 moveto
913.74 498 lineto
903.74 494.5 lineto
closepath stroke
0 0 0 edgecolor
14 /Times-Roman set_font
700 503.4 moveto 70 (Continuar) alignedtext
grestore
% Acerca->Menu
gsave
1 setlinewidth
0 0 0 edgecolor
newpath 456.88 383.57 moveto
416.49 374.03 354.39 359.93 300 350 curveto
226.52 336.59 140.71 324.84 88.12 318.08 curveto
stroke
0 0 0 edgecolor
newpath 88.42 314.59 moveto
78.06 316.79 lineto
87.53 321.53 lineto
closepath fill
1 setlinewidth
solid
0 0 0 edgecolor
newpath 88.42 314.59 moveto
78.06 316.79 lineto
87.53 321.53 lineto
closepath stroke
0 0 0 edgecolor
14 /Times-Roman set_font
239 355.4 moveto 44 (Volver) alignedtext
grestore
% Opciones->Menu
gsave
1 setlinewidth
0 0 0 edgecolor
newpath 444.15 270.41 moveto
387.88 265.81 298.63 261.32 222 270 curveto
175.22 275.3 122.98 287.99 86.33 298.04 curveto
stroke
0 0 0 edgecolor
newpath 85.12 294.74 moveto
76.42 300.8 lineto
86.99 301.49 lineto
closepath fill
1 setlinewidth
solid
0 0 0 edgecolor
newpath 85.12 294.74 moveto
76.42 300.8 lineto
86.99 301.49 lineto
closepath stroke
0 0 0 edgecolor
14 /Times-Roman set_font
239 275.4 moveto 44 (Volver) alignedtext
grestore
% Logros->Menu
gsave
1 setlinewidth
0 0 0 edgecolor
newpath 455.78 158.78 moveto
399.77 161.02 301.01 169.16 222 198 curveto
168.13 217.67 113.19 254.63 77.76 281.14 curveto
stroke
0 0 0 edgecolor
newpath 75.48 278.47 moveto
69.62 287.3 lineto
79.71 284.05 lineto
closepath fill
1 setlinewidth
solid
0 0 0 edgecolor
newpath 75.48 278.47 moveto
69.62 287.3 lineto
79.71 284.05 lineto
closepath stroke
0 0 0 edgecolor
14 /Times-Roman set_font
239 203.4 moveto 44 (Volver) alignedtext
grestore
% Tutorial->Menu
gsave
1 setlinewidth
0 0 0 edgecolor
newpath 451.95 46.85 moveto
393.75 47.53 294.51 55.48 222 97 curveto
149.97 138.25 93.16 218.99 62.95 268.94 curveto
stroke
0 0 0 edgecolor
newpath 59.91 267.21 moveto
57.8 277.59 lineto
65.93 270.79 lineto
closepath fill
1 setlinewidth
solid
0 0 0 edgecolor
newpath 59.91 267.21 moveto
57.8 277.59 lineto
65.93 270.79 lineto
closepath stroke
0 0 0 edgecolor
14 /Times-Roman set_font
239 102.4 moveto 44 (Volver) alignedtext
grestore
endpage
showpage
grestore
%%PageTrailer
%%EndPage: 1
%%Trailer
%%Pages: 1
%%BoundingBox: 36 36 756 487
end
restore
%%EOF
