%!PS-Adobe-3.0
%%Creator: graphviz version 2.26.3 (20100126.1600)
%%Title: finite_state_machine
%%Pages: (atend)
%%BoundingBox: (atend)
%%EndComments
save
%%BeginProlog
/DotDict 200 dict def
DotDict begin

/setupLatin1 {
mark
/EncodingVector 256 array def
 EncodingVector 0

ISOLatin1Encoding 0 255 getinterval putinterval
EncodingVector 45 /hyphen put

% Set up ISO Latin 1 character encoding
/starnetISO {
        dup dup findfont dup length dict begin
        { 1 index /FID ne { def }{ pop pop } ifelse
        } forall
        /Encoding EncodingVector def
        currentdict end definefont
} def
/Times-Roman starnetISO def
/Times-Italic starnetISO def
/Times-Bold starnetISO def
/Times-BoldItalic starnetISO def
/Helvetica starnetISO def
/Helvetica-Oblique starnetISO def
/Helvetica-Bold starnetISO def
/Helvetica-BoldOblique starnetISO def
/Courier starnetISO def
/Courier-Oblique starnetISO def
/Courier-Bold starnetISO def
/Courier-BoldOblique starnetISO def
cleartomark
} bind def

%%BeginResource: procset graphviz 0 0
/coord-font-family /Times-Roman def
/default-font-family /Times-Roman def
/coordfont coord-font-family findfont 8 scalefont def

/InvScaleFactor 1.0 def
/set_scale {
       dup 1 exch div /InvScaleFactor exch def
       scale
} bind def

% styles
/solid { [] 0 setdash } bind def
/dashed { [9 InvScaleFactor mul dup ] 0 setdash } bind def
/dotted { [1 InvScaleFactor mul 6 InvScaleFactor mul] 0 setdash } bind def
/invis {/fill {newpath} def /stroke {newpath} def /show {pop newpath} def} bind def
/bold { 2 setlinewidth } bind def
/filled { } bind def
/unfilled { } bind def
/rounded { } bind def
/diagonals { } bind def

% hooks for setting color 
/nodecolor { sethsbcolor } bind def
/edgecolor { sethsbcolor } bind def
/graphcolor { sethsbcolor } bind def
/nopcolor {pop pop pop} bind def

/beginpage {	% i j npages
	/npages exch def
	/j exch def
	/i exch def
	/str 10 string def
	npages 1 gt {
		gsave
			coordfont setfont
			0 0 moveto
			(\() show i str cvs show (,) show j str cvs show (\)) show
		grestore
	} if
} bind def

/set_font {
	findfont exch
	scalefont setfont
} def

% draw text fitted to its expected width
/alignedtext {			% width text
	/text exch def
	/width exch def
	gsave
		width 0 gt {
			[] 0 setdash
			text stringwidth pop width exch sub text length div 0 text ashow
		} if
	grestore
} def

/boxprim {				% xcorner ycorner xsize ysize
		4 2 roll
		moveto
		2 copy
		exch 0 rlineto
		0 exch rlineto
		pop neg 0 rlineto
		closepath
} bind def

/ellipse_path {
	/ry exch def
	/rx exch def
	/y exch def
	/x exch def
	matrix currentmatrix
	newpath
	x y translate
	rx ry scale
	0 0 1 0 360 arc
	setmatrix
} bind def

/endpage { showpage } bind def
/showpage { } def

/layercolorseq
	[	% layer color sequence - darkest to lightest
		[0 0 0]
		[.2 .8 .8]
		[.4 .8 .8]
		[.6 .8 .8]
		[.8 .8 .8]
	]
def

/layerlen layercolorseq length def

/setlayer {/maxlayer exch def /curlayer exch def
	layercolorseq curlayer 1 sub layerlen mod get
	aload pop sethsbcolor
	/nodecolor {nopcolor} def
	/edgecolor {nopcolor} def
	/graphcolor {nopcolor} def
} bind def

/onlayer { curlayer ne {invis} if } def

/onlayers {
	/myupper exch def
	/mylower exch def
	curlayer mylower lt
	curlayer myupper gt
	or
	{invis} if
} def

/curlayer 0 def

%%EndResource
%%EndProlog
%%BeginSetup
14 default-font-family set_font
1 setmiterlimit
% /arrowlength 10 def
% /arrowwidth 5 def

% make sure pdfmark is harmless for PS-interpreters other than Distiller
/pdfmark where {pop} {userdict /pdfmark /cleartomark load put} ifelse
% make '<<' and '>>' safe on PS Level 1 devices
/languagelevel where {pop languagelevel}{1} ifelse
2 lt {
    userdict (<<) cvn ([) cvn load put
    userdict (>>) cvn ([) cvn load put
} if

%%EndSetup
setupLatin1
%%Page: 1 1
%%PageBoundingBox: 36 36 1093 333
%%PageOrientation: Portrait
0 0 1 beginpage
gsave
36 36 1057 297 boxprim clip newpath
1 1 set_scale 0 rotate 40 41 translate
% Ruta
gsave
1 setlinewidth
0 0 0 nodecolor
49.5 101.42 34.15 34.65 ellipse_path stroke
0 0 0 nodecolor
14 /Times-Roman set_font
33 97.82 moveto 33 (Ruta) alignedtext
grestore
% Ruta->Ruta
gsave
1 setlinewidth
0 0 0 edgecolor
newpath 23.11 123.32 moveto
15.11 138.49 23.91 153.42 49.5 153.42 curveto
69.5 153.42 79.24 144.3 78.73 133.09 curveto
stroke
0 0 0 edgecolor
newpath 82.05 131.95 moveto
75.89 123.32 lineto
75.32 133.9 lineto
closepath fill
1 setlinewidth
solid
0 0 0 edgecolor
newpath 82.05 131.95 moveto
75.89 123.32 lineto
75.32 133.9 lineto
closepath stroke
0 0 0 edgecolor
14 /Times-Roman set_font
0 158.82 moveto 99 (No Obstaculos) alignedtext
grestore
% Mirar
gsave
1 setlinewidth
0 0 0 nodecolor
366.5 171.42 36.98 37.48 ellipse_path stroke
0 0 0 nodecolor
14 /Times-Roman set_font
348 167.82 moveto 37 (Mirar) alignedtext
grestore
% Ruta->Mirar
gsave
1 setlinewidth
0 0 0 edgecolor
newpath 69.51 129.82 moveto
88.65 154.29 119.94 187.89 156.5 202.42 curveto
211.11 224.12 279.15 206.76 322.72 190.58 curveto
stroke
0 0 0 edgecolor
newpath 324.09 193.8 moveto
332.16 186.95 lineto
321.57 187.27 lineto
closepath fill
1 setlinewidth
solid
0 0 0 edgecolor
newpath 324.09 193.8 moveto
332.16 186.95 lineto
321.57 187.27 lineto
closepath stroke
0 0 0 edgecolor
14 /Times-Roman set_font
185 217.82 moveto 43 (Hueco) alignedtext
grestore
% Ruta->Mirar
gsave
1 setlinewidth
0 0 0 edgecolor
newpath 77.4 121.85 moveto
98.11 135.78 127.63 153.14 156.5 161.42 curveto
210.47 176.89 275.4 177.38 318.63 175.31 curveto
stroke
0 0 0 edgecolor
newpath 319.07 178.79 moveto
328.86 174.75 lineto
318.69 171.8 lineto
closepath fill
1 setlinewidth
solid
0 0 0 edgecolor
newpath 319.07 178.79 moveto
328.86 174.75 lineto
318.69 171.8 lineto
closepath stroke
0 0 0 edgecolor
14 /Times-Roman set_font
185 180.82 moveto 43 (Limite) alignedtext
grestore
% Ruta->Mirar
gsave
1 setlinewidth
0 0 0 edgecolor
newpath 83.76 107.51 moveto
138.18 117.22 239.97 135.5 256.5 139.42 curveto
277.86 144.47 301.24 151.11 320.94 157.04 curveto
stroke
0 0 0 edgecolor
newpath 319.99 160.41 moveto
330.58 159.96 lineto
322.03 153.71 lineto
closepath fill
1 setlinewidth
solid
0 0 0 edgecolor
newpath 319.99 160.41 moveto
330.58 159.96 lineto
322.03 153.71 lineto
closepath stroke
0 0 0 edgecolor
14 /Times-Roman set_font
176.5 144.82 moveto 60 (Enemigo) alignedtext
grestore
% Atacar
gsave
1 setlinewidth
0 0 0 nodecolor
698.5 94.42 43.84 43.84 ellipse_path stroke
0 0 0 nodecolor
14 /Times-Roman set_font
675.5 90.82 moveto 46 (Atacar) alignedtext
grestore
% Ruta->Atacar
gsave
1 setlinewidth
0 0 0 edgecolor
newpath 83.53 94.2 moveto
104.47 90.14 131.91 85.47 156.5 83.42 curveto
334.54 68.54 546.57 81.78 644.28 89.61 curveto
stroke
0 0 0 edgecolor
newpath 644.24 93.12 moveto
654.49 90.44 lineto
644.81 86.14 lineto
closepath fill
1 setlinewidth
solid
0 0 0 edgecolor
newpath 644.24 93.12 moveto
654.49 90.44 lineto
644.81 86.14 lineto
closepath stroke
0 0 0 edgecolor
14 /Times-Roman set_font
344.5 81.82 moveto 44 (Player) alignedtext
grestore
% Buscar
gsave
1 setlinewidth
0 0 0 nodecolor
1003.5 94.42 44.05 44.55 ellipse_path stroke
0 0 0 nodecolor
14 /Times-Roman set_font
980 90.82 moveto 47 (Buscar) alignedtext
grestore
% Ruta->Buscar
gsave
1 setlinewidth
0 0 0 edgecolor
newpath 82.41 91.06 moveto
103.39 84.89 131.29 77.5 156.5 73.42 curveto
416.61 31.32 486.39 14.46 748.5 41.42 curveto
819.34 48.7 899.54 67.08 950.76 80.15 curveto
stroke
0 0 0 edgecolor
newpath 950.05 83.58 moveto
960.61 82.69 lineto
951.8 76.8 lineto
closepath fill
1 setlinewidth
solid
0 0 0 edgecolor
newpath 950.05 83.58 moveto
960.61 82.69 lineto
951.8 76.8 lineto
closepath stroke
0 0 0 edgecolor
14 /Times-Roman set_font
494 34.82 moveto 65 (Golpeado) alignedtext
grestore
% Mirar->Ruta
gsave
1 setlinewidth
0 0 0 edgecolor
newpath 338.52 146.45 moveto
317.58 129.52 287.34 108.61 256.5 99.42 curveto
202.25 83.24 136.39 87.73 93.75 93.57 curveto
stroke
0 0 0 edgecolor
newpath 93.09 90.13 moveto
83.7 95.04 lineto
94.1 97.06 lineto
closepath fill
1 setlinewidth
solid
0 0 0 edgecolor
newpath 93.09 90.13 moveto
83.7 95.04 lineto
94.1 97.06 lineto
closepath stroke
0 0 0 edgecolor
14 /Times-Roman set_font
157 104.82 moveto 99 (No Obstaculos) alignedtext
grestore
% Mirar->Mirar
gsave
1 setlinewidth
0 0 0 edgecolor
newpath 338.62 196.3 moveto
331.89 211.73 341.19 226.42 366.5 226.42 curveto
386.28 226.42 396.27 217.45 396.5 206.18 curveto
stroke
0 0 0 edgecolor
newpath 399.9 205.35 moveto
394.38 196.3 lineto
393.05 206.82 lineto
closepath fill
1 setlinewidth
solid
0 0 0 edgecolor
newpath 399.9 205.35 moveto
394.38 196.3 lineto
393.05 206.82 lineto
closepath stroke
0 0 0 edgecolor
14 /Times-Roman set_font
336.5 231.82 moveto 60 (Enemigo) alignedtext
grestore
% Mirar->Atacar
gsave
1 setlinewidth
0 0 0 edgecolor
newpath 399.14 152.93 moveto
420.49 141.7 449.36 128.09 476.5 120.42 curveto
532.28 104.66 598.54 98.44 644.07 95.99 curveto
stroke
0 0 0 edgecolor
newpath 644.5 99.47 moveto
654.31 95.48 lineto
644.15 92.48 lineto
closepath fill
1 setlinewidth
solid
0 0 0 edgecolor
newpath 644.5 99.47 moveto
654.31 95.48 lineto
644.15 92.48 lineto
closepath stroke
0 0 0 edgecolor
14 /Times-Roman set_font
504.5 125.82 moveto 44 (Player) alignedtext
grestore
% Mirar->Buscar
gsave
1 setlinewidth
0 0 0 edgecolor
newpath 398.4 191.04 moveto
419.68 203.04 448.76 217.4 476.5 224.42 curveto
653.16 269.1 722.26 303.34 886.5 224.42 curveto
923.86 206.46 954.65 170.68 975.25 141.2 curveto
stroke
0 0 0 edgecolor
newpath 978.32 142.91 moveto
981.05 132.68 lineto
972.53 138.98 lineto
closepath fill
1 setlinewidth
solid
0 0 0 edgecolor
newpath 978.32 142.91 moveto
981.05 132.68 lineto
972.53 138.98 lineto
closepath stroke
0 0 0 edgecolor
14 /Times-Roman set_font
666 276.82 moveto 65 (Golpeado) alignedtext
grestore
% Atacar->Mirar
gsave
1 setlinewidth
0 0 0 edgecolor
newpath 657.61 111.37 moveto
634.2 120.52 604.09 131.34 576.5 138.42 curveto
521.68 152.47 457.18 161.53 414.27 166.53 curveto
stroke
0 0 0 edgecolor
newpath 413.65 163.08 moveto
404.11 167.69 lineto
414.44 170.04 lineto
closepath fill
1 setlinewidth
solid
0 0 0 edgecolor
newpath 413.65 163.08 moveto
404.11 167.69 lineto
414.44 170.04 lineto
closepath stroke
0 0 0 edgecolor
14 /Times-Roman set_font
477 162.82 moveto 99 (No Obstaculos) alignedtext
grestore
% Atacar->Atacar
gsave
1 setlinewidth
0 0 0 edgecolor
newpath 670.08 128.22 moveto
667.37 143.34 676.84 156.42 698.5 156.42 curveto
715.08 156.42 724.52 148.75 726.82 138.37 curveto
stroke
0 0 0 edgecolor
newpath 730.32 138.25 moveto
726.92 128.22 lineto
723.32 138.18 lineto
closepath fill
1 setlinewidth
solid
0 0 0 edgecolor
newpath 730.32 138.25 moveto
726.92 128.22 lineto
723.32 138.18 lineto
closepath stroke
0 0 0 edgecolor
14 /Times-Roman set_font
676.5 161.82 moveto 44 (Player) alignedtext
grestore
% Atacar->Buscar
gsave
1 setlinewidth
0 0 0 edgecolor
newpath 742.52 94.42 moveto
796.99 94.42 889.74 94.42 948.75 94.42 curveto
stroke
0 0 0 edgecolor
newpath 948.99 97.92 moveto
958.99 94.42 lineto
948.99 90.92 lineto
closepath fill
1 setlinewidth
solid
0 0 0 edgecolor
newpath 948.99 97.92 moveto
958.99 94.42 lineto
948.99 90.92 lineto
closepath stroke
0 0 0 edgecolor
14 /Times-Roman set_font
821 99.82 moveto 65 (Golpeado) alignedtext
grestore
% Buscar->Ruta
gsave
1 setlinewidth
0 0 0 edgecolor
newpath 963.18 75.37 moveto
941.01 65.62 912.74 54.38 886.5 47.42 curveto
826.66 31.54 809.85 36.74 748.5 28.42 curveto
672.08 18.05 653.45 10.54 576.5 5.42 curveto
389.03 -7.06 336.79 .54 156.5 53.42 curveto
133.39 60.19 108.8 70.95 89.02 80.57 curveto
stroke
0 0 0 edgecolor
newpath 87.42 77.46 moveto
80.02 85.03 lineto
90.53 83.73 lineto
closepath fill
1 setlinewidth
solid
0 0 0 edgecolor
newpath 87.42 77.46 moveto
80.02 85.03 lineto
90.53 83.73 lineto
closepath stroke
0 0 0 edgecolor
14 /Times-Roman set_font
504.5 10.82 moveto 44 (Player) alignedtext
grestore
% Buscar->Mirar
gsave
1 setlinewidth
0 0 0 edgecolor
newpath 963.11 113.29 moveto
913.75 135.22 827.09 170.1 748.5 183.42 curveto
629.3 203.62 597.26 185.21 476.5 179.42 curveto
455.99 178.43 433.36 176.87 413.99 175.38 curveto
stroke
0 0 0 edgecolor
newpath 414.14 171.89 moveto
403.89 174.6 lineto
413.59 178.86 lineto
closepath fill
1 setlinewidth
solid
0 0 0 edgecolor
newpath 414.14 171.89 moveto
403.89 174.6 lineto
413.59 178.86 lineto
closepath stroke
0 0 0 edgecolor
14 /Times-Roman set_font
649 197.82 moveto 99 (No Obstaculos) alignedtext
grestore
endpage
showpage
grestore
%%PageTrailer
%%EndPage: 1
%%Trailer
%%Pages: 1
%%BoundingBox: 36 36 1093 333
end
restore
%%EOF
