%!PS-Adobe-3.0
%%Creator: graphviz version 2.26.3 (20100126.1600)
%%Title: finite_state_machine
%%Pages: (atend)
%%BoundingBox: (atend)
%%EndComments
save
%%BeginProlog
/DotDict 200 dict def
DotDict begin

/setupLatin1 {
mark
/EncodingVector 256 array def
 EncodingVector 0

ISOLatin1Encoding 0 255 getinterval putinterval
EncodingVector 45 /hyphen put

% Set up ISO Latin 1 character encoding
/starnetISO {
        dup dup findfont dup length dict begin
        { 1 index /FID ne { def }{ pop pop } ifelse
        } forall
        /Encoding EncodingVector def
        currentdict end definefont
} def
/Times-Roman starnetISO def
/Times-Italic starnetISO def
/Times-Bold starnetISO def
/Times-BoldItalic starnetISO def
/Helvetica starnetISO def
/Helvetica-Oblique starnetISO def
/Helvetica-Bold starnetISO def
/Helvetica-BoldOblique starnetISO def
/Courier starnetISO def
/Courier-Oblique starnetISO def
/Courier-Bold starnetISO def
/Courier-BoldOblique starnetISO def
cleartomark
} bind def

%%BeginResource: procset graphviz 0 0
/coord-font-family /Times-Roman def
/default-font-family /Times-Roman def
/coordfont coord-font-family findfont 8 scalefont def

/InvScaleFactor 1.0 def
/set_scale {
       dup 1 exch div /InvScaleFactor exch def
       scale
} bind def

% styles
/solid { [] 0 setdash } bind def
/dashed { [9 InvScaleFactor mul dup ] 0 setdash } bind def
/dotted { [1 InvScaleFactor mul 6 InvScaleFactor mul] 0 setdash } bind def
/invis {/fill {newpath} def /stroke {newpath} def /show {pop newpath} def} bind def
/bold { 2 setlinewidth } bind def
/filled { } bind def
/unfilled { } bind def
/rounded { } bind def
/diagonals { } bind def

% hooks for setting color 
/nodecolor { sethsbcolor } bind def
/edgecolor { sethsbcolor } bind def
/graphcolor { sethsbcolor } bind def
/nopcolor {pop pop pop} bind def

/beginpage {	% i j npages
	/npages exch def
	/j exch def
	/i exch def
	/str 10 string def
	npages 1 gt {
		gsave
			coordfont setfont
			0 0 moveto
			(\() show i str cvs show (,) show j str cvs show (\)) show
		grestore
	} if
} bind def

/set_font {
	findfont exch
	scalefont setfont
} def

% draw text fitted to its expected width
/alignedtext {			% width text
	/text exch def
	/width exch def
	gsave
		width 0 gt {
			[] 0 setdash
			text stringwidth pop width exch sub text length div 0 text ashow
		} if
	grestore
} def

/boxprim {				% xcorner ycorner xsize ysize
		4 2 roll
		moveto
		2 copy
		exch 0 rlineto
		0 exch rlineto
		pop neg 0 rlineto
		closepath
} bind def

/ellipse_path {
	/ry exch def
	/rx exch def
	/y exch def
	/x exch def
	matrix currentmatrix
	newpath
	x y translate
	rx ry scale
	0 0 1 0 360 arc
	setmatrix
} bind def

/endpage { showpage } bind def
/showpage { } def

/layercolorseq
	[	% layer color sequence - darkest to lightest
		[0 0 0]
		[.2 .8 .8]
		[.4 .8 .8]
		[.6 .8 .8]
		[.8 .8 .8]
	]
def

/layerlen layercolorseq length def

/setlayer {/maxlayer exch def /curlayer exch def
	layercolorseq curlayer 1 sub layerlen mod get
	aload pop sethsbcolor
	/nodecolor {nopcolor} def
	/edgecolor {nopcolor} def
	/graphcolor {nopcolor} def
} bind def

/onlayer { curlayer ne {invis} if } def

/onlayers {
	/myupper exch def
	/mylower exch def
	curlayer mylower lt
	curlayer myupper gt
	or
	{invis} if
} def

/curlayer 0 def

%%EndResource
%%EndProlog
%%BeginSetup
14 default-font-family set_font
1 setmiterlimit
% /arrowlength 10 def
% /arrowwidth 5 def

% make sure pdfmark is harmless for PS-interpreters other than Distiller
/pdfmark where {pop} {userdict /pdfmark /cleartomark load put} ifelse
% make '<<' and '>>' safe on PS Level 1 devices
/languagelevel where {pop languagelevel}{1} ifelse
2 lt {
    userdict (<<) cvn ([) cvn load put
    userdict (>>) cvn ([) cvn load put
} if

%%EndSetup
setupLatin1
%%Page: 1 1
%%PageBoundingBox: 36 36 612 217
%%PageOrientation: Portrait
0 0 1 beginpage
gsave
36 36 576 181 boxprim clip newpath
0.395062 0.395062 set_scale 0 rotate 95.125 96.125 translate
% RutaDer
gsave
1 setlinewidth
0 0 0 nodecolor
53 217 51.83 52.33 ellipse_path stroke
0 0 0 nodecolor
14 /Times-Roman set_font
24 213.4 moveto 58 (RutaDer) alignedtext
grestore
% RutaDer->RutaDer
gsave
1 setlinewidth
0 0 0 edgecolor
newpath 31.04 264.44 moveto
32.2 277.25 39.52 287 53 287 curveto
62.69 287 69.2 281.96 72.52 274.37 curveto
stroke
0 0 0 edgecolor
newpath 75.98 274.99 moveto
74.96 264.44 lineto
69.18 273.32 lineto
closepath fill
1 setlinewidth
solid
0 0 0 edgecolor
newpath 75.98 274.99 moveto
74.96 264.44 lineto
69.18 273.32 lineto
closepath stroke
0 0 0 edgecolor
14 /Times-Roman set_font
17 292.4 moveto 72 (Despejado) alignedtext
grestore
% MirarIzq
gsave
1 setlinewidth
0 0 0 nodecolor
291 217 51.83 52.33 ellipse_path stroke
0 0 0 nodecolor
14 /Times-Roman set_font
262 213.4 moveto 58 (MirarIzq) alignedtext
grestore
% RutaDer->MirarIzq
gsave
1 setlinewidth
0 0 0 edgecolor
newpath 104 229.81 moveto
116.36 232.38 129.59 234.69 142 236 curveto
168.52 238.8 175.48 238.8 202 236 curveto
211.12 235.04 220.67 233.54 230 231.79 curveto
stroke
0 0 0 edgecolor
newpath 230.87 235.18 moveto
240 229.81 lineto
229.51 228.32 lineto
closepath fill
1 setlinewidth
solid
0 0 0 edgecolor
newpath 230.87 235.18 moveto
240 229.81 lineto
229.51 228.32 lineto
closepath stroke
0 0 0 edgecolor
14 /Times-Roman set_font
150.5 243.4 moveto 43 (Hueco) alignedtext
grestore
% RutaDer->MirarIzq
gsave
1 setlinewidth
0 0 0 edgecolor
newpath 105.7 214.93 moveto
117.64 214.54 130.25 214.2 142 214 curveto
168.66 213.55 175.34 213.55 202 214 curveto
210.44 214.14 219.34 214.36 228.1 214.62 curveto
stroke
0 0 0 edgecolor
newpath 228.2 218.12 moveto
238.3 214.93 lineto
228.41 211.12 lineto
closepath fill
1 setlinewidth
solid
0 0 0 edgecolor
newpath 228.2 218.12 moveto
238.3 214.93 lineto
228.41 211.12 lineto
closepath stroke
0 0 0 edgecolor
14 /Times-Roman set_font
150.5 219.4 moveto 43 (Limite) alignedtext
grestore
% RutaDer->MirarIzq
gsave
1 setlinewidth
0 0 0 edgecolor
newpath 102.81 199.75 moveto
115.44 196.13 129.09 192.85 142 191 curveto
168.4 187.22 175.6 187.22 202 191 curveto
211.58 192.37 221.57 194.53 231.25 197.04 curveto
stroke
0 0 0 edgecolor
newpath 230.62 200.49 moveto
241.19 199.75 lineto
232.46 193.74 lineto
closepath fill
1 setlinewidth
solid
0 0 0 edgecolor
newpath 230.62 200.49 moveto
241.19 199.75 lineto
232.46 193.74 lineto
closepath stroke
0 0 0 edgecolor
14 /Times-Roman set_font
142 196.4 moveto 60 (Enemigo) alignedtext
grestore
% Atacar
gsave
1 setlinewidth
0 0 0 nodecolor
573 256 43.84 43.84 ellipse_path stroke
0 0 0 nodecolor
14 /Times-Roman set_font
550 252.4 moveto 46 (Atacar) alignedtext
grestore
% RutaDer->Atacar
gsave
1 setlinewidth
0 0 0 edgecolor
newpath 99.15 242.16 moveto
112.66 248.73 127.65 255.28 142 260 curveto
272.16 302.8 436.63 282.33 519.73 267.2 curveto
stroke
0 0 0 edgecolor
newpath 520.51 270.61 moveto
529.7 265.34 lineto
519.23 263.73 lineto
closepath fill
1 setlinewidth
solid
0 0 0 edgecolor
newpath 520.51 270.61 moveto
529.7 265.34 lineto
519.23 263.73 lineto
closepath stroke
0 0 0 edgecolor
14 /Times-Roman set_font
269 290.4 moveto 44 (Player) alignedtext
grestore
% Buscar
gsave
1 setlinewidth
0 0 0 nodecolor
1147 209 44.05 44.55 ellipse_path stroke
0 0 0 nodecolor
14 /Times-Roman set_font
1123.5 205.4 moveto 47 (Buscar) alignedtext
grestore
% RutaDer->Buscar
gsave
1 setlinewidth
0 0 0 edgecolor
newpath 85.23 175.87 moveto
127.03 127.58 204.86 54 291 54 curveto
291 54 291 54 713 54 curveto
804.73 54 830.87 49.31 918 78 curveto
987.07 100.74 1058.55 145.66 1102.88 176.5 curveto
stroke
0 0 0 edgecolor
newpath 1100.91 179.4 moveto
1111.11 182.28 lineto
1104.94 173.67 lineto
closepath fill
1 setlinewidth
solid
0 0 0 edgecolor
newpath 1100.91 179.4 moveto
1111.11 182.28 lineto
1104.94 173.67 lineto
closepath stroke
0 0 0 edgecolor
14 /Times-Roman set_font
540.5 59.4 moveto 65 (Golpeado) alignedtext
grestore
% MirarIzq->Atacar
gsave
1 setlinewidth
0 0 0 edgecolor
newpath 343.33 211.15 moveto
384.31 208.03 442.47 206.83 492 218 curveto
503.25 220.54 514.79 224.8 525.5 229.57 curveto
stroke
0 0 0 edgecolor
newpath 524.13 232.8 moveto
534.68 233.87 lineto
527.1 226.46 lineto
closepath fill
1 setlinewidth
solid
0 0 0 edgecolor
newpath 524.13 232.8 moveto
534.68 233.87 lineto
527.1 226.46 lineto
closepath stroke
0 0 0 edgecolor
14 /Times-Roman set_font
414 223.4 moveto 44 (Player) alignedtext
grestore
% MirarIzq->Buscar
gsave
1 setlinewidth
0 0 0 edgecolor
newpath 343.1 208.16 moveto
355.18 206.45 368.01 204.91 380 204 curveto
445.59 199.01 462.22 203.22 528 203 curveto
736.27 202.3 983.95 206.1 1092.01 207.98 curveto
stroke
0 0 0 edgecolor
newpath 1092.28 211.49 moveto
1102.34 208.17 lineto
1092.4 204.49 lineto
closepath fill
1 setlinewidth
solid
0 0 0 edgecolor
newpath 1092.28 211.49 moveto
1102.34 208.17 lineto
1092.4 204.49 lineto
closepath stroke
0 0 0 edgecolor
14 /Times-Roman set_font
680.5 208.4 moveto 65 (Golpeado) alignedtext
grestore
% RutaIzq
gsave
1 setlinewidth
0 0 0 nodecolor
1400 317 49 49.5 ellipse_path stroke
0 0 0 nodecolor
14 /Times-Roman set_font
1373 313.4 moveto 54 (RutaIzq) alignedtext
grestore
% MirarIzq->RutaIzq
gsave
1 setlinewidth
0 0 0 edgecolor
newpath 338.56 194.37 moveto
351.71 189.06 366.17 184.06 380 181 curveto
732.52 102.96 835.89 96.42 1192 156 curveto
1248.56 165.46 1267.94 163.83 1314 198 curveto
1337.6 215.51 1357.38 241.38 1372 264.53 curveto
stroke
0 0 0 edgecolor
newpath 1369.14 266.55 moveto
1377.35 273.24 lineto
1375.1 262.89 lineto
closepath fill
1 setlinewidth
solid
0 0 0 edgecolor
newpath 1369.14 266.55 moveto
1377.35 273.24 lineto
1375.1 262.89 lineto
closepath stroke
0 0 0 edgecolor
14 /Times-Roman set_font
827 125.4 moveto 72 (Despejado) alignedtext
grestore
% MirarDer
gsave
1 setlinewidth
0 0 0 nodecolor
863 369 55.15 55.15 ellipse_path stroke
0 0 0 nodecolor
14 /Times-Roman set_font
832 365.4 moveto 62 (MirarDer) alignedtext
grestore
% MirarIzq->MirarDer
gsave
1 setlinewidth
0 0 0 edgecolor
newpath 325.8 256.36 moveto
331.87 263.24 338.12 270.32 344 277 curveto
360.03 295.2 360.52 303.56 380 318 curveto
438.01 360.98 457.42 369.77 528 385 curveto
620.57 404.98 730.74 393.11 798.78 381.8 curveto
stroke
0 0 0 edgecolor
newpath 799.65 385.2 moveto
808.92 380.07 lineto
798.47 378.3 lineto
closepath fill
1 setlinewidth
solid
0 0 0 edgecolor
newpath 799.65 385.2 moveto
808.92 380.07 lineto
798.47 378.3 lineto
closepath stroke
0 0 0 edgecolor
14 /Times-Roman set_font
543 400.4 moveto 60 (Enemigo) alignedtext
grestore
% Atacar->MirarIzq
gsave
1 setlinewidth
0 0 0 edgecolor
newpath 528.75 252.77 moveto
489.52 249.58 430.74 244.02 380 236 curveto
370.95 234.57 361.43 232.81 352.11 230.95 curveto
stroke
0 0 0 edgecolor
newpath 352.62 227.48 moveto
342.12 228.89 lineto
351.21 234.34 lineto
closepath fill
1 setlinewidth
solid
0 0 0 edgecolor
newpath 352.62 227.48 moveto
342.12 228.89 lineto
351.21 234.34 lineto
closepath stroke
0 0 0 edgecolor
14 /Times-Roman set_font
380 254.4 moveto 112 (Despejado & Izq) alignedtext
grestore
% Atacar->Atacar
gsave
1 setlinewidth
0 0 0 edgecolor
newpath 547.63 291.99 moveto
546.35 306.16 554.8 318 573 318 curveto
586.65 318 594.82 311.34 597.51 302.03 curveto
stroke
0 0 0 edgecolor
newpath 601 302.25 moveto
598.37 291.99 lineto
594.03 301.65 lineto
closepath fill
1 setlinewidth
solid
0 0 0 edgecolor
newpath 601 302.25 moveto
598.37 291.99 lineto
594.03 301.65 lineto
closepath stroke
0 0 0 edgecolor
14 /Times-Roman set_font
551 323.4 moveto 44 (Player) alignedtext
grestore
% Atacar->Buscar
gsave
1 setlinewidth
0 0 0 edgecolor
newpath 616.98 251.99 moveto
687.89 245.57 831.89 232.72 954 223 curveto
1000.73 219.28 1053.85 215.46 1092.52 212.75 curveto
stroke
0 0 0 edgecolor
newpath 1092.79 216.24 moveto
1102.53 212.05 lineto
1092.31 209.25 lineto
closepath fill
1 setlinewidth
solid
0 0 0 edgecolor
newpath 1092.79 216.24 moveto
1102.53 212.05 lineto
1092.31 209.25 lineto
closepath stroke
0 0 0 edgecolor
14 /Times-Roman set_font
830.5 240.4 moveto 65 (Golpeado) alignedtext
grestore
% Atacar->MirarDer
gsave
1 setlinewidth
0 0 0 edgecolor
newpath 615.73 267.25 moveto
628.04 270.3 641.51 273.46 654 276 curveto
706.05 286.6 723.52 273.28 772 295 curveto
787.54 301.96 802.64 312.28 815.93 323.01 curveto
stroke
0 0 0 edgecolor
newpath 814.04 325.99 moveto
823.96 329.71 lineto
818.53 320.62 lineto
closepath fill
1 setlinewidth
solid
0 0 0 edgecolor
newpath 814.04 325.99 moveto
823.96 329.71 lineto
818.53 320.62 lineto
closepath stroke
0 0 0 edgecolor
14 /Times-Roman set_font
654.5 300.4 moveto 117 (Despejado & Der) alignedtext
grestore
% Buscar->RutaDer
gsave
1 setlinewidth
0 0 0 edgecolor
newpath 1127.6 169.05 moveto
1113.47 143.39 1092.25 110.89 1066 89 curveto
990.34 25.91 961.51 0 863 0 curveto
291 0 291 0 291 0 curveto
216.25 0 197.11 27.5 142 78 curveto
116.66 101.22 95.53 133.19 80.22 160.62 curveto
stroke
0 0 0 edgecolor
newpath 76.97 159.27 moveto
75.26 169.73 lineto
83.12 162.62 lineto
closepath fill
1 setlinewidth
solid
0 0 0 edgecolor
newpath 76.97 159.27 moveto
75.26 169.73 lineto
83.12 162.62 lineto
closepath stroke
0 0 0 edgecolor
14 /Times-Roman set_font
528.5 5.4 moveto 89 (Player & Der) alignedtext
grestore
% Buscar->MirarIzq
gsave
1 setlinewidth
0 0 0 edgecolor
newpath 1102.61 203.53 moveto
984.38 190 652.33 158.71 380 197 curveto
370.9 198.28 361.36 200.01 352.03 201.91 curveto
stroke
0 0 0 edgecolor
newpath 351.09 198.53 moveto
342.04 204.04 lineto
352.55 205.38 lineto
closepath fill
1 setlinewidth
solid
0 0 0 edgecolor
newpath 351.09 198.53 moveto
342.04 204.04 lineto
352.55 205.38 lineto
closepath stroke
0 0 0 edgecolor
14 /Times-Roman set_font
654.5 184.4 moveto 117 (Despejado & Der) alignedtext
grestore
% Buscar->RutaIzq
gsave
1 setlinewidth
0 0 0 edgecolor
newpath 1191.18 203.44 moveto
1226.27 201.02 1275.64 202.18 1314 221 curveto
1335.08 231.34 1353.33 249.33 1367.52 266.97 curveto
stroke
0 0 0 edgecolor
newpath 1364.87 269.25 moveto
1373.76 275.01 lineto
1370.4 264.96 lineto
closepath fill
1 setlinewidth
solid
0 0 0 edgecolor
newpath 1364.87 269.25 moveto
1373.76 275.01 lineto
1370.4 264.96 lineto
closepath stroke
0 0 0 edgecolor
14 /Times-Roman set_font
1228.5 226.4 moveto 85 (Player & Izq) alignedtext
grestore
% Buscar->MirarDer
gsave
1 setlinewidth
0 0 0 edgecolor
newpath 1102.68 215 moveto
1047.67 222.57 960.28 235.09 954 239 curveto
927.02 255.81 905.87 283.88 890.78 309.64 curveto
stroke
0 0 0 edgecolor
newpath 887.57 308.21 moveto
885.7 318.64 lineto
893.66 311.65 lineto
closepath fill
1 setlinewidth
solid
0 0 0 edgecolor
newpath 887.57 308.21 moveto
885.7 318.64 lineto
893.66 311.65 lineto
closepath stroke
0 0 0 edgecolor
14 /Times-Roman set_font
954 244.4 moveto 112 (Despejado & Izq) alignedtext
grestore
% RutaIzq->Atacar
gsave
1 setlinewidth
0 0 0 edgecolor
newpath 1350.42 316.82 moveto
1268 316.19 1097.65 313.47 954 302 curveto
872.73 295.51 852.94 288.79 772 279 curveto
722.93 273.06 667.01 266.63 626.97 262.08 curveto
stroke
0 0 0 edgecolor
newpath 627.22 258.59 moveto
616.89 260.94 lineto
626.43 265.54 lineto
closepath fill
1 setlinewidth
solid
0 0 0 edgecolor
newpath 627.22 258.59 moveto
616.89 260.94 lineto
626.43 265.54 lineto
closepath stroke
0 0 0 edgecolor
14 /Times-Roman set_font
988 313.4 moveto 44 (Player) alignedtext
grestore
% RutaIzq->Buscar
gsave
1 setlinewidth
0 0 0 edgecolor
newpath 1354.42 297.54 moveto
1310.18 278.66 1243.17 250.05 1197.37 230.5 curveto
stroke
0 0 0 edgecolor
newpath 1198.5 227.18 moveto
1187.93 226.47 lineto
1195.75 233.62 lineto
closepath fill
1 setlinewidth
solid
0 0 0 edgecolor
newpath 1198.5 227.18 moveto
1187.93 226.47 lineto
1195.75 233.62 lineto
closepath stroke
0 0 0 edgecolor
14 /Times-Roman set_font
1238.5 283.4 moveto 65 (Golpeado) alignedtext
grestore
% RutaIzq->RutaIzq
gsave
1 setlinewidth
0 0 0 edgecolor
newpath 1376.02 360.18 moveto
1376.51 373.52 1384.5 384 1400 384 curveto
1411.38 384 1418.72 378.35 1422 370.06 curveto
stroke
0 0 0 edgecolor
newpath 1425.45 370.67 moveto
1423.98 360.18 lineto
1418.58 369.3 lineto
closepath fill
1 setlinewidth
solid
0 0 0 edgecolor
newpath 1425.45 370.67 moveto
1423.98 360.18 lineto
1418.58 369.3 lineto
closepath stroke
0 0 0 edgecolor
14 /Times-Roman set_font
1364 389.4 moveto 72 (Despejado) alignedtext
grestore
% RutaIzq->MirarDer
gsave
1 setlinewidth
0 0 0 edgecolor
newpath 1362.68 349.66 moveto
1348.4 360.29 1331.35 370.91 1314 377 curveto
1182.54 423.11 1016 401.27 926.62 383.66 curveto
stroke
0 0 0 edgecolor
newpath 927.13 380.19 moveto
916.63 381.64 lineto
925.74 387.05 lineto
closepath fill
1 setlinewidth
solid
0 0 0 edgecolor
newpath 927.13 380.19 moveto
916.63 381.64 lineto
925.74 387.05 lineto
closepath stroke
0 0 0 edgecolor
14 /Times-Roman set_font
1125.5 409.4 moveto 43 (Hueco) alignedtext
grestore
% RutaIzq->MirarDer
gsave
1 setlinewidth
0 0 0 edgecolor
newpath 1350.98 325.65 moveto
1338.91 327.6 1326.01 329.52 1314 331 curveto
1177.1 347.89 1015.88 359.48 928.07 365.1 curveto
stroke
0 0 0 edgecolor
newpath 927.75 361.62 moveto
917.99 365.74 lineto
928.19 368.6 lineto
closepath fill
1 setlinewidth
solid
0 0 0 edgecolor
newpath 927.75 361.62 moveto
917.99 365.74 lineto
928.19 368.6 lineto
closepath stroke
0 0 0 edgecolor
14 /Times-Roman set_font
1125.5 356.4 moveto 43 (Limite) alignedtext
grestore
% RutaIzq->MirarDer
gsave
1 setlinewidth
0 0 0 edgecolor
newpath 1369.37 355.57 moveto
1354.37 371.97 1335.02 389.85 1314 401 curveto
1265.11 426.94 1247.07 420.42 1192 426 curveto
1086.49 436.7 1056.37 436.7 954 409 curveto
943.41 406.14 932.48 402.23 922.01 397.97 curveto
stroke
0 0 0 edgecolor
newpath 923.14 394.65 moveto
912.56 393.99 lineto
920.42 401.1 lineto
closepath fill
1 setlinewidth
solid
0 0 0 edgecolor
newpath 923.14 394.65 moveto
912.56 393.99 lineto
920.42 401.1 lineto
closepath stroke
0 0 0 edgecolor
14 /Times-Roman set_font
1117 437.4 moveto 60 (Enemigo) alignedtext
grestore
% MirarDer->RutaDer
gsave
1 setlinewidth
0 0 0 edgecolor
newpath 812.3 391.4 moveto
799.38 396.3 785.36 400.93 772 404 curveto
666.16 428.3 635.04 435.31 528 417 curveto
348.71 386.34 303.25 365.17 142 281 curveto
128.57 273.99 114.88 265.15 102.4 256.29 curveto
stroke
0 0 0 edgecolor
newpath 104.12 253.21 moveto
93.96 250.18 lineto
100.01 258.88 lineto
closepath fill
1 setlinewidth
solid
0 0 0 edgecolor
newpath 104.12 253.21 moveto
93.96 250.18 lineto
100.01 258.88 lineto
closepath stroke
0 0 0 edgecolor
14 /Times-Roman set_font
400 415.4 moveto 72 (Despejado) alignedtext
grestore
% MirarDer->MirarIzq
gsave
1 setlinewidth
0 0 0 edgecolor
newpath 807.8 372.05 moveto
740.36 374.2 623.46 372.78 528 345 curveto
459.52 325.07 388.52 283.46 342.31 253.07 curveto
stroke
0 0 0 edgecolor
newpath 344.24 250.15 moveto
333.97 247.54 lineto
340.37 255.98 lineto
closepath fill
1 setlinewidth
solid
0 0 0 edgecolor
newpath 344.24 250.15 moveto
333.97 247.54 lineto
340.37 255.98 lineto
closepath stroke
0 0 0 edgecolor
14 /Times-Roman set_font
543 368.4 moveto 60 (Enemigo) alignedtext
grestore
% MirarDer->Atacar
gsave
1 setlinewidth
0 0 0 edgecolor
newpath 810.85 351.24 moveto
798.21 347.25 784.69 343.25 772 340 curveto
720.24 326.75 702.81 338.74 654 317 curveto
639.89 310.72 625.93 301.57 613.69 292.27 curveto
stroke
0 0 0 edgecolor
newpath 615.53 289.26 moveto
605.5 285.83 lineto
611.2 294.77 lineto
closepath fill
1 setlinewidth
solid
0 0 0 edgecolor
newpath 615.53 289.26 moveto
605.5 285.83 lineto
611.2 294.77 lineto
closepath stroke
0 0 0 edgecolor
14 /Times-Roman set_font
691 345.4 moveto 44 (Player) alignedtext
grestore
% MirarDer->Buscar
gsave
1 setlinewidth
0 0 0 edgecolor
newpath 898.71 326.93 moveto
914.18 311.21 933.45 294.62 954 284 curveto
999.15 260.67 1018.93 280.16 1066 261 curveto
1078.58 255.88 1091.34 248.77 1102.89 241.45 curveto
stroke
0 0 0 edgecolor
newpath 1105.02 244.24 moveto
1111.47 235.84 lineto
1101.18 238.38 lineto
closepath fill
1 setlinewidth
solid
0 0 0 edgecolor
newpath 1105.02 244.24 moveto
1111.47 235.84 lineto
1101.18 238.38 lineto
closepath stroke
0 0 0 edgecolor
14 /Times-Roman set_font
977.5 289.4 moveto 65 (Golpeado) alignedtext
grestore
endpage
showpage
grestore
%%PageTrailer
%%EndPage: 1
%%Trailer
%%Pages: 1
%%BoundingBox: 36 36 612 217
end
restore
%%EOF
